This is BibTeX, Version 0.99dThe top-level auxiliary file: HyunLimThesis.aux
The style file: plain.bst
Database file #1: biblio.bib
Warning--entry type for "Yangthesis" isn't style-file defined
--line 76 of file biblio.bib
Warning--entry type for "Wolfram" isn't style-file defined
--line 85 of file biblio.bib
I was expecting a `,' or a `}'---line 88 of file biblio.bib
 :   
 :   url = {http://mathworld.wolfram.com/Klein-GordonEquation.html},
(Error may have been on previous line)
I'm skipping whatever remains of this entry
You're missing a field name---line 133 of file biblio.bib
 :   
 :   %journal = { {U}niverse 101. {NASA}/{GSFC}},
(Error may have been on previous line)
I'm skipping whatever remains of this entry
I was expecting a `,' or a `}'---line 151 of file biblio.bib
 :        
 :        YEAR={1990}
(Error may have been on previous line)
I'm skipping whatever remains of this entry
You're missing a field name---line 217 of file biblio.bib
 : 
 : %  url={http://stacks.iop.org/0295-5075/46/i=2/a=123},
(Error may have been on previous line)
I'm skipping whatever remains of this entry
You're missing a field name---line 228 of file biblio.bib
 : 
 : %  url={http://stacks.iop.org/0295-5075/46/i=2/a=123},
(Error may have been on previous line)
I'm skipping whatever remains of this entry
You're missing a field name---line 239 of file biblio.bib
 : 
 : %  url={http://stacks.iop.org/0295-5075/46/i=2/a=123},
(Error may have been on previous line)
I'm skipping whatever remains of this entry
You're missing a field name---line 250 of file biblio.bib
 : 
 : %  url={http://stacks.iop.org/0295-5075/46/i=2/a=123},
(Error may have been on previous line)
I'm skipping whatever remains of this entry
Repeated entry---line 298 of file biblio.bib
 : @misc{petsc-web-page
 :                     ,
I'm skipping whatever remains of this entry
Repeated entry---line 305 of file biblio.bib
 : @article{SaadSIAM1986
 :                      ,
I'm skipping whatever remains of this entry
Repeated entry---line 316 of file biblio.bib
 : @book{Toselli:2004:DDM
 :                       ,
I'm skipping whatever remains of this entry
Repeated entry---line 325 of file biblio.bib
 : @book{Smith:1996:DPM
 :                     ,
I'm skipping whatever remains of this entry
Repeated entry---line 334 of file biblio.bib
 : @book{saaditer
 :               ,
I'm skipping whatever remains of this entry
Repeated entry---line 703 of file biblio.bib
 : @article{DiazPRE2008
 :                     ,
I'm skipping whatever remains of this entry
Repeated entry---line 716 of file biblio.bib
 : @article{AndersonJCP2007
 :                         ,
I'm skipping whatever remains of this entry
Repeated entry---line 738 of file biblio.bib
 : @article{PhilippePRD2011
 :                         ,
I'm skipping whatever remains of this entry
Repeated entry---line 749 of file biblio.bib
 : @article{LvPRA2013
 :                   ,
I'm skipping whatever remains of this entry
Repeated entry---line 760 of file biblio.bib
 : @article{ShriokoffPRE2011
 :                          ,
I'm skipping whatever remains of this entry
Repeated entry---line 771 of file biblio.bib
 : @article{BaoJCP2007
 :                    ,
I'm skipping whatever remains of this entry
Repeated entry---line 782 of file biblio.bib
 : @misc{petsc-web-page
 :                     ,
I'm skipping whatever remains of this entry
Repeated entry---line 789 of file biblio.bib
 : @msthesis{Yangthesis
 :                     ,
I'm skipping whatever remains of this entry
Repeated entry---line 798 of file biblio.bib
 : @online{Wolfram
 :                ,
I'm skipping whatever remains of this entry
Repeated entry---line 805 of file biblio.bib
 : @book{saaditer
 :               ,
I'm skipping whatever remains of this entry
Repeated entry---line 813 of file biblio.bib
 : @article{SaadSIAM1986
 :                      ,
I'm skipping whatever remains of this entry
Repeated entry---line 835 of file biblio.bib
 : @book{sakuraiaqm
 :                 ,
I'm skipping whatever remains of this entry
You're missing a field name---line 846 of file biblio.bib
 :   
 :   %journal = { {U}niverse 101. {NASA}/{GSFC}},
(Error may have been on previous line)
I'm skipping whatever remains of this entry
Repeated entry---line 851 of file biblio.bib
 : @book{greinerqm
 :                ,
I'm skipping whatever remains of this entry
I was expecting a `,' or a `}'---line 864 of file biblio.bib
 :        
 :        YEAR={1990}
(Error may have been on previous line)
I'm skipping whatever remains of this entry
Repeated entry---line 867 of file biblio.bib
 : @book{solwave
 :              ,
I'm skipping whatever remains of this entry
Repeated entry---line 875 of file biblio.bib
 : @book{Toselli:2004:DDM
 :                       ,
I'm skipping whatever remains of this entry
Repeated entry---line 884 of file biblio.bib
 : @book{Smith:1996:DPM
 :                     ,
I'm skipping whatever remains of this entry
Repeated entry---line 893 of file biblio.bib
 : @book{greinerqed
 :                 ,
I'm skipping whatever remains of this entry
I was expecting a `,' or a `}'---line 926 of file biblio.bib
 :        
 :        YEAR={2007}
(Error may have been on previous line)
I'm skipping whatever remains of this entry
Name 1 in "Walter {G}reiner, {B}. Muller, and {J}. {R}afelski" has a comma at the end for entry greinerqed
while executing---line 1049 of file plain.bst
Name 1 in "Q. Z. Lv, A. C. Su, M. Jiang, Y. J. Li, R. Grobe, and Q. Su" has a comma at the end for entry LvPRA2013
while executing---line 1049 of file plain.bst
Too many commas in name 1 of "Q. Z. Lv, A. C. Su, M. Jiang, Y. J. Li, R. Grobe, and Q. Su" for entry LvPRA2013
while executing---line 1049 of file plain.bst
Too many commas in name 1 of "Q. Z. Lv, A. C. Su, M. Jiang, Y. J. Li, R. Grobe, and Q. Su" for entry LvPRA2013
while executing---line 1049 of file plain.bst
Name 1 in "A.M. Abrahams, and C.R. Evans" has a comma at the end for entry AbrahamsPRL1993
while executing---line 1049 of file plain.bst
Name 1 in "Catsten Gundlach, and Jose M. Martin-Garcia" has a comma at the end for entry GundlachLRR2007
while executing---line 1049 of file plain.bst
Name 1 in "J. Rashidinia, and M. Ghasemi, and R. Jalilian" has a comma at the end for entry RashidiniaJCAM2010
while executing---line 1049 of file plain.bst
Name 2 in "J. Rashidinia, and M. Ghasemi, and R. Jalilian" has a comma at the end for entry RashidiniaJCAM2010
while executing---line 1049 of file plain.bst
Name 1 in "Piotr Bizo\'n, and Tadeusz Chmaj, and Zbislaw Tabor" has a comma at the end for entry BizonNL2004
while executing---line 1049 of file plain.bst
Name 2 in "Piotr Bizo\'n, and Tadeusz Chmaj, and Zbislaw Tabor" has a comma at the end for entry BizonNL2004
while executing---line 1049 of file plain.bst
Name 1 in "Piotr Bizo\'n, and Dieter Maison, and Arthur Wasserman" has a comma at the end for entry BizonNL2007
while executing---line 1049 of file plain.bst
Name 2 in "Piotr Bizo\'n, and Dieter Maison, and Arthur Wasserman" has a comma at the end for entry BizonNL2007
while executing---line 1049 of file plain.bst
Name 1 in "A. Idesman, and R. Niekamp, and E. Stein" has a comma at the end for entry IdeCM2001
while executing---line 1049 of file plain.bst
Name 2 in "A. Idesman, and R. Niekamp, and E. Stein" has a comma at the end for entry IdeCM2001
while executing---line 1049 of file plain.bst
Name 1 in "S. Rhebergen, and O. Bokhove, and J.J.W. van der Vegt" has a comma at the end for entry RheJCP2008
while executing---line 1049 of file plain.bst
Name 2 in "S. Rhebergen, and O. Bokhove, and J.J.W. van der Vegt" has a comma at the end for entry RheJCP2008
while executing---line 1049 of file plain.bst
Name 1 in "Marcel Oliver, and Matthew West, and Claudia Wulff" has a comma at the end for entry OliNM2004
while executing---line 1049 of file plain.bst
Name 2 in "Marcel Oliver, and Matthew West, and Claudia Wulff" has a comma at the end for entry OliNM2004
while executing---line 1049 of file plain.bst
Name 1 in "A.M. Abrahams, and C.R. Evans" has a comma at the end for entry AbrahamsPRL1993
while executing---line 1090 of file plain.bst
Warning--empty year in AndersonJCP2007
Name 1 in "Piotr Bizo\'n, and Tadeusz Chmaj, and Zbislaw Tabor" has a comma at the end for entry BizonNL2004
while executing---line 1090 of file plain.bst
Name 2 in "Piotr Bizo\'n, and Tadeusz Chmaj, and Zbislaw Tabor" has a comma at the end for entry BizonNL2004
while executing---line 1090 of file plain.bst
Name 1 in "Piotr Bizo\'n, and Dieter Maison, and Arthur Wasserman" has a comma at the end for entry BizonNL2007
while executing---line 1090 of file plain.bst
Name 2 in "Piotr Bizo\'n, and Dieter Maison, and Arthur Wasserman" has a comma at the end for entry BizonNL2007
while executing---line 1090 of file plain.bst
Warning--empty year in ChoptuikPRL1993
Name 1 in "Catsten Gundlach, and Jose M. Martin-Garcia" has a comma at the end for entry GundlachLRR2007
while executing---line 1090 of file plain.bst
Warning--empty year in GundlachLRR2007
Name 1 in "A. Idesman, and R. Niekamp, and E. Stein" has a comma at the end for entry IdeCM2001
while executing---line 1090 of file plain.bst
Name 2 in "A. Idesman, and R. Niekamp, and E. Stein" has a comma at the end for entry IdeCM2001
while executing---line 1090 of file plain.bst
Warning--empty year in LieblingPRD2008
Name 1 in "Marcel Oliver, and Matthew West, and Claudia Wulff" has a comma at the end for entry OliNM2004
while executing---line 1090 of file plain.bst
Name 2 in "Marcel Oliver, and Matthew West, and Claudia Wulff" has a comma at the end for entry OliNM2004
while executing---line 1090 of file plain.bst
Name 1 in "Q. Z. Lv, A. C. Su, M. Jiang, Y. J. Li, R. Grobe, and Q. Su" has a comma at the end for entry LvPRA2013
while executing---line 1090 of file plain.bst
Too many commas in name 1 of "Q. Z. Lv, A. C. Su, M. Jiang, Y. J. Li, R. Grobe, and Q. Su" for entry LvPRA2013
while executing---line 1090 of file plain.bst
Too many commas in name 1 of "Q. Z. Lv, A. C. Su, M. Jiang, Y. J. Li, R. Grobe, and Q. Su" for entry LvPRA2013
while executing---line 1090 of file plain.bst
Name 1 in "J. Rashidinia, and M. Ghasemi, and R. Jalilian" has a comma at the end for entry RashidiniaJCAM2010
while executing---line 1090 of file plain.bst
Name 2 in "J. Rashidinia, and M. Ghasemi, and R. Jalilian" has a comma at the end for entry RashidiniaJCAM2010
while executing---line 1090 of file plain.bst
Name 1 in "S. Rhebergen, and O. Bokhove, and J.J.W. van der Vegt" has a comma at the end for entry RheJCP2008
while executing---line 1090 of file plain.bst
Name 2 in "S. Rhebergen, and O. Bokhove, and J.J.W. van der Vegt" has a comma at the end for entry RheJCP2008
while executing---line 1090 of file plain.bst
Warning--empty year in pdest
Name 1 in "Walter {G}reiner, {B}. Muller, and {J}. {R}afelski" has a comma at the end for entry greinerqed
while executing---line 1090 of file plain.bst
(There were 68 error messages)
