%!PS-Adobe-3.0 EPSF-3.0
%%Creator: MATLAB, The MathWorks, Inc. Version 7.11.0.584 (R2010b). Operating System: Microsoft Windows 7.
%%Title: C:\Users\Hyun Lim\Dropbox\KG\Klein-Gordon paper_Siam\KGeuler_error_comp.eps
%%CreationDate: 07/10/2013  09:46:17
%%DocumentNeededFonts: Helvetica
%%+ Helvetica-Bold
%%DocumentProcessColors: Cyan Magenta Yellow Black
%%LanguageLevel: 2
%%Pages: 1
%%BoundingBox:    51   166   559   624
%%EndComments

%%BeginProlog
% MathWorks dictionary
/MathWorks 160 dict begin
% definition operators
/bdef {bind def} bind def
/ldef {load def} bind def
/xdef {exch def} bdef
/xstore {exch store} bdef
% operator abbreviations
/c  /clip ldef
/cc /concat ldef
/cp /closepath ldef
/gr /grestore ldef
/gs /gsave ldef
/mt /moveto ldef
/np /newpath ldef
/cm /currentmatrix ldef
/sm /setmatrix ldef
/rm /rmoveto ldef
/rl /rlineto ldef
/s {show newpath} bdef
/sc {setcmykcolor} bdef
/sr /setrgbcolor ldef
/sg /setgray ldef
/w /setlinewidth ldef
/j /setlinejoin ldef
/cap /setlinecap ldef
/rc {rectclip} bdef
/rf {rectfill} bdef
% page state control
/pgsv () def
/bpage {/pgsv save def} bdef
/epage {pgsv restore} bdef
/bplot /gsave ldef
/eplot {stroke grestore} bdef
% orientation switch
/portraitMode 0 def /landscapeMode 1 def /rotateMode 2 def
% coordinate system mappings
/dpi2point 0 def
% font control
/FontSize 0 def
/FMS {/FontSize xstore findfont [FontSize 0 0 FontSize neg 0 0]
  makefont setfont} bdef
/ISOLatin1Encoding where {pop /WindowsLatin1Encoding 256 array bdef
ISOLatin1Encoding WindowsLatin1Encoding copy pop
/.notdef/.notdef/quotesinglbase/florin/quotedblbase/ellipsis/dagger
/daggerdbl/circumflex/perthousand/Scaron/guilsinglleft/OE/.notdef/.notdef
/.notdef/.notdef/quoteleft/quoteright/quotedblleft/quotedblright/bullet
/endash/emdash/tilde/trademark/scaron/guilsinglright/oe/.notdef/.notdef
/Ydieresis WindowsLatin1Encoding 128 32 getinterval astore pop}
{/WindowsLatin1Encoding StandardEncoding bdef} ifelse
/reencode {exch dup where {pop load} {pop StandardEncoding} ifelse
  exch dup 3 1 roll findfont dup length dict begin
  { 1 index /FID ne {def}{pop pop} ifelse } forall
  /Encoding exch def currentdict end definefont pop} bdef
/isroman {findfont /CharStrings get /Agrave known} bdef
/FMSR {3 1 roll 1 index dup isroman {reencode} {pop pop} ifelse
  exch FMS} bdef
/csm {1 dpi2point div -1 dpi2point div scale neg translate
 dup landscapeMode eq {pop -90 rotate}
  {rotateMode eq {90 rotate} if} ifelse} bdef
% line types: solid, dotted, dashed, dotdash
/SO { [] 0 setdash } bdef
/DO { [.5 dpi2point mul 4 dpi2point mul] 0 setdash } bdef
/DA { [6 dpi2point mul] 0 setdash } bdef
/DD { [.5 dpi2point mul 4 dpi2point mul 6 dpi2point mul 4
  dpi2point mul] 0 setdash } bdef
% macros for lines and objects
/L {lineto stroke} bdef
/MP {3 1 roll moveto 1 sub {rlineto} repeat} bdef
/AP {{rlineto} repeat} bdef
/PDlw -1 def
/W {/PDlw currentlinewidth def setlinewidth} def
/PP {closepath eofill} bdef
/DP {closepath stroke} bdef
/MR {4 -2 roll moveto dup  0 exch rlineto exch 0 rlineto
  neg 0 exch rlineto closepath} bdef
/FR {MR stroke} bdef
/PR {MR fill} bdef
/L1i {{currentfile picstr readhexstring pop} image} bdef
/tMatrix matrix def
/MakeOval {newpath tMatrix currentmatrix pop translate scale
0 0 1 0 360 arc tMatrix setmatrix} bdef
/FO {MakeOval stroke} bdef
/PO {MakeOval fill} bdef
/PD {currentlinewidth 2 div 0 360 arc fill
   PDlw -1 eq not {PDlw w /PDlw -1 def} if} def
/FA {newpath tMatrix currentmatrix pop translate scale
  0 0 1 5 -2 roll arc tMatrix setmatrix stroke} bdef
/PA {newpath tMatrix currentmatrix pop	translate 0 0 moveto scale
  0 0 1 5 -2 roll arc closepath tMatrix setmatrix fill} bdef
/FAn {newpath tMatrix currentmatrix pop translate scale
  0 0 1 5 -2 roll arcn tMatrix setmatrix stroke} bdef
/PAn {newpath tMatrix currentmatrix pop translate 0 0 moveto scale
  0 0 1 5 -2 roll arcn closepath tMatrix setmatrix fill} bdef
/vradius 0 def /hradius 0 def /lry 0 def
/lrx 0 def /uly 0 def /ulx 0 def /rad 0 def
/MRR {/vradius xdef /hradius xdef /lry xdef /lrx xdef /uly xdef
  /ulx xdef newpath tMatrix currentmatrix pop ulx hradius add uly
  vradius add translate hradius vradius scale 0 0 1 180 270 arc 
  tMatrix setmatrix lrx hradius sub uly vradius add translate
  hradius vradius scale 0 0 1 270 360 arc tMatrix setmatrix
  lrx hradius sub lry vradius sub translate hradius vradius scale
  0 0 1 0 90 arc tMatrix setmatrix ulx hradius add lry vradius sub
  translate hradius vradius scale 0 0 1 90 180 arc tMatrix setmatrix
  closepath} bdef
/FRR {MRR stroke } bdef
/PRR {MRR fill } bdef
/MlrRR {/lry xdef /lrx xdef /uly xdef /ulx xdef /rad lry uly sub 2 div def
  newpath tMatrix currentmatrix pop ulx rad add uly rad add translate
  rad rad scale 0 0 1 90 270 arc tMatrix setmatrix lrx rad sub lry rad
  sub translate rad rad scale 0 0 1 270 90 arc tMatrix setmatrix
  closepath} bdef
/FlrRR {MlrRR stroke } bdef
/PlrRR {MlrRR fill } bdef
/MtbRR {/lry xdef /lrx xdef /uly xdef /ulx xdef /rad lrx ulx sub 2 div def
  newpath tMatrix currentmatrix pop ulx rad add uly rad add translate
  rad rad scale 0 0 1 180 360 arc tMatrix setmatrix lrx rad sub lry rad
  sub translate rad rad scale 0 0 1 0 180 arc tMatrix setmatrix
  closepath} bdef
/FtbRR {MtbRR stroke } bdef
/PtbRR {MtbRR fill } bdef
/stri 6 array def /dtri 6 array def
/smat 6 array def /dmat 6 array def
/tmat1 6 array def /tmat2 6 array def /dif 3 array def
/asub {/ind2 exch def /ind1 exch def dup dup
  ind1 get exch ind2 get sub exch } bdef
/tri_to_matrix {
  2 0 asub 3 1 asub 4 0 asub 5 1 asub
  dup 0 get exch 1 get 7 -1 roll astore } bdef
/compute_transform {
  dmat dtri tri_to_matrix tmat1 invertmatrix 
  smat stri tri_to_matrix tmat2 concatmatrix } bdef
/ds {stri astore pop} bdef
/dt {dtri astore pop} bdef
/db {2 copy /cols xdef /rows xdef mul dup 3 mul string
  currentfile 
  3 index 0 eq {/ASCIIHexDecode filter}
  {/ASCII85Decode filter 3 index 2 eq {/RunLengthDecode filter} if }
  ifelse exch readstring pop
  dup 0 3 index getinterval /rbmap xdef
  dup 2 index dup getinterval /gbmap xdef
  1 index dup 2 mul exch getinterval /bbmap xdef pop pop}bdef
/it {gs np dtri aload pop moveto lineto lineto cp c
  cols rows 8 compute_transform 
  rbmap gbmap bbmap true 3 colorimage gr}bdef
/il {newpath moveto lineto stroke}bdef
currentdict end def
%%EndProlog

%%BeginSetup
MathWorks begin

0 cap

end
%%EndSetup

%%Page: 1 1
%%BeginPageSetup
%%PageBoundingBox:    51   166   559   624
MathWorks begin
bpage
%%EndPageSetup

%%BeginObject: obj1
bplot

/dpi2point 12 def
portraitMode 0612 7488 csm

    0     0  6103  5490 rc
86 dict begin %Colortable dictionary
/c0 { 0.000000 0.000000 0.000000 sr} bdef
/c1 { 1.000000 1.000000 1.000000 sr} bdef
/c2 { 0.900000 0.000000 0.000000 sr} bdef
/c3 { 0.000000 0.820000 0.000000 sr} bdef
/c4 { 0.000000 0.000000 0.800000 sr} bdef
/c5 { 0.910000 0.820000 0.320000 sr} bdef
/c6 { 1.000000 0.260000 0.820000 sr} bdef
/c7 { 0.000000 0.820000 0.820000 sr} bdef
c0
1 j
1 sg
   0    0 6104 5491 rf
6 w
0 4474 4730 0 0 -4474 793 4886 4 MP
PP
-4730 0 0 4474 4730 0 0 -4474 793 4886 5 MP stroke
4 w
DO
SO
6 w
0 sg
 793  412 mt 5523  412 L
 793 4886 mt 5523 4886 L
5523 4886 mt 5523  412 L
 793 4886 mt  793  412 L
 793 4886 mt 5523 4886 L
 793 4886 mt  793  412 L
 793 4886 mt  793 4838 L
 793  412 mt  793  459 L
%%IncludeResource: font Helvetica
/Helvetica /WindowsLatin1Encoding 120 FMSR

 760 5031 mt 
(1) s
1581 4886 mt 1581 4838 L
1581  412 mt 1581  459 L
1498 5031 mt 
(1.5) s
2369 4886 mt 2369 4838 L
2369  412 mt 2369  459 L
2336 5031 mt 
(2) s
3158 4886 mt 3158 4838 L
3158  412 mt 3158  459 L
3075 5031 mt 
(2.5) s
3946 4886 mt 3946 4838 L
3946  412 mt 3946  459 L
3913 5031 mt 
(3) s
4734 4886 mt 4734 4838 L
4734  412 mt 4734  459 L
4651 5031 mt 
(3.5) s
5523 4886 mt 5523 4838 L
5523  412 mt 5523  459 L
5490 5031 mt 
(4) s
 793 4886 mt  840 4886 L
5523 4886 mt 5475 4886 L
 692 4930 mt 
(0) s
 793 4438 mt  840 4438 L
5523 4438 mt 5475 4438 L
 625 4482 mt 
(20) s
 793 3991 mt  840 3991 L
5523 3991 mt 5475 3991 L
 625 4035 mt 
(40) s
 793 3543 mt  840 3543 L
5523 3543 mt 5475 3543 L
 625 3587 mt 
(60) s
 793 3096 mt  840 3096 L
5523 3096 mt 5475 3096 L
 625 3140 mt 
(80) s
 793 2649 mt  840 2649 L
5523 2649 mt 5475 2649 L
 558 2693 mt 
(100) s
 793 2201 mt  840 2201 L
5523 2201 mt 5475 2201 L
 558 2245 mt 
(120) s
 793 1754 mt  840 1754 L
5523 1754 mt 5475 1754 L
 558 1798 mt 
(140) s
 793 1306 mt  840 1306 L
5523 1306 mt 5475 1306 L
 558 1350 mt 
(160) s
 793  859 mt  840  859 L
5523  859 mt 5475  859 L
 558  903 mt 
(180) s
 793  412 mt  840  412 L
5523  412 mt 5475  412 L
 558  456 mt 
(200) s
 793  412 mt 5523  412 L
 793 4886 mt 5523 4886 L
5523 4886 mt 5523  412 L
 793 4886 mt  793  412 L
gs 793 412 4731 4475 rc
/c8 { 1.000000 0.000000 0.000000 sr} bdef
c8
1577 -2126 1577 -812 1576 -1302 793 4872 4 MP stroke
/c9 { 0.000000 1.000000 0.000000 sr} bdef
c9
1577 -2127 1577 -826 1576 -1289 793 4875 4 MP stroke
/c10 { 0.000000 0.000000 1.000000 sr} bdef
c10
1577 -2122 1577 -825 1576 -1288 793 4876 4 MP stroke
gr

c10
0 sg
 776 4929 mt 
( ) s
5507  454 mt 
( ) s
1 sg
0 546 1035 0 0 -546 4198 1101 4 MP
PP
-1035 0 0 546 1035 0 0 -546 4198 1101 5 MP stroke
4 w
DO
SO
6 w
0 sg
4198  555 mt 5233  555 L
4198 1101 mt 5233 1101 L
5233 1101 mt 5233  555 L
4198 1101 mt 4198  555 L
4198 1101 mt 5233 1101 L
4198 1101 mt 4198  555 L
4198  555 mt 5233  555 L
4198 1101 mt 5233 1101 L
5233 1101 mt 5233  555 L
4198 1101 mt 4198  555 L
4666  702 mt 
(30 steps) s
gs 4198 555 1036 547 rc
c8
360 0 4270 660 2 MP stroke
gr

c8
0 sg
4666  871 mt 
(60 steps) s
gs 4198 555 1036 547 rc
c9
360 0 4270 828 2 MP stroke
gr

c9
0 sg
4666 1039 mt 
(120 steps) s
gs 4198 555 1036 547 rc
c10
360 0 4270 996 2 MP stroke
gr

c10
0 sg
%%IncludeResource: font Helvetica-Bold
/Helvetica-Bold /WindowsLatin1Encoding 192 FMSR

2659 5267 mt 
(Time step) s
 102 2396 mt 
(Error) s

end %%Color Dict

eplot
%%EndObject

epage
end

showpage

%%Trailer
%%EOF
