%!PS-Adobe-3.0 EPSF-3.0
%%Creator: MATLAB, The MathWorks, Inc. Version 7.11.0.584 (R2010b). Operating System: Microsoft Windows 7.
%%Title: C:\Users\Hyun Lim\Dropbox\KG\Klein-Gordon paper_Siam\KGrk4_60x60_error_7t.eps
%%CreationDate: 06/17/2013  11:07:46
%%DocumentNeededFonts: Helvetica
%%+ Helvetica-Bold
%%DocumentProcessColors: Cyan Magenta Yellow Black
%%LanguageLevel: 2
%%Pages: 1
%%BoundingBox:   108   258   502   534
%%EndComments

%%BeginProlog
% MathWorks dictionary
/MathWorks 160 dict begin
% definition operators
/bdef {bind def} bind def
/ldef {load def} bind def
/xdef {exch def} bdef
/xstore {exch store} bdef
% operator abbreviations
/c  /clip ldef
/cc /concat ldef
/cp /closepath ldef
/gr /grestore ldef
/gs /gsave ldef
/mt /moveto ldef
/np /newpath ldef
/cm /currentmatrix ldef
/sm /setmatrix ldef
/rm /rmoveto ldef
/rl /rlineto ldef
/s {show newpath} bdef
/sc {setcmykcolor} bdef
/sr /setrgbcolor ldef
/sg /setgray ldef
/w /setlinewidth ldef
/j /setlinejoin ldef
/cap /setlinecap ldef
/rc {rectclip} bdef
/rf {rectfill} bdef
% page state control
/pgsv () def
/bpage {/pgsv save def} bdef
/epage {pgsv restore} bdef
/bplot /gsave ldef
/eplot {stroke grestore} bdef
% orientation switch
/portraitMode 0 def /landscapeMode 1 def /rotateMode 2 def
% coordinate system mappings
/dpi2point 0 def
% font control
/FontSize 0 def
/FMS {/FontSize xstore findfont [FontSize 0 0 FontSize neg 0 0]
  makefont setfont} bdef
/ISOLatin1Encoding where {pop /WindowsLatin1Encoding 256 array bdef
ISOLatin1Encoding WindowsLatin1Encoding copy pop
/.notdef/.notdef/quotesinglbase/florin/quotedblbase/ellipsis/dagger
/daggerdbl/circumflex/perthousand/Scaron/guilsinglleft/OE/.notdef/.notdef
/.notdef/.notdef/quoteleft/quoteright/quotedblleft/quotedblright/bullet
/endash/emdash/tilde/trademark/scaron/guilsinglright/oe/.notdef/.notdef
/Ydieresis WindowsLatin1Encoding 128 32 getinterval astore pop}
{/WindowsLatin1Encoding StandardEncoding bdef} ifelse
/reencode {exch dup where {pop load} {pop StandardEncoding} ifelse
  exch dup 3 1 roll findfont dup length dict begin
  { 1 index /FID ne {def}{pop pop} ifelse } forall
  /Encoding exch def currentdict end definefont pop} bdef
/isroman {findfont /CharStrings get /Agrave known} bdef
/FMSR {3 1 roll 1 index dup isroman {reencode} {pop pop} ifelse
  exch FMS} bdef
/csm {1 dpi2point div -1 dpi2point div scale neg translate
 dup landscapeMode eq {pop -90 rotate}
  {rotateMode eq {90 rotate} if} ifelse} bdef
% line types: solid, dotted, dashed, dotdash
/SO { [] 0 setdash } bdef
/DO { [.5 dpi2point mul 4 dpi2point mul] 0 setdash } bdef
/DA { [6 dpi2point mul] 0 setdash } bdef
/DD { [.5 dpi2point mul 4 dpi2point mul 6 dpi2point mul 4
  dpi2point mul] 0 setdash } bdef
% macros for lines and objects
/L {lineto stroke} bdef
/MP {3 1 roll moveto 1 sub {rlineto} repeat} bdef
/AP {{rlineto} repeat} bdef
/PDlw -1 def
/W {/PDlw currentlinewidth def setlinewidth} def
/PP {closepath eofill} bdef
/DP {closepath stroke} bdef
/MR {4 -2 roll moveto dup  0 exch rlineto exch 0 rlineto
  neg 0 exch rlineto closepath} bdef
/FR {MR stroke} bdef
/PR {MR fill} bdef
/L1i {{currentfile picstr readhexstring pop} image} bdef
/tMatrix matrix def
/MakeOval {newpath tMatrix currentmatrix pop translate scale
0 0 1 0 360 arc tMatrix setmatrix} bdef
/FO {MakeOval stroke} bdef
/PO {MakeOval fill} bdef
/PD {currentlinewidth 2 div 0 360 arc fill
   PDlw -1 eq not {PDlw w /PDlw -1 def} if} def
/FA {newpath tMatrix currentmatrix pop translate scale
  0 0 1 5 -2 roll arc tMatrix setmatrix stroke} bdef
/PA {newpath tMatrix currentmatrix pop	translate 0 0 moveto scale
  0 0 1 5 -2 roll arc closepath tMatrix setmatrix fill} bdef
/FAn {newpath tMatrix currentmatrix pop translate scale
  0 0 1 5 -2 roll arcn tMatrix setmatrix stroke} bdef
/PAn {newpath tMatrix currentmatrix pop translate 0 0 moveto scale
  0 0 1 5 -2 roll arcn closepath tMatrix setmatrix fill} bdef
/vradius 0 def /hradius 0 def /lry 0 def
/lrx 0 def /uly 0 def /ulx 0 def /rad 0 def
/MRR {/vradius xdef /hradius xdef /lry xdef /lrx xdef /uly xdef
  /ulx xdef newpath tMatrix currentmatrix pop ulx hradius add uly
  vradius add translate hradius vradius scale 0 0 1 180 270 arc 
  tMatrix setmatrix lrx hradius sub uly vradius add translate
  hradius vradius scale 0 0 1 270 360 arc tMatrix setmatrix
  lrx hradius sub lry vradius sub translate hradius vradius scale
  0 0 1 0 90 arc tMatrix setmatrix ulx hradius add lry vradius sub
  translate hradius vradius scale 0 0 1 90 180 arc tMatrix setmatrix
  closepath} bdef
/FRR {MRR stroke } bdef
/PRR {MRR fill } bdef
/MlrRR {/lry xdef /lrx xdef /uly xdef /ulx xdef /rad lry uly sub 2 div def
  newpath tMatrix currentmatrix pop ulx rad add uly rad add translate
  rad rad scale 0 0 1 90 270 arc tMatrix setmatrix lrx rad sub lry rad
  sub translate rad rad scale 0 0 1 270 90 arc tMatrix setmatrix
  closepath} bdef
/FlrRR {MlrRR stroke } bdef
/PlrRR {MlrRR fill } bdef
/MtbRR {/lry xdef /lrx xdef /uly xdef /ulx xdef /rad lrx ulx sub 2 div def
  newpath tMatrix currentmatrix pop ulx rad add uly rad add translate
  rad rad scale 0 0 1 180 360 arc tMatrix setmatrix lrx rad sub lry rad
  sub translate rad rad scale 0 0 1 0 180 arc tMatrix setmatrix
  closepath} bdef
/FtbRR {MtbRR stroke } bdef
/PtbRR {MtbRR fill } bdef
/stri 6 array def /dtri 6 array def
/smat 6 array def /dmat 6 array def
/tmat1 6 array def /tmat2 6 array def /dif 3 array def
/asub {/ind2 exch def /ind1 exch def dup dup
  ind1 get exch ind2 get sub exch } bdef
/tri_to_matrix {
  2 0 asub 3 1 asub 4 0 asub 5 1 asub
  dup 0 get exch 1 get 7 -1 roll astore } bdef
/compute_transform {
  dmat dtri tri_to_matrix tmat1 invertmatrix 
  smat stri tri_to_matrix tmat2 concatmatrix } bdef
/ds {stri astore pop} bdef
/dt {dtri astore pop} bdef
/db {2 copy /cols xdef /rows xdef mul dup 3 mul string
  currentfile 
  3 index 0 eq {/ASCIIHexDecode filter}
  {/ASCII85Decode filter 3 index 2 eq {/RunLengthDecode filter} if }
  ifelse exch readstring pop
  dup 0 3 index getinterval /rbmap xdef
  dup 2 index dup getinterval /gbmap xdef
  1 index dup 2 mul exch getinterval /bbmap xdef pop pop}bdef
/it {gs np dtri aload pop moveto lineto lineto cp c
  cols rows 8 compute_transform 
  rbmap gbmap bbmap true 3 colorimage gr}bdef
/il {newpath moveto lineto stroke}bdef
currentdict end def
%%EndProlog

%%BeginSetup
MathWorks begin

0 cap

end
%%EndSetup

%%Page: 1 1
%%BeginPageSetup
%%PageBoundingBox:   108   258   502   534
MathWorks begin
bpage
%%EndPageSetup

%%BeginObject: obj1
bplot

/dpi2point 12 def
portraitMode 1296 6408 csm

    0     0  4734  3312 rc
85 dict begin %Colortable dictionary
/c0 { 0.000000 0.000000 0.000000 sr} bdef
/c1 { 1.000000 1.000000 1.000000 sr} bdef
/c2 { 0.900000 0.000000 0.000000 sr} bdef
/c3 { 0.000000 0.820000 0.000000 sr} bdef
/c4 { 0.000000 0.000000 0.800000 sr} bdef
/c5 { 0.910000 0.820000 0.320000 sr} bdef
/c6 { 1.000000 0.260000 0.820000 sr} bdef
/c7 { 0.000000 0.820000 0.820000 sr} bdef
c0
1 j
1 sg
   0    0 4735 3313 rf
6 w
0 1493 -1592 -684 0 -1492 4283 2423 4 MP
PP
1592 683 0 1493 -1592 -684 0 -1492 4283 2423 5 MP stroke
1592 683 2077 -524 -1593 -683 2207 2947 4 MP
PP
-2076 524 1592 683 2077 -524 -1593 -683 2207 2947 5 MP stroke
0 1493 2077 -525 0 -1492 614 2264 4 MP
PP
-2077 524 0 1493 2077 -525 0 -1492 614 2264 5 MP stroke
4 w
DO
0 sg
2207 2947 mt  614 2264 L
 614 2264 mt  614  772 L
2899 2773 mt 1307 2089 L
1307 2089 mt 1307  597 L
3591 2598 mt 1999 1914 L
1999 1914 mt 1999  422 L
4283 2423 mt 2691 1740 L
2691 1740 mt 2691  247 L
2207 2947 mt 4283 2423 L
4283 2423 mt 4283  931 L
1809 2777 mt 3885 2252 L
3885 2252 mt 3885  760 L
1411 2606 mt 3487 2081 L
3487 2081 mt 3487  589 L
1013 2435 mt 3089 1910 L
3089 1910 mt 3089  418 L
 614 2264 mt 2691 1740 L
2691 1740 mt 2691  247 L
 614 2264 mt 2691 1740 L
2691 1740 mt 4283 2423 L
 614 1966 mt 2691 1441 L
2691 1441 mt 4283 2125 L
 614 1667 mt 2691 1143 L
2691 1143 mt 4283 1826 L
 614 1369 mt 2691  844 L
2691  844 mt 4283 1528 L
 614 1070 mt 2691  546 L
2691  546 mt 4283 1229 L
 614  772 mt 2691  247 L
2691  247 mt 4283  931 L
SO
6 w
2207 2947 mt 4283 2423 L
2207 2947 mt  614 2264 L
 614 2264 mt  614  772 L
2207 2947 mt 2257 2969 L
%%IncludeResource: font Helvetica
/Helvetica /WindowsLatin1Encoding 120 FMSR

2288 3093 mt 
(0) s
2899 2773 mt 2949 2794 L
2980 2918 mt 
(20) s
3591 2598 mt 3641 2619 L
3672 2744 mt 
(40) s
4283 2423 mt 4333 2444 L
4364 2569 mt 
(60) s
2207 2947 mt 2156 2961 L
2056 3080 mt 
(0) s
1809 2777 mt 1757 2790 L
1658 2909 mt 
(2) s
1411 2606 mt 1359 2619 L
1260 2738 mt 
(4) s
1013 2435 mt  961 2448 L
 861 2567 mt 
(6) s
 614 2264 mt  563 2277 L
 463 2397 mt 
(8) s
 614 2264 mt  565 2243 L
 468 2273 mt 
(0) s
 614 1966 mt  565 1945 L
 334 1975 mt 
(100) s
 614 1667 mt  565 1646 L
 334 1676 mt 
(200) s
 614 1369 mt  565 1348 L
 334 1378 mt 
(300) s
 614 1070 mt  565 1049 L
 334 1080 mt 
(400) s
 614  772 mt  565  751 L
 334  781 mt 
(500) s
gs 614 247 3670 2701 rc
/c8 { 0.000000 0.000000 0.562500 sr} bdef
c8
-199 -271 34 -8 4050 2344 3 MP
PP
0 sg
4050 2344 mt 4084 2336 L
4084 2336 mt 3885 2065 L
c8
-199 -267 35 -9 4015 2353 3 MP
PP
0 sg
4015 2353 mt 4050 2344 L
4050 2344 mt 3851 2077 L
c8
34 -12 -199 -267 4050 2344 3 MP
PP
0 sg
4050 2344 mt 3851 2077 L
3851 2077 mt 3885 2065 L
c8
35 -11 -199 -265 4015 2353 3 MP
PP
0 sg
4015 2353 mt 3816 2088 L
3816 2088 mt 3851 2077 L
c8
-199 -265 34 -9 3981 2362 3 MP
PP
0 sg
3981 2362 mt 4015 2353 L
4015 2353 mt 3816 2088 L
c8
-200 -263 35 -9 3946 2371 3 MP
PP
0 sg
3946 2371 mt 3981 2362 L
3981 2362 mt 3781 2099 L
c8
35 -11 -200 -263 3981 2362 3 MP
PP
0 sg
3981 2362 mt 3781 2099 L
3781 2099 mt 3816 2088 L
c8
34 -12 -199 -260 3946 2371 3 MP
PP
0 sg
3946 2371 mt 3747 2111 L
3747 2111 mt 3781 2099 L
c8
-199 -260 35 -8 3911 2379 3 MP
PP
0 sg
3911 2379 mt 3946 2371 L
3946 2371 mt 3747 2111 L
c8
35 -11 -199 -257 3911 2379 3 MP
PP
0 sg
3911 2379 mt 3712 2122 L
3712 2122 mt 3747 2111 L
c8
-199 -257 34 -9 3877 2388 3 MP
PP
0 sg
3877 2388 mt 3911 2379 L
3911 2379 mt 3712 2122 L
/c9 { 0.000000 0.062500 1.000000 sr} bdef
c9
-199 -99 34 -12 3851 2077 3 MP
PP
0 sg
3851 2077 mt 3885 2065 L
3885 2065 mt 3686 1966 L
c8
-199 -254 35 -9 3842 2397 3 MP
PP
0 sg
3842 2397 mt 3877 2388 L
3877 2388 mt 3678 2134 L
c8
34 -12 -199 -254 3877 2388 3 MP
PP
0 sg
3877 2388 mt 3678 2134 L
3678 2134 mt 3712 2122 L
c9
-199 -100 35 -11 3816 2088 3 MP
PP
0 sg
3816 2088 mt 3851 2077 L
3851 2077 mt 3652 1977 L
c9
34 -11 -199 -100 3851 2077 3 MP
PP
0 sg
3851 2077 mt 3652 1977 L
3652 1977 mt 3686 1966 L
c8
-199 -252 34 -9 3808 2406 3 MP
PP
0 sg
3808 2406 mt 3842 2397 L
3842 2397 mt 3643 2145 L
c8
35 -11 -199 -252 3842 2397 3 MP
PP
0 sg
3842 2397 mt 3643 2145 L
3643 2145 mt 3678 2134 L
c9
35 -11 -199 -100 3816 2088 3 MP
PP
0 sg
3816 2088 mt 3617 1988 L
3617 1988 mt 3652 1977 L
c9
-199 -100 35 -11 3781 2099 3 MP
PP
0 sg
3781 2099 mt 3816 2088 L
3816 2088 mt 3617 1988 L
c8
-200 -249 35 -8 3773 2414 3 MP
PP
0 sg
3773 2414 mt 3808 2406 L
3808 2406 mt 3608 2157 L
c8
35 -12 -200 -249 3808 2406 3 MP
PP
0 sg
3808 2406 mt 3608 2157 L
3608 2157 mt 3643 2145 L
c9
-199 -99 34 -12 3747 2111 3 MP
PP
0 sg
3747 2111 mt 3781 2099 L
3781 2099 mt 3582 2000 L
c9
35 -12 -199 -99 3781 2099 3 MP
PP
0 sg
3781 2099 mt 3582 2000 L
3582 2000 mt 3617 1988 L
c8
-199 -245 35 -9 3738 2423 3 MP
PP
0 sg
3738 2423 mt 3773 2414 L
3773 2414 mt 3574 2169 L
c8
34 -12 -199 -245 3773 2414 3 MP
PP
0 sg
3773 2414 mt 3574 2169 L
3574 2169 mt 3608 2157 L
c9
34 -11 -199 -100 3747 2111 3 MP
PP
0 sg
3747 2111 mt 3548 2011 L
3548 2011 mt 3582 2000 L
c9
-199 -100 35 -11 3712 2122 3 MP
PP
0 sg
3712 2122 mt 3747 2111 L
3747 2111 mt 3548 2011 L
c8
-199 -243 34 -9 3704 2432 3 MP
PP
0 sg
3704 2432 mt 3738 2423 L
3738 2423 mt 3539 2180 L
c8
35 -11 -199 -243 3738 2423 3 MP
PP
0 sg
3738 2423 mt 3539 2180 L
3539 2180 mt 3574 2169 L
c9
35 -12 -199 -99 3712 2122 3 MP
PP
0 sg
3712 2122 mt 3513 2023 L
3513 2023 mt 3548 2011 L
c9
-199 -99 34 -12 3678 2134 3 MP
PP
0 sg
3678 2134 mt 3712 2122 L
3712 2122 mt 3513 2023 L
c8
34 -12 -199 -240 3704 2432 3 MP
PP
0 sg
3704 2432 mt 3505 2192 L
3505 2192 mt 3539 2180 L
c8
-199 -240 35 -9 3669 2441 3 MP
PP
0 sg
3669 2441 mt 3704 2432 L
3704 2432 mt 3505 2192 L
/c10 { 0.000000 0.125000 1.000000 sr} bdef
c10
-199 -123 34 -11 3652 1977 3 MP
PP
0 sg
3652 1977 mt 3686 1966 L
3686 1966 mt 3487 1843 L
c9
34 -11 -199 -100 3678 2134 3 MP
PP
0 sg
3678 2134 mt 3479 2034 L
3479 2034 mt 3513 2023 L
/c11 { 0.000000 0.000000 1.000000 sr} bdef
c11
-199 -100 35 -11 3643 2145 3 MP
PP
0 sg
3643 2145 mt 3678 2134 L
3678 2134 mt 3479 2034 L
c8
-199 -237 34 -8 3635 2449 3 MP
PP
0 sg
3635 2449 mt 3669 2441 L
3669 2441 mt 3470 2204 L
c8
35 -12 -199 -237 3669 2441 3 MP
PP
0 sg
3669 2441 mt 3470 2204 L
3470 2204 mt 3505 2192 L
c10
35 -11 -200 -123 3652 1977 3 MP
PP
0 sg
3652 1977 mt 3452 1854 L
3452 1854 mt 3487 1843 L
c10
-200 -123 35 -11 3617 1988 3 MP
PP
0 sg
3617 1988 mt 3652 1977 L
3652 1977 mt 3452 1854 L
c11
35 -12 -199 -99 3643 2145 3 MP
PP
0 sg
3643 2145 mt 3444 2046 L
3444 2046 mt 3479 2034 L
c11
-199 -99 35 -12 3608 2157 3 MP
PP
0 sg
3608 2157 mt 3643 2145 L
3643 2145 mt 3444 2046 L
c8
35 -12 -200 -233 3635 2449 3 MP
PP
0 sg
3635 2449 mt 3435 2216 L
3435 2216 mt 3470 2204 L
c8
-200 -233 35 -9 3600 2458 3 MP
PP
0 sg
3600 2458 mt 3635 2449 L
3635 2449 mt 3435 2216 L
c10
-199 -123 35 -12 3582 2000 3 MP
PP
0 sg
3582 2000 mt 3617 1988 L
3617 1988 mt 3418 1865 L
c10
34 -11 -199 -123 3617 1988 3 MP
PP
0 sg
3617 1988 mt 3418 1865 L
3418 1865 mt 3452 1854 L
c11
35 -12 -199 -99 3608 2157 3 MP
PP
0 sg
3608 2157 mt 3409 2058 L
3409 2058 mt 3444 2046 L
c11
-199 -99 34 -12 3574 2169 3 MP
PP
0 sg
3574 2169 mt 3608 2157 L
3608 2157 mt 3409 2058 L
c8
34 -12 -199 -230 3600 2458 3 MP
PP
0 sg
3600 2458 mt 3401 2228 L
3401 2228 mt 3435 2216 L
c8
-199 -230 35 -9 3565 2467 3 MP
PP
0 sg
3565 2467 mt 3600 2458 L
3600 2458 mt 3401 2228 L
c10
35 -12 -199 -123 3582 2000 3 MP
PP
0 sg
3582 2000 mt 3383 1877 L
3383 1877 mt 3418 1865 L
c9
-199 -123 34 -11 3548 2011 3 MP
PP
0 sg
3548 2011 mt 3582 2000 L
3582 2000 mt 3383 1877 L
c11
34 -11 -199 -100 3574 2169 3 MP
PP
0 sg
3574 2169 mt 3375 2069 L
3375 2069 mt 3409 2058 L
c11
-199 -100 35 -11 3539 2180 3 MP
PP
0 sg
3539 2180 mt 3574 2169 L
3574 2169 mt 3375 2069 L
c8
-199 -227 34 -8 3531 2475 3 MP
PP
0 sg
3531 2475 mt 3565 2467 L
3565 2467 mt 3366 2240 L
c8
35 -12 -199 -227 3565 2467 3 MP
PP
0 sg
3565 2467 mt 3366 2240 L
3366 2240 mt 3401 2228 L
c9
34 -11 -199 -123 3548 2011 3 MP
PP
0 sg
3548 2011 mt 3349 1888 L
3349 1888 mt 3383 1877 L
c9
-199 -123 35 -12 3513 2023 3 MP
PP
0 sg
3513 2023 mt 3548 2011 L
3548 2011 mt 3349 1888 L
c11
35 -12 -199 -99 3539 2180 3 MP
PP
0 sg
3539 2180 mt 3340 2081 L
3340 2081 mt 3375 2069 L
c11
-199 -99 34 -12 3505 2192 3 MP
PP
0 sg
3505 2192 mt 3539 2180 L
3539 2180 mt 3340 2081 L
c8
-199 -223 35 -9 3496 2484 3 MP
PP
0 sg
3496 2484 mt 3531 2475 L
3531 2475 mt 3332 2252 L
c8
34 -12 -199 -223 3531 2475 3 MP
PP
0 sg
3531 2475 mt 3332 2252 L
3332 2252 mt 3366 2240 L
c9
35 -12 -199 -123 3513 2023 3 MP
PP
0 sg
3513 2023 mt 3314 1900 L
3314 1900 mt 3349 1888 L
c9
-199 -123 34 -11 3479 2034 3 MP
PP
0 sg
3479 2034 mt 3513 2023 L
3513 2023 mt 3314 1900 L
c11
34 -12 -199 -99 3505 2192 3 MP
PP
0 sg
3505 2192 mt 3306 2093 L
3306 2093 mt 3340 2081 L
c11
-199 -99 35 -12 3470 2204 3 MP
PP
0 sg
3470 2204 mt 3505 2192 L
3505 2192 mt 3306 2093 L
c8
35 -12 -199 -220 3496 2484 3 MP
PP
0 sg
3496 2484 mt 3297 2264 L
3297 2264 mt 3332 2252 L
c8
-199 -220 34 -9 3462 2493 3 MP
PP
0 sg
3462 2493 mt 3496 2484 L
3496 2484 mt 3297 2264 L
/c12 { 0.000000 0.250000 1.000000 sr} bdef
c12
-199 -188 35 -11 3452 1854 3 MP
PP
0 sg
3452 1854 mt 3487 1843 L
3487 1843 mt 3288 1655 L
c9
-200 -123 35 -12 3444 2046 3 MP
PP
0 sg
3444 2046 mt 3479 2034 L
3479 2034 mt 3279 1911 L
c9
35 -11 -200 -123 3479 2034 3 MP
PP
0 sg
3479 2034 mt 3279 1911 L
3279 1911 mt 3314 1900 L
c11
35 -12 -199 -99 3470 2204 3 MP
PP
0 sg
3470 2204 mt 3271 2105 L
3271 2105 mt 3306 2093 L
c11
-199 -99 35 -12 3435 2216 3 MP
PP
0 sg
3435 2216 mt 3470 2204 L
3470 2204 mt 3271 2105 L
c8
-200 -217 35 -9 3427 2502 3 MP
PP
0 sg
3427 2502 mt 3462 2493 L
3462 2493 mt 3262 2276 L
c8
35 -12 -200 -217 3462 2493 3 MP
PP
0 sg
3462 2493 mt 3262 2276 L
3262 2276 mt 3297 2264 L
c12
35 -12 -199 -187 3452 1854 3 MP
PP
0 sg
3452 1854 mt 3253 1667 L
3253 1667 mt 3288 1655 L
/c13 { 0.000000 0.187500 1.000000 sr} bdef
c13
-199 -187 34 -11 3418 1865 3 MP
PP
0 sg
3418 1865 mt 3452 1854 L
3452 1854 mt 3253 1667 L
c9
34 -12 -199 -123 3444 2046 3 MP
PP
0 sg
3444 2046 mt 3245 1923 L
3245 1923 mt 3279 1911 L
c9
-199 -123 35 -12 3409 2058 3 MP
PP
0 sg
3409 2058 mt 3444 2046 L
3444 2046 mt 3245 1923 L
c11
35 -12 -199 -99 3435 2216 3 MP
PP
0 sg
3435 2216 mt 3236 2117 L
3236 2117 mt 3271 2105 L
/c14 { 0.000000 0.000000 0.937500 sr} bdef
c14
-199 -99 34 -12 3401 2228 3 MP
PP
0 sg
3401 2228 mt 3435 2216 L
3435 2216 mt 3236 2117 L
c8
-199 -214 35 -8 3392 2510 3 MP
PP
0 sg
3392 2510 mt 3427 2502 L
3427 2502 mt 3228 2288 L
c8
34 -12 -199 -214 3427 2502 3 MP
PP
0 sg
3427 2502 mt 3228 2288 L
3228 2288 mt 3262 2276 L
c13
34 -11 -199 -187 3418 1865 3 MP
PP
0 sg
3418 1865 mt 3219 1678 L
3219 1678 mt 3253 1667 L
c13
-199 -187 35 -12 3383 1877 3 MP
PP
0 sg
3383 1877 mt 3418 1865 L
3418 1865 mt 3219 1678 L
c9
-199 -123 34 -11 3375 2069 3 MP
PP
0 sg
3375 2069 mt 3409 2058 L
3409 2058 mt 3210 1935 L
c9
35 -12 -199 -123 3409 2058 3 MP
PP
0 sg
3409 2058 mt 3210 1935 L
3210 1935 mt 3245 1923 L
c14
-199 -99 35 -12 3366 2240 3 MP
PP
0 sg
3366 2240 mt 3401 2228 L
3401 2228 mt 3202 2129 L
c14
34 -12 -199 -99 3401 2228 3 MP
PP
0 sg
3401 2228 mt 3202 2129 L
3202 2129 mt 3236 2117 L
c8
-199 -210 34 -9 3358 2519 3 MP
PP
0 sg
3358 2519 mt 3392 2510 L
3392 2510 mt 3193 2300 L
c8
35 -12 -199 -210 3392 2510 3 MP
PP
0 sg
3392 2510 mt 3193 2300 L
3193 2300 mt 3228 2288 L
c13
35 -12 -199 -187 3383 1877 3 MP
PP
0 sg
3383 1877 mt 3184 1690 L
3184 1690 mt 3219 1678 L
c13
-199 -187 34 -11 3349 1888 3 MP
PP
0 sg
3349 1888 mt 3383 1877 L
3383 1877 mt 3184 1690 L
c9
34 -11 -199 -123 3375 2069 3 MP
PP
0 sg
3375 2069 mt 3176 1946 L
3176 1946 mt 3210 1935 L
c9
-199 -123 35 -12 3340 2081 3 MP
PP
0 sg
3340 2081 mt 3375 2069 L
3375 2069 mt 3176 1946 L
c14
35 -12 -199 -99 3366 2240 3 MP
PP
0 sg
3366 2240 mt 3167 2141 L
3167 2141 mt 3202 2129 L
c14
-199 -99 34 -12 3332 2252 3 MP
PP
0 sg
3332 2252 mt 3366 2240 L
3366 2240 mt 3167 2141 L
c8
-199 -207 35 -9 3323 2528 3 MP
PP
0 sg
3323 2528 mt 3358 2519 L
3358 2519 mt 3159 2312 L
c8
34 -12 -199 -207 3358 2519 3 MP
PP
0 sg
3358 2519 mt 3159 2312 L
3159 2312 mt 3193 2300 L
c13
-200 -187 35 -12 3314 1900 3 MP
PP
0 sg
3314 1900 mt 3349 1888 L
3349 1888 mt 3149 1701 L
c13
35 -11 -200 -187 3349 1888 3 MP
PP
0 sg
3349 1888 mt 3149 1701 L
3149 1701 mt 3184 1690 L
c9
-199 -123 34 -12 3306 2093 3 MP
PP
0 sg
3306 2093 mt 3340 2081 L
3340 2081 mt 3141 1958 L
c9
35 -12 -199 -123 3340 2081 3 MP
PP
0 sg
3340 2081 mt 3141 1958 L
3141 1958 mt 3176 1946 L
c14
34 -12 -199 -99 3332 2252 3 MP
PP
0 sg
3332 2252 mt 3133 2153 L
3133 2153 mt 3167 2141 L
c14
-199 -99 35 -12 3297 2264 3 MP
PP
0 sg
3297 2264 mt 3332 2252 L
3332 2252 mt 3133 2153 L
c8
-199 -204 34 -9 3289 2537 3 MP
PP
0 sg
3289 2537 mt 3323 2528 L
3323 2528 mt 3124 2324 L
c8
35 -12 -199 -204 3323 2528 3 MP
PP
0 sg
3323 2528 mt 3124 2324 L
3124 2324 mt 3159 2312 L
c13
-199 -187 35 -11 3279 1911 3 MP
PP
0 sg
3279 1911 mt 3314 1900 L
3314 1900 mt 3115 1713 L
c13
34 -12 -199 -187 3314 1900 3 MP
PP
0 sg
3314 1900 mt 3115 1713 L
3115 1713 mt 3149 1701 L
c11
-200 -123 35 -12 3271 2105 3 MP
PP
0 sg
3271 2105 mt 3306 2093 L
3306 2093 mt 3106 1970 L
c9
35 -12 -200 -123 3306 2093 3 MP
PP
0 sg
3306 2093 mt 3106 1970 L
3106 1970 mt 3141 1958 L
c14
-199 -99 35 -12 3262 2276 3 MP
PP
0 sg
3262 2276 mt 3297 2264 L
3297 2264 mt 3098 2165 L
c14
35 -12 -199 -99 3297 2264 3 MP
PP
0 sg
3297 2264 mt 3098 2165 L
3098 2165 mt 3133 2153 L
c8
-200 -201 35 -8 3254 2545 3 MP
PP
0 sg
3254 2545 mt 3289 2537 L
3289 2537 mt 3089 2336 L
c8
35 -12 -200 -201 3289 2537 3 MP
PP
0 sg
3289 2537 mt 3089 2336 L
3089 2336 mt 3124 2324 L
/c15 { 0.000000 0.500000 1.000000 sr} bdef
c15
-199 -360 35 -12 3253 1667 3 MP
PP
0 sg
3253 1667 mt 3288 1655 L
3288 1655 mt 3089 1295 L
c13
35 -12 -199 -186 3279 1911 3 MP
PP
0 sg
3279 1911 mt 3080 1725 L
3080 1725 mt 3115 1713 L
c13
-199 -186 34 -12 3245 1923 3 MP
PP
0 sg
3245 1923 mt 3279 1911 L
3279 1911 mt 3080 1725 L
c11
34 -12 -199 -123 3271 2105 3 MP
PP
0 sg
3271 2105 mt 3072 1982 L
3072 1982 mt 3106 1970 L
c11
-199 -123 35 -12 3236 2117 3 MP
PP
0 sg
3236 2117 mt 3271 2105 L
3271 2105 mt 3072 1982 L
c14
-199 -99 34 -12 3228 2288 3 MP
PP
0 sg
3228 2288 mt 3262 2276 L
3262 2276 mt 3063 2177 L
c14
35 -12 -199 -99 3262 2276 3 MP
PP
0 sg
3262 2276 mt 3063 2177 L
3063 2177 mt 3098 2165 L
c8
-199 -197 35 -9 3219 2554 3 MP
PP
0 sg
3219 2554 mt 3254 2545 L
3254 2545 mt 3055 2348 L
c8
34 -12 -199 -197 3254 2545 3 MP
PP
0 sg
3254 2545 mt 3055 2348 L
3055 2348 mt 3089 2336 L
c15
-199 -360 34 -11 3219 1678 3 MP
PP
0 sg
3219 1678 mt 3253 1667 L
3253 1667 mt 3054 1307 L
c15
35 -12 -199 -360 3253 1667 3 MP
PP
0 sg
3253 1667 mt 3054 1307 L
3054 1307 mt 3089 1295 L
c13
34 -11 -199 -187 3245 1923 3 MP
PP
0 sg
3245 1923 mt 3046 1736 L
3046 1736 mt 3080 1725 L
c13
-199 -187 35 -12 3210 1935 3 MP
PP
0 sg
3210 1935 mt 3245 1923 L
3245 1923 mt 3046 1736 L
c11
-199 -123 34 -12 3202 2129 3 MP
PP
0 sg
3202 2129 mt 3236 2117 L
3236 2117 mt 3037 1994 L
c11
35 -12 -199 -123 3236 2117 3 MP
PP
0 sg
3236 2117 mt 3037 1994 L
3037 1994 mt 3072 1982 L
c14
34 -12 -199 -99 3228 2288 3 MP
PP
0 sg
3228 2288 mt 3029 2189 L
3029 2189 mt 3063 2177 L
/c16 { 0.000000 0.000000 0.875000 sr} bdef
c16
-199 -99 35 -12 3193 2300 3 MP
PP
0 sg
3193 2300 mt 3228 2288 L
3228 2288 mt 3029 2189 L
c8
-199 -194 34 -9 3185 2563 3 MP
PP
0 sg
3185 2563 mt 3219 2554 L
3219 2554 mt 3020 2360 L
c8
35 -12 -199 -194 3219 2554 3 MP
PP
0 sg
3219 2554 mt 3020 2360 L
3020 2360 mt 3055 2348 L
c15
34 -11 -199 -360 3219 1678 3 MP
PP
0 sg
3219 1678 mt 3020 1318 L
3020 1318 mt 3054 1307 L
c15
-199 -360 35 -12 3184 1690 3 MP
PP
0 sg
3184 1690 mt 3219 1678 L
3219 1678 mt 3020 1318 L
c13
35 -12 -199 -187 3210 1935 3 MP
PP
0 sg
3210 1935 mt 3011 1748 L
3011 1748 mt 3046 1736 L
c13
-199 -187 34 -11 3176 1946 3 MP
PP
0 sg
3176 1946 mt 3210 1935 L
3210 1935 mt 3011 1748 L
c11
34 -12 -199 -123 3202 2129 3 MP
PP
0 sg
3202 2129 mt 3003 2006 L
3003 2006 mt 3037 1994 L
c11
-199 -123 35 -12 3167 2141 3 MP
PP
0 sg
3167 2141 mt 3202 2129 L
3202 2129 mt 3003 2006 L
c16
-199 -99 34 -12 3159 2312 3 MP
PP
0 sg
3159 2312 mt 3193 2300 L
3193 2300 mt 2994 2201 L
c16
35 -12 -199 -99 3193 2300 3 MP
PP
0 sg
3193 2300 mt 2994 2201 L
2994 2201 mt 3029 2189 L
c8
34 -12 -199 -191 3185 2563 3 MP
PP
0 sg
3185 2563 mt 2986 2372 L
2986 2372 mt 3020 2360 L
c8
-199 -191 35 -9 3150 2572 3 MP
PP
0 sg
3150 2572 mt 3185 2563 L
3185 2563 mt 2986 2372 L
c15
35 -12 -199 -360 3184 1690 3 MP
PP
0 sg
3184 1690 mt 2985 1330 L
2985 1330 mt 3020 1318 L
c15
-199 -360 35 -11 3149 1701 3 MP
PP
0 sg
3149 1701 mt 3184 1690 L
3184 1690 mt 2985 1330 L
c13
35 -12 -200 -186 3176 1946 3 MP
PP
0 sg
3176 1946 mt 2976 1760 L
2976 1760 mt 3011 1748 L
c10
-200 -186 35 -12 3141 1958 3 MP
PP
0 sg
3141 1958 mt 3176 1946 L
3176 1946 mt 2976 1760 L
c11
35 -12 -199 -123 3167 2141 3 MP
PP
0 sg
3167 2141 mt 2968 2018 L
2968 2018 mt 3003 2006 L
c11
-199 -123 34 -12 3133 2153 3 MP
PP
0 sg
3133 2153 mt 3167 2141 L
3167 2141 mt 2968 2018 L
c16
-199 -99 35 -12 3124 2324 3 MP
PP
0 sg
3124 2324 mt 3159 2312 L
3159 2312 mt 2960 2213 L
c16
34 -12 -199 -99 3159 2312 3 MP
PP
0 sg
3159 2312 mt 2960 2213 L
2960 2213 mt 2994 2201 L
c8
-199 -188 34 -8 3116 2580 3 MP
PP
0 sg
3116 2580 mt 3150 2572 L
3150 2572 mt 2951 2384 L
c8
35 -12 -199 -188 3150 2572 3 MP
PP
0 sg
3150 2572 mt 2951 2384 L
2951 2384 mt 2986 2372 L
c15
-199 -360 34 -12 3115 1713 3 MP
PP
0 sg
3115 1713 mt 3149 1701 L
3149 1701 mt 2950 1341 L
c15
35 -11 -199 -360 3149 1701 3 MP
PP
0 sg
3149 1701 mt 2950 1341 L
2950 1341 mt 2985 1330 L
c10
-199 -186 35 -12 3106 1970 3 MP
PP
0 sg
3106 1970 mt 3141 1958 L
3141 1958 mt 2942 1772 L
c10
34 -12 -199 -186 3141 1958 3 MP
PP
0 sg
3141 1958 mt 2942 1772 L
2942 1772 mt 2976 1760 L
c11
-200 -123 35 -12 3098 2165 3 MP
PP
0 sg
3098 2165 mt 3133 2153 L
3133 2153 mt 2933 2030 L
c11
35 -12 -200 -123 3133 2153 3 MP
PP
0 sg
3133 2153 mt 2933 2030 L
2933 2030 mt 2968 2018 L
c16
-199 -99 35 -12 3089 2336 3 MP
PP
0 sg
3089 2336 mt 3124 2324 L
3124 2324 mt 2925 2225 L
c16
35 -12 -199 -99 3124 2324 3 MP
PP
0 sg
3124 2324 mt 2925 2225 L
2925 2225 mt 2960 2213 L
c8
-200 -185 35 -9 3081 2589 3 MP
PP
0 sg
3081 2589 mt 3116 2580 L
3116 2580 mt 2916 2395 L
c8
35 -11 -200 -185 3116 2580 3 MP
PP
0 sg
3116 2580 mt 2916 2395 L
2916 2395 mt 2951 2384 L
c15
34 -12 -199 -360 3115 1713 3 MP
PP
0 sg
3115 1713 mt 2916 1353 L
2916 1353 mt 2950 1341 L
c15
-199 -360 35 -12 3080 1725 3 MP
PP
0 sg
3080 1725 mt 3115 1713 L
3115 1713 mt 2916 1353 L
c10
35 -12 -199 -186 3106 1970 3 MP
PP
0 sg
3106 1970 mt 2907 1784 L
2907 1784 mt 2942 1772 L
c10
-199 -186 34 -12 3072 1982 3 MP
PP
0 sg
3072 1982 mt 3106 1970 L
3106 1970 mt 2907 1784 L
c11
34 -12 -199 -123 3098 2165 3 MP
PP
0 sg
3098 2165 mt 2899 2042 L
2899 2042 mt 2933 2030 L
c14
-199 -123 35 -12 3063 2177 3 MP
PP
0 sg
3063 2177 mt 3098 2165 L
3098 2165 mt 2899 2042 L
c16
-199 -99 34 -12 3055 2348 3 MP
PP
0 sg
3055 2348 mt 3089 2336 L
3089 2336 mt 2890 2237 L
c16
35 -12 -199 -99 3089 2336 3 MP
PP
0 sg
3089 2336 mt 2890 2237 L
2890 2237 mt 2925 2225 L
/c17 { 0.312500 1.000000 0.687500 sr} bdef
c17
-199 -828 35 -12 3054 1307 3 MP
PP
0 sg
3054 1307 mt 3089 1295 L
3089 1295 mt 2890  467 L
c8
34 -12 -199 -182 3081 2589 3 MP
PP
0 sg
3081 2589 mt 2882 2407 L
2882 2407 mt 2916 2395 L
c8
-199 -182 35 -9 3046 2598 3 MP
PP
0 sg
3046 2598 mt 3081 2589 L
3081 2589 mt 2882 2407 L
c15
-199 -360 34 -11 3046 1736 3 MP
PP
0 sg
3046 1736 mt 3080 1725 L
3080 1725 mt 2881 1365 L
c15
35 -12 -199 -360 3080 1725 3 MP
PP
0 sg
3080 1725 mt 2881 1365 L
2881 1365 mt 2916 1353 L
c10
34 -12 -199 -186 3072 1982 3 MP
PP
0 sg
3072 1982 mt 2873 1796 L
2873 1796 mt 2907 1784 L
c10
-199 -186 35 -12 3037 1994 3 MP
PP
0 sg
3037 1994 mt 3072 1982 L
3072 1982 mt 2873 1796 L
c14
-199 -123 34 -12 3029 2189 3 MP
PP
0 sg
3029 2189 mt 3063 2177 L
3063 2177 mt 2864 2054 L
c14
35 -12 -199 -123 3063 2177 3 MP
PP
0 sg
3063 2177 mt 2864 2054 L
2864 2054 mt 2899 2042 L
c16
-199 -99 35 -12 3020 2360 3 MP
PP
0 sg
3020 2360 mt 3055 2348 L
3055 2348 mt 2856 2249 L
c16
34 -12 -199 -99 3055 2348 3 MP
PP
0 sg
3055 2348 mt 2856 2249 L
2856 2249 mt 2890 2237 L
c17
-199 -829 34 -11 3020 1318 3 MP
PP
0 sg
3020 1318 mt 3054 1307 L
3054 1307 mt 2855  478 L
c17
35 -11 -199 -829 3054 1307 3 MP
PP
0 sg
3054 1307 mt 2855  478 L
2855  478 mt 2890  467 L
c8
35 -12 -199 -179 3046 2598 3 MP
PP
0 sg
3046 2598 mt 2847 2419 L
2847 2419 mt 2882 2407 L
c8
-199 -179 34 -9 3012 2607 3 MP
PP
0 sg
3012 2607 mt 3046 2598 L
3046 2598 mt 2847 2419 L
c15
34 -12 -199 -359 3046 1736 3 MP
PP
0 sg
3046 1736 mt 2847 1377 L
2847 1377 mt 2881 1365 L
/c18 { 0.000000 0.437500 1.000000 sr} bdef
c18
-199 -359 35 -12 3011 1748 3 MP
PP
0 sg
3011 1748 mt 3046 1736 L
3046 1736 mt 2847 1377 L
c10
-199 -186 34 -12 3003 2006 3 MP
PP
0 sg
3003 2006 mt 3037 1994 L
3037 1994 mt 2838 1808 L
c10
35 -12 -199 -186 3037 1994 3 MP
PP
0 sg
3037 1994 mt 2838 1808 L
2838 1808 mt 2873 1796 L
c14
34 -12 -199 -123 3029 2189 3 MP
PP
0 sg
3029 2189 mt 2830 2066 L
2830 2066 mt 2864 2054 L
c14
-199 -123 35 -12 2994 2201 3 MP
PP
0 sg
2994 2201 mt 3029 2189 L
3029 2189 mt 2830 2066 L
c16
35 -12 -199 -99 3020 2360 3 MP
PP
0 sg
3020 2360 mt 2821 2261 L
2821 2261 mt 2856 2249 L
c16
-199 -99 34 -12 2986 2372 3 MP
PP
0 sg
2986 2372 mt 3020 2360 L
3020 2360 mt 2821 2261 L
c17
35 -12 -200 -828 3020 1318 3 MP
PP
0 sg
3020 1318 mt 2820  490 L
2820  490 mt 2855  478 L
c17
-200 -828 35 -12 2985 1330 3 MP
PP
0 sg
2985 1330 mt 3020 1318 L
3020 1318 mt 2820  490 L
c8
-199 -177 35 -8 2977 2615 3 MP
PP
0 sg
2977 2615 mt 3012 2607 L
3012 2607 mt 2813 2430 L
c8
34 -11 -199 -177 3012 2607 3 MP
PP
0 sg
3012 2607 mt 2813 2430 L
2813 2430 mt 2847 2419 L
c18
-199 -360 35 -12 2976 1760 3 MP
PP
0 sg
2976 1760 mt 3011 1748 L
3011 1748 mt 2812 1388 L
c18
35 -11 -199 -360 3011 1748 3 MP
PP
0 sg
3011 1748 mt 2812 1388 L
2812 1388 mt 2847 1377 L
c10
-200 -186 35 -12 2968 2018 3 MP
PP
0 sg
2968 2018 mt 3003 2006 L
3003 2006 mt 2803 1820 L
c10
35 -12 -200 -186 3003 2006 3 MP
PP
0 sg
3003 2006 mt 2803 1820 L
2803 1820 mt 2838 1808 L
c14
-199 -123 34 -12 2960 2213 3 MP
PP
0 sg
2960 2213 mt 2994 2201 L
2994 2201 mt 2795 2078 L
c14
35 -12 -199 -123 2994 2201 3 MP
PP
0 sg
2994 2201 mt 2795 2078 L
2795 2078 mt 2830 2066 L
c16
34 -12 -199 -99 2986 2372 3 MP
PP
0 sg
2986 2372 mt 2787 2273 L
2787 2273 mt 2821 2261 L
/c19 { 0.000000 0.000000 0.812500 sr} bdef
c19
-199 -99 35 -12 2951 2384 3 MP
PP
0 sg
2951 2384 mt 2986 2372 L
2986 2372 mt 2787 2273 L
c17
-199 -829 35 -11 2950 1341 3 MP
PP
0 sg
2950 1341 mt 2985 1330 L
2985 1330 mt 2786  501 L
c17
34 -11 -199 -829 2985 1330 3 MP
PP
0 sg
2985 1330 mt 2786  501 L
2786  501 mt 2820  490 L
c8
-199 -173 34 -9 2943 2624 3 MP
PP
0 sg
2943 2624 mt 2977 2615 L
2977 2615 mt 2778 2442 L
c8
35 -12 -199 -173 2977 2615 3 MP
PP
0 sg
2977 2615 mt 2778 2442 L
2778 2442 mt 2813 2430 L
c18
35 -12 -199 -360 2976 1760 3 MP
PP
0 sg
2976 1760 mt 2777 1400 L
2777 1400 mt 2812 1388 L
c18
-199 -360 34 -12 2942 1772 3 MP
PP
0 sg
2942 1772 mt 2976 1760 L
2976 1760 mt 2777 1400 L
c9
-199 -186 35 -12 2933 2030 3 MP
PP
0 sg
2933 2030 mt 2968 2018 L
2968 2018 mt 2769 1832 L
c10
34 -12 -199 -186 2968 2018 3 MP
PP
0 sg
2968 2018 mt 2769 1832 L
2769 1832 mt 2803 1820 L
c14
35 -12 -200 -123 2960 2213 3 MP
PP
0 sg
2960 2213 mt 2760 2090 L
2760 2090 mt 2795 2078 L
c14
-200 -123 35 -12 2925 2225 3 MP
PP
0 sg
2925 2225 mt 2960 2213 L
2960 2213 mt 2760 2090 L
c19
35 -12 -199 -99 2951 2384 3 MP
PP
0 sg
2951 2384 mt 2752 2285 L
2752 2285 mt 2787 2273 L
c19
-199 -99 35 -11 2916 2395 3 MP
PP
0 sg
2916 2395 mt 2951 2384 L
2951 2384 mt 2752 2285 L
c17
-199 -828 34 -12 2916 1353 3 MP
PP
0 sg
2916 1353 mt 2950 1341 L
2950 1341 mt 2751  513 L
c17
35 -12 -199 -828 2950 1341 3 MP
PP
0 sg
2950 1341 mt 2751  513 L
2751  513 mt 2786  501 L
c8
-200 -170 35 -9 2908 2633 3 MP
PP
0 sg
2908 2633 mt 2943 2624 L
2943 2624 mt 2743 2454 L
c8
35 -12 -200 -170 2943 2624 3 MP
PP
0 sg
2943 2624 mt 2743 2454 L
2743 2454 mt 2778 2442 L
c18
34 -12 -199 -360 2942 1772 3 MP
PP
0 sg
2942 1772 mt 2743 1412 L
2743 1412 mt 2777 1400 L
c18
-199 -360 35 -12 2907 1784 3 MP
PP
0 sg
2907 1784 mt 2942 1772 L
2942 1772 mt 2743 1412 L
c9
-199 -186 34 -12 2899 2042 3 MP
PP
0 sg
2899 2042 mt 2933 2030 L
2933 2030 mt 2734 1844 L
c9
35 -12 -199 -186 2933 2030 3 MP
PP
0 sg
2933 2030 mt 2734 1844 L
2734 1844 mt 2769 1832 L
c14
34 -12 -199 -123 2925 2225 3 MP
PP
0 sg
2925 2225 mt 2726 2102 L
2726 2102 mt 2760 2090 L
c14
-199 -123 35 -12 2890 2237 3 MP
PP
0 sg
2890 2237 mt 2925 2225 L
2925 2225 mt 2726 2102 L
c19
35 -11 -199 -99 2916 2395 3 MP
PP
0 sg
2916 2395 mt 2717 2296 L
2717 2296 mt 2752 2285 L
c19
-199 -99 34 -12 2882 2407 3 MP
PP
0 sg
2882 2407 mt 2916 2395 L
2916 2395 mt 2717 2296 L
c17
34 -12 -199 -828 2916 1353 3 MP
PP
0 sg
2916 1353 mt 2717  525 L
2717  525 mt 2751  513 L
c17
-199 -828 35 -12 2881 1365 3 MP
PP
0 sg
2881 1365 mt 2916 1353 L
2916 1353 mt 2717  525 L
c8
-199 -168 35 -9 2873 2642 3 MP
PP
0 sg
2873 2642 mt 2908 2633 L
2908 2633 mt 2709 2465 L
c8
34 -11 -199 -168 2908 2633 3 MP
PP
0 sg
2908 2633 mt 2709 2465 L
2709 2465 mt 2743 2454 L
c18
35 -12 -199 -360 2907 1784 3 MP
PP
0 sg
2907 1784 mt 2708 1424 L
2708 1424 mt 2743 1412 L
c18
-199 -360 34 -12 2873 1796 3 MP
PP
0 sg
2873 1796 mt 2907 1784 L
2907 1784 mt 2708 1424 L
c9
-199 -186 35 -12 2864 2054 3 MP
PP
0 sg
2864 2054 mt 2899 2042 L
2899 2042 mt 2700 1856 L
c9
34 -12 -199 -186 2899 2042 3 MP
PP
0 sg
2899 2042 mt 2700 1856 L
2700 1856 mt 2734 1844 L
c14
-199 -123 34 -12 2856 2249 3 MP
PP
0 sg
2856 2249 mt 2890 2237 L
2890 2237 mt 2691 2114 L
c14
35 -12 -199 -123 2890 2237 3 MP
PP
0 sg
2890 2237 mt 2691 2114 L
2691 2114 mt 2726 2102 L
c19
-199 -99 35 -12 2847 2419 3 MP
PP
0 sg
2847 2419 mt 2882 2407 L
2882 2407 mt 2683 2308 L
c19
34 -12 -199 -99 2882 2407 3 MP
PP
0 sg
2882 2407 mt 2683 2308 L
2683 2308 mt 2717 2296 L
c17
35 -12 -199 -828 2881 1365 3 MP
PP
0 sg
2881 1365 mt 2682  537 L
2682  537 mt 2717  525 L
c17
-199 -828 34 -12 2847 1377 3 MP
PP
0 sg
2847 1377 mt 2881 1365 L
2881 1365 mt 2682  537 L
c8
-199 -166 34 -8 2839 2650 3 MP
PP
0 sg
2839 2650 mt 2873 2642 L
2873 2642 mt 2674 2476 L
c8
35 -11 -199 -166 2873 2642 3 MP
PP
0 sg
2873 2642 mt 2674 2476 L
2674 2476 mt 2709 2465 L
c18
34 -12 -199 -360 2873 1796 3 MP
PP
0 sg
2873 1796 mt 2674 1436 L
2674 1436 mt 2708 1424 L
c18
-199 -360 35 -12 2838 1808 3 MP
PP
0 sg
2838 1808 mt 2873 1796 L
2873 1796 mt 2674 1436 L
c9
-199 -186 34 -12 2830 2066 3 MP
PP
0 sg
2830 2066 mt 2864 2054 L
2864 2054 mt 2665 1868 L
c9
35 -12 -199 -186 2864 2054 3 MP
PP
0 sg
2864 2054 mt 2665 1868 L
2665 1868 mt 2700 1856 L
c16
-199 -123 35 -12 2821 2261 3 MP
PP
0 sg
2821 2261 mt 2856 2249 L
2856 2249 mt 2657 2126 L
c14
34 -12 -199 -123 2856 2249 3 MP
PP
0 sg
2856 2249 mt 2657 2126 L
2657 2126 mt 2691 2114 L
c19
-199 -100 34 -11 2813 2430 3 MP
PP
0 sg
2813 2430 mt 2847 2419 L
2847 2419 mt 2648 2319 L
c19
35 -11 -199 -100 2847 2419 3 MP
PP
0 sg
2847 2419 mt 2648 2319 L
2648 2319 mt 2683 2308 L
c17
35 -11 -200 -829 2847 1377 3 MP
PP
0 sg
2847 1377 mt 2647  548 L
2647  548 mt 2682  537 L
/c20 { 0.250000 1.000000 0.750000 sr} bdef
c20
-200 -829 35 -11 2812 1388 3 MP
PP
0 sg
2812 1388 mt 2847 1377 L
2847 1377 mt 2647  548 L
c8
34 -12 -199 -162 2839 2650 3 MP
PP
0 sg
2839 2650 mt 2640 2488 L
2640 2488 mt 2674 2476 L
c8
-199 -162 35 -9 2804 2659 3 MP
PP
0 sg
2804 2659 mt 2839 2650 L
2839 2650 mt 2640 2488 L
c18
-199 -360 35 -12 2803 1820 3 MP
PP
0 sg
2803 1820 mt 2838 1808 L
2838 1808 mt 2639 1448 L
c18
35 -12 -199 -360 2838 1808 3 MP
PP
0 sg
2838 1808 mt 2639 1448 L
2639 1448 mt 2674 1436 L
c9
-200 -186 35 -12 2795 2078 3 MP
PP
0 sg
2795 2078 mt 2830 2066 L
2830 2066 mt 2630 1880 L
c9
35 -12 -200 -186 2830 2066 3 MP
PP
0 sg
2830 2066 mt 2630 1880 L
2630 1880 mt 2665 1868 L
c16
35 -12 -199 -123 2821 2261 3 MP
PP
0 sg
2821 2261 mt 2622 2138 L
2622 2138 mt 2657 2126 L
c16
-199 -123 34 -12 2787 2273 3 MP
PP
0 sg
2787 2273 mt 2821 2261 L
2821 2261 mt 2622 2138 L
c19
-199 -99 35 -12 2778 2442 3 MP
PP
0 sg
2778 2442 mt 2813 2430 L
2813 2430 mt 2614 2331 L
c19
34 -12 -199 -99 2813 2430 3 MP
PP
0 sg
2813 2430 mt 2614 2331 L
2614 2331 mt 2648 2319 L
c20
-199 -828 35 -12 2777 1400 3 MP
PP
0 sg
2777 1400 mt 2812 1388 L
2812 1388 mt 2613  560 L
c20
34 -12 -199 -828 2812 1388 3 MP
PP
0 sg
2812 1388 mt 2613  560 L
2613  560 mt 2647  548 L
c8
35 -11 -199 -160 2804 2659 3 MP
PP
0 sg
2804 2659 mt 2605 2499 L
2605 2499 mt 2640 2488 L
c8
-199 -160 34 -9 2770 2668 3 MP
PP
0 sg
2770 2668 mt 2804 2659 L
2804 2659 mt 2605 2499 L
c18
35 -12 -199 -360 2803 1820 3 MP
PP
0 sg
2803 1820 mt 2604 1460 L
2604 1460 mt 2639 1448 L
/c21 { 0.000000 0.375000 1.000000 sr} bdef
c21
-199 -360 34 -12 2769 1832 3 MP
PP
0 sg
2769 1832 mt 2803 1820 L
2803 1820 mt 2604 1460 L
c9
34 -12 -199 -186 2795 2078 3 MP
PP
0 sg
2795 2078 mt 2596 1892 L
2596 1892 mt 2630 1880 L
c9
-199 -186 35 -12 2760 2090 3 MP
PP
0 sg
2760 2090 mt 2795 2078 L
2795 2078 mt 2596 1892 L
c16
-200 -123 35 -12 2752 2285 3 MP
PP
0 sg
2752 2285 mt 2787 2273 L
2787 2273 mt 2587 2150 L
c16
35 -12 -200 -123 2787 2273 3 MP
PP
0 sg
2787 2273 mt 2587 2150 L
2587 2150 mt 2622 2138 L
c19
35 -12 -199 -99 2778 2442 3 MP
PP
0 sg
2778 2442 mt 2579 2343 L
2579 2343 mt 2614 2331 L
c19
-199 -99 35 -12 2743 2454 3 MP
PP
0 sg
2743 2454 mt 2778 2442 L
2778 2442 mt 2579 2343 L
c20
-199 -828 34 -12 2743 1412 3 MP
PP
0 sg
2743 1412 mt 2777 1400 L
2777 1400 mt 2578  572 L
c20
35 -12 -199 -828 2777 1400 3 MP
PP
0 sg
2777 1400 mt 2578  572 L
2578  572 mt 2613  560 L
c8
-200 -157 35 -9 2735 2677 3 MP
PP
0 sg
2735 2677 mt 2770 2668 L
2770 2668 mt 2570 2511 L
c8
35 -12 -200 -157 2770 2668 3 MP
PP
0 sg
2770 2668 mt 2570 2511 L
2570 2511 mt 2605 2499 L
c21
34 -12 -199 -360 2769 1832 3 MP
PP
0 sg
2769 1832 mt 2570 1472 L
2570 1472 mt 2604 1460 L
c21
-199 -360 35 -12 2734 1844 3 MP
PP
0 sg
2734 1844 mt 2769 1832 L
2769 1832 mt 2570 1472 L
c9
-199 -186 34 -12 2726 2102 3 MP
PP
0 sg
2726 2102 mt 2760 2090 L
2760 2090 mt 2561 1904 L
c9
35 -12 -199 -186 2760 2090 3 MP
PP
0 sg
2760 2090 mt 2561 1904 L
2561 1904 mt 2596 1892 L
c16
34 -12 -199 -123 2752 2285 3 MP
PP
0 sg
2752 2285 mt 2553 2162 L
2553 2162 mt 2587 2150 L
c16
-199 -123 35 -11 2717 2296 3 MP
PP
0 sg
2717 2296 mt 2752 2285 L
2752 2285 mt 2553 2162 L
/c22 { 0.000000 0.000000 0.750000 sr} bdef
c22
-199 -100 34 -11 2709 2465 3 MP
PP
0 sg
2709 2465 mt 2743 2454 L
2743 2454 mt 2544 2354 L
c19
35 -11 -199 -100 2743 2454 3 MP
PP
0 sg
2743 2454 mt 2544 2354 L
2544 2354 mt 2579 2343 L
c20
-199 -828 35 -12 2708 1424 3 MP
PP
0 sg
2708 1424 mt 2743 1412 L
2743 1412 mt 2544  584 L
c20
34 -12 -199 -828 2743 1412 3 MP
PP
0 sg
2743 1412 mt 2544  584 L
2544  584 mt 2578  572 L
c8
34 -11 -199 -155 2735 2677 3 MP
PP
0 sg
2735 2677 mt 2536 2522 L
2536 2522 mt 2570 2511 L
c8
-199 -155 35 -8 2700 2685 3 MP
PP
0 sg
2700 2685 mt 2735 2677 L
2735 2677 mt 2536 2522 L
c21
35 -12 -199 -360 2734 1844 3 MP
PP
0 sg
2734 1844 mt 2535 1484 L
2535 1484 mt 2570 1472 L
c21
-199 -360 34 -12 2700 1856 3 MP
PP
0 sg
2700 1856 mt 2734 1844 L
2734 1844 mt 2535 1484 L
c9
34 -12 -199 -186 2726 2102 3 MP
PP
0 sg
2726 2102 mt 2527 1916 L
2527 1916 mt 2561 1904 L
c11
-199 -186 35 -12 2691 2114 3 MP
PP
0 sg
2691 2114 mt 2726 2102 L
2726 2102 mt 2527 1916 L
c16
35 -11 -199 -123 2717 2296 3 MP
PP
0 sg
2717 2296 mt 2518 2173 L
2518 2173 mt 2553 2162 L
c16
-199 -123 34 -12 2683 2308 3 MP
PP
0 sg
2683 2308 mt 2717 2296 L
2717 2296 mt 2518 2173 L
c22
-199 -100 35 -11 2674 2476 3 MP
PP
0 sg
2674 2476 mt 2709 2465 L
2709 2465 mt 2510 2365 L
c22
34 -11 -199 -100 2709 2465 3 MP
PP
0 sg
2709 2465 mt 2510 2365 L
2510 2365 mt 2544 2354 L
c20
-199 -828 34 -12 2674 1436 3 MP
PP
0 sg
2674 1436 mt 2708 1424 L
2708 1424 mt 2509  596 L
c20
35 -12 -199 -828 2708 1424 3 MP
PP
0 sg
2708 1424 mt 2509  596 L
2509  596 mt 2544  584 L
c8
-199 -152 34 -9 2666 2694 3 MP
PP
0 sg
2666 2694 mt 2700 2685 L
2700 2685 mt 2501 2533 L
c8
35 -11 -199 -152 2700 2685 3 MP
PP
0 sg
2700 2685 mt 2501 2533 L
2501 2533 mt 2536 2522 L
c21
-199 -359 35 -12 2665 1868 3 MP
PP
0 sg
2665 1868 mt 2700 1856 L
2700 1856 mt 2501 1497 L
c21
34 -13 -199 -359 2700 1856 3 MP
PP
0 sg
2700 1856 mt 2501 1497 L
2501 1497 mt 2535 1484 L
c11
-199 -186 34 -12 2657 2126 3 MP
PP
0 sg
2657 2126 mt 2691 2114 L
2691 2114 mt 2492 1928 L
c11
35 -12 -199 -186 2691 2114 3 MP
PP
0 sg
2691 2114 mt 2492 1928 L
2492 1928 mt 2527 1916 L
c16
34 -12 -199 -123 2683 2308 3 MP
PP
0 sg
2683 2308 mt 2484 2185 L
2484 2185 mt 2518 2173 L
c16
-199 -123 35 -11 2648 2319 3 MP
PP
0 sg
2648 2319 mt 2683 2308 L
2683 2308 mt 2484 2185 L
c22
35 -12 -199 -99 2674 2476 3 MP
PP
0 sg
2674 2476 mt 2475 2377 L
2475 2377 mt 2510 2365 L
c22
-199 -99 34 -12 2640 2488 3 MP
PP
0 sg
2640 2488 mt 2674 2476 L
2674 2476 mt 2475 2377 L
c20
35 -12 -200 -828 2674 1436 3 MP
PP
0 sg
2674 1436 mt 2474  608 L
2474  608 mt 2509  596 L
c20
-200 -828 35 -12 2639 1448 3 MP
PP
0 sg
2639 1448 mt 2674 1436 L
2674 1436 mt 2474  608 L
c8
-199 -149 35 -9 2631 2703 3 MP
PP
0 sg
2631 2703 mt 2666 2694 L
2666 2694 mt 2467 2545 L
c8
34 -12 -199 -149 2666 2694 3 MP
PP
0 sg
2666 2694 mt 2467 2545 L
2467 2545 mt 2501 2533 L
c21
35 -12 -199 -359 2665 1868 3 MP
PP
0 sg
2665 1868 mt 2466 1509 L
2466 1509 mt 2501 1497 L
c21
-199 -359 35 -12 2630 1880 3 MP
PP
0 sg
2630 1880 mt 2665 1868 L
2665 1868 mt 2466 1509 L
c11
35 -12 -200 -186 2657 2126 3 MP
PP
0 sg
2657 2126 mt 2457 1940 L
2457 1940 mt 2492 1928 L
c11
-200 -186 35 -12 2622 2138 3 MP
PP
0 sg
2622 2138 mt 2657 2126 L
2657 2126 mt 2457 1940 L
c16
-199 -123 34 -12 2614 2331 3 MP
PP
0 sg
2614 2331 mt 2648 2319 L
2648 2319 mt 2449 2196 L
c16
35 -11 -199 -123 2648 2319 3 MP
PP
0 sg
2648 2319 mt 2449 2196 L
2449 2196 mt 2484 2185 L
c22
-199 -100 35 -11 2605 2499 3 MP
PP
0 sg
2605 2499 mt 2640 2488 L
2640 2488 mt 2441 2388 L
c22
34 -11 -199 -100 2640 2488 3 MP
PP
0 sg
2640 2488 mt 2441 2388 L
2441 2388 mt 2475 2377 L
c20
34 -12 -199 -828 2639 1448 3 MP
PP
0 sg
2639 1448 mt 2440  620 L
2440  620 mt 2474  608 L
/c23 { 0.187500 1.000000 0.812500 sr} bdef
c23
-199 -828 35 -12 2604 1460 3 MP
PP
0 sg
2604 1460 mt 2639 1448 L
2639 1448 mt 2440  620 L
c8
35 -11 -199 -147 2631 2703 3 MP
PP
0 sg
2631 2703 mt 2432 2556 L
2432 2556 mt 2467 2545 L
c8
-199 -147 34 -8 2597 2711 3 MP
PP
0 sg
2597 2711 mt 2631 2703 L
2631 2703 mt 2432 2556 L
c21
-199 -359 34 -12 2596 1892 3 MP
PP
0 sg
2596 1892 mt 2630 1880 L
2630 1880 mt 2431 1521 L
c21
35 -12 -199 -359 2630 1880 3 MP
PP
0 sg
2630 1880 mt 2431 1521 L
2431 1521 mt 2466 1509 L
c11
-199 -186 35 -12 2587 2150 3 MP
PP
0 sg
2587 2150 mt 2622 2138 L
2622 2138 mt 2423 1952 L
c11
34 -12 -199 -186 2622 2138 3 MP
PP
0 sg
2622 2138 mt 2423 1952 L
2423 1952 mt 2457 1940 L
c19
-200 -123 35 -12 2579 2343 3 MP
PP
0 sg
2579 2343 mt 2614 2331 L
2614 2331 mt 2414 2208 L
c16
35 -12 -200 -123 2614 2331 3 MP
PP
0 sg
2614 2331 mt 2414 2208 L
2414 2208 mt 2449 2196 L
c22
35 -12 -199 -99 2605 2499 3 MP
PP
0 sg
2605 2499 mt 2406 2400 L
2406 2400 mt 2441 2388 L
c22
-199 -99 35 -12 2570 2511 3 MP
PP
0 sg
2570 2511 mt 2605 2499 L
2605 2499 mt 2406 2400 L
c23
35 -12 -199 -828 2604 1460 3 MP
PP
0 sg
2604 1460 mt 2405  632 L
2405  632 mt 2440  620 L
c23
-199 -828 34 -12 2570 1472 3 MP
PP
0 sg
2570 1472 mt 2604 1460 L
2604 1460 mt 2405  632 L
c8
35 -12 -200 -143 2597 2711 3 MP
PP
0 sg
2597 2711 mt 2397 2568 L
2397 2568 mt 2432 2556 L
c8
-200 -143 35 -9 2562 2720 3 MP
PP
0 sg
2562 2720 mt 2597 2711 L
2597 2711 mt 2397 2568 L
/c24 { 0.000000 0.312500 1.000000 sr} bdef
c24
-199 -359 35 -12 2561 1904 3 MP
PP
0 sg
2561 1904 mt 2596 1892 L
2596 1892 mt 2397 1533 L
c21
34 -12 -199 -359 2596 1892 3 MP
PP
0 sg
2596 1892 mt 2397 1533 L
2397 1533 mt 2431 1521 L
c11
-199 -187 34 -12 2553 2162 3 MP
PP
0 sg
2553 2162 mt 2587 2150 L
2587 2150 mt 2388 1963 L
c11
35 -11 -199 -187 2587 2150 3 MP
PP
0 sg
2587 2150 mt 2388 1963 L
2388 1963 mt 2423 1952 L
c19
-199 -124 35 -11 2544 2354 3 MP
PP
0 sg
2544 2354 mt 2579 2343 L
2579 2343 mt 2380 2219 L
c19
34 -11 -199 -124 2579 2343 3 MP
PP
0 sg
2579 2343 mt 2380 2219 L
2380 2219 mt 2414 2208 L
c22
-199 -100 34 -11 2536 2522 3 MP
PP
0 sg
2536 2522 mt 2570 2511 L
2570 2511 mt 2371 2411 L
c22
35 -11 -199 -100 2570 2511 3 MP
PP
0 sg
2570 2511 mt 2371 2411 L
2371 2411 mt 2406 2400 L
c23
-199 -828 35 -12 2535 1484 3 MP
PP
0 sg
2535 1484 mt 2570 1472 L
2570 1472 mt 2371  644 L
c23
34 -12 -199 -828 2570 1472 3 MP
PP
0 sg
2570 1472 mt 2371  644 L
2371  644 mt 2405  632 L
c8
-199 -141 35 -9 2527 2729 3 MP
PP
0 sg
2527 2729 mt 2562 2720 L
2562 2720 mt 2363 2579 L
c8
34 -11 -199 -141 2562 2720 3 MP
PP
0 sg
2562 2720 mt 2363 2579 L
2363 2579 mt 2397 2568 L
c24
-199 -359 34 -12 2527 1916 3 MP
PP
0 sg
2527 1916 mt 2561 1904 L
2561 1904 mt 2362 1545 L
c24
35 -12 -199 -359 2561 1904 3 MP
PP
0 sg
2561 1904 mt 2362 1545 L
2362 1545 mt 2397 1533 L
c11
-199 -187 35 -11 2518 2173 3 MP
PP
0 sg
2518 2173 mt 2553 2162 L
2553 2162 mt 2354 1975 L
c11
34 -12 -199 -187 2553 2162 3 MP
PP
0 sg
2553 2162 mt 2354 1975 L
2354 1975 mt 2388 1963 L
c19
35 -12 -199 -123 2544 2354 3 MP
PP
0 sg
2544 2354 mt 2345 2231 L
2345 2231 mt 2380 2219 L
c19
-199 -123 34 -11 2510 2365 3 MP
PP
0 sg
2510 2365 mt 2544 2354 L
2544 2354 mt 2345 2231 L
c22
34 -11 -199 -100 2536 2522 3 MP
PP
0 sg
2536 2522 mt 2337 2422 L
2337 2422 mt 2371 2411 L
c22
-199 -100 35 -11 2501 2533 3 MP
PP
0 sg
2501 2533 mt 2536 2522 L
2536 2522 mt 2337 2422 L
c23
35 -12 -199 -828 2535 1484 3 MP
PP
0 sg
2535 1484 mt 2336  656 L
2336  656 mt 2371  644 L
c23
-199 -828 34 -13 2501 1497 3 MP
PP
0 sg
2501 1497 mt 2535 1484 L
2535 1484 mt 2336  656 L
c8
-199 -138 34 -9 2493 2738 3 MP
PP
0 sg
2493 2738 mt 2527 2729 L
2527 2729 mt 2328 2591 L
c8
35 -12 -199 -138 2527 2729 3 MP
PP
0 sg
2527 2729 mt 2328 2591 L
2328 2591 mt 2363 2579 L
c24
34 -11 -199 -360 2527 1916 3 MP
PP
0 sg
2527 1916 mt 2328 1556 L
2328 1556 mt 2362 1545 L
c24
-199 -360 35 -12 2492 1928 3 MP
PP
0 sg
2492 1928 mt 2527 1916 L
2527 1916 mt 2328 1556 L
c11
-199 -186 34 -12 2484 2185 3 MP
PP
0 sg
2484 2185 mt 2518 2173 L
2518 2173 mt 2319 1987 L
c11
35 -12 -199 -186 2518 2173 3 MP
PP
0 sg
2518 2173 mt 2319 1987 L
2319 1987 mt 2354 1975 L
c19
-199 -123 35 -12 2475 2377 3 MP
PP
0 sg
2475 2377 mt 2510 2365 L
2510 2365 mt 2311 2242 L
c19
34 -11 -199 -123 2510 2365 3 MP
PP
0 sg
2510 2365 mt 2311 2242 L
2311 2242 mt 2345 2231 L
c22
35 -12 -199 -99 2501 2533 3 MP
PP
0 sg
2501 2533 mt 2302 2434 L
2302 2434 mt 2337 2422 L
c22
-199 -99 34 -12 2467 2545 3 MP
PP
0 sg
2467 2545 mt 2501 2533 L
2501 2533 mt 2302 2434 L
c23
-200 -828 35 -12 2466 1509 3 MP
PP
0 sg
2466 1509 mt 2501 1497 L
2501 1497 mt 2301  669 L
c23
35 -13 -200 -828 2501 1497 3 MP
PP
0 sg
2501 1497 mt 2301  669 L
2301  669 mt 2336  656 L
c8
34 -11 -199 -136 2493 2738 3 MP
PP
0 sg
2493 2738 mt 2294 2602 L
2294 2602 mt 2328 2591 L
c8
-199 -136 35 -8 2458 2746 3 MP
PP
0 sg
2458 2746 mt 2493 2738 L
2493 2738 mt 2294 2602 L
c24
35 -12 -199 -360 2492 1928 3 MP
PP
0 sg
2492 1928 mt 2293 1568 L
2293 1568 mt 2328 1556 L
c24
-199 -360 35 -12 2457 1940 3 MP
PP
0 sg
2457 1940 mt 2492 1928 L
2492 1928 mt 2293 1568 L
c14
-200 -187 35 -11 2449 2196 3 MP
PP
0 sg
2449 2196 mt 2484 2185 L
2484 2185 mt 2284 1998 L
c11
35 -11 -200 -187 2484 2185 3 MP
PP
0 sg
2484 2185 mt 2284 1998 L
2284 1998 mt 2319 1987 L
c19
-199 -123 34 -11 2441 2388 3 MP
PP
0 sg
2441 2388 mt 2475 2377 L
2475 2377 mt 2276 2254 L
c19
35 -12 -199 -123 2475 2377 3 MP
PP
0 sg
2475 2377 mt 2276 2254 L
2276 2254 mt 2311 2242 L
c22
34 -11 -199 -100 2467 2545 3 MP
PP
0 sg
2467 2545 mt 2268 2445 L
2268 2445 mt 2302 2434 L
/c25 { 0.000000 0.000000 0.687500 sr} bdef
c25
-199 -100 35 -11 2432 2556 3 MP
PP
0 sg
2432 2556 mt 2467 2545 L
2467 2545 mt 2268 2445 L
c23
-199 -828 35 -12 2431 1521 3 MP
PP
0 sg
2431 1521 mt 2466 1509 L
2466 1509 mt 2267  681 L
c23
34 -12 -199 -828 2466 1509 3 MP
PP
0 sg
2466 1509 mt 2267  681 L
2267  681 mt 2301  669 L
c8
-199 -132 34 -9 2424 2755 3 MP
PP
0 sg
2424 2755 mt 2458 2746 L
2458 2746 mt 2259 2614 L
c8
35 -12 -199 -132 2458 2746 3 MP
PP
0 sg
2458 2746 mt 2259 2614 L
2259 2614 mt 2294 2602 L
c24
-199 -360 34 -12 2423 1952 3 MP
PP
0 sg
2423 1952 mt 2457 1940 L
2457 1940 mt 2258 1580 L
c24
35 -12 -199 -360 2457 1940 3 MP
PP
0 sg
2457 1940 mt 2258 1580 L
2258 1580 mt 2293 1568 L
c14
-199 -186 35 -12 2414 2208 3 MP
PP
0 sg
2414 2208 mt 2449 2196 L
2449 2196 mt 2250 2010 L
c14
34 -12 -199 -186 2449 2196 3 MP
PP
0 sg
2449 2196 mt 2250 2010 L
2250 2010 mt 2284 1998 L
c19
-200 -123 35 -12 2406 2400 3 MP
PP
0 sg
2406 2400 mt 2441 2388 L
2441 2388 mt 2241 2265 L
c19
35 -11 -200 -123 2441 2388 3 MP
PP
0 sg
2441 2388 mt 2241 2265 L
2241 2265 mt 2276 2254 L
c25
35 -12 -199 -99 2432 2556 3 MP
PP
0 sg
2432 2556 mt 2233 2457 L
2233 2457 mt 2268 2445 L
c25
-199 -99 35 -12 2397 2568 3 MP
PP
0 sg
2397 2568 mt 2432 2556 L
2432 2556 mt 2233 2457 L
c23
-199 -828 34 -12 2397 1533 3 MP
PP
0 sg
2397 1533 mt 2431 1521 L
2431 1521 mt 2232  693 L
c23
35 -12 -199 -828 2431 1521 3 MP
PP
0 sg
2431 1521 mt 2232  693 L
2232  693 mt 2267  681 L
c8
35 -12 -200 -129 2424 2755 3 MP
PP
0 sg
2424 2755 mt 2224 2626 L
2224 2626 mt 2259 2614 L
c8
-200 -129 35 -9 2389 2764 3 MP
PP
0 sg
2389 2764 mt 2424 2755 L
2424 2755 mt 2224 2626 L
c24
34 -12 -199 -360 2423 1952 3 MP
PP
0 sg
2423 1952 mt 2224 1592 L
2224 1592 mt 2258 1580 L
c24
-199 -360 35 -11 2388 1963 3 MP
PP
0 sg
2388 1963 mt 2423 1952 L
2423 1952 mt 2224 1592 L
c14
-199 -187 34 -11 2380 2219 3 MP
PP
0 sg
2380 2219 mt 2414 2208 L
2414 2208 mt 2215 2021 L
c14
35 -11 -199 -187 2414 2208 3 MP
PP
0 sg
2414 2208 mt 2215 2021 L
2215 2021 mt 2250 2010 L
c19
-199 -124 35 -11 2371 2411 3 MP
PP
0 sg
2371 2411 mt 2406 2400 L
2406 2400 mt 2207 2276 L
c19
34 -11 -199 -124 2406 2400 3 MP
PP
0 sg
2406 2400 mt 2207 2276 L
2207 2276 mt 2241 2265 L
c25
-199 -100 34 -11 2363 2579 3 MP
PP
0 sg
2363 2579 mt 2397 2568 L
2397 2568 mt 2198 2468 L
c25
35 -11 -199 -100 2397 2568 3 MP
PP
0 sg
2397 2568 mt 2198 2468 L
2198 2468 mt 2233 2457 L
/c26 { 0.125000 1.000000 0.875000 sr} bdef
c26
-199 -828 35 -12 2362 1545 3 MP
PP
0 sg
2362 1545 mt 2397 1533 L
2397 1533 mt 2198  705 L
c23
34 -12 -199 -828 2397 1533 3 MP
PP
0 sg
2397 1533 mt 2198  705 L
2198  705 mt 2232  693 L
c8
34 -12 -199 -126 2389 2764 3 MP
PP
0 sg
2389 2764 mt 2190 2638 L
2190 2638 mt 2224 2626 L
c8
-199 -126 35 -9 2354 2773 3 MP
PP
0 sg
2354 2773 mt 2389 2764 L
2389 2764 mt 2190 2638 L
c24
-199 -360 34 -12 2354 1975 3 MP
PP
0 sg
2354 1975 mt 2388 1963 L
2388 1963 mt 2189 1603 L
c24
35 -11 -199 -360 2388 1963 3 MP
PP
0 sg
2388 1963 mt 2189 1603 L
2189 1603 mt 2224 1592 L
c14
34 -11 -199 -187 2380 2219 3 MP
PP
0 sg
2380 2219 mt 2181 2032 L
2181 2032 mt 2215 2021 L
c14
-199 -187 35 -12 2345 2231 3 MP
PP
0 sg
2345 2231 mt 2380 2219 L
2380 2219 mt 2181 2032 L
c19
35 -12 -199 -123 2371 2411 3 MP
PP
0 sg
2371 2411 mt 2172 2288 L
2172 2288 mt 2207 2276 L
c19
-199 -123 34 -11 2337 2422 3 MP
PP
0 sg
2337 2422 mt 2371 2411 L
2371 2411 mt 2172 2288 L
c25
34 -12 -199 -99 2363 2579 3 MP
PP
0 sg
2363 2579 mt 2164 2480 L
2164 2480 mt 2198 2468 L
c25
-199 -99 35 -12 2328 2591 3 MP
PP
0 sg
2328 2591 mt 2363 2579 L
2363 2579 mt 2164 2480 L
c26
-199 -829 34 -11 2328 1556 3 MP
PP
0 sg
2328 1556 mt 2362 1545 L
2362 1545 mt 2163  716 L
c26
35 -11 -199 -829 2362 1545 3 MP
PP
0 sg
2362 1545 mt 2163  716 L
2163  716 mt 2198  705 L
c8
35 -11 -199 -124 2354 2773 3 MP
PP
0 sg
2354 2773 mt 2155 2649 L
2155 2649 mt 2190 2638 L
c8
-199 -124 34 -9 2320 2782 3 MP
PP
0 sg
2320 2782 mt 2354 2773 L
2354 2773 mt 2155 2649 L
c12
-199 -360 35 -12 2319 1987 3 MP
PP
0 sg
2319 1987 mt 2354 1975 L
2354 1975 mt 2155 1615 L
c24
34 -12 -199 -360 2354 1975 3 MP
PP
0 sg
2354 1975 mt 2155 1615 L
2155 1615 mt 2189 1603 L
c14
35 -12 -199 -187 2345 2231 3 MP
PP
0 sg
2345 2231 mt 2146 2044 L
2146 2044 mt 2181 2032 L
c14
-199 -187 34 -11 2311 2242 3 MP
PP
0 sg
2311 2242 mt 2345 2231 L
2345 2231 mt 2146 2044 L
c22
-199 -123 35 -12 2302 2434 3 MP
PP
0 sg
2302 2434 mt 2337 2422 L
2337 2422 mt 2138 2299 L
c19
34 -11 -199 -123 2337 2422 3 MP
PP
0 sg
2337 2422 mt 2138 2299 L
2138 2299 mt 2172 2288 L
c25
35 -11 -199 -100 2328 2591 3 MP
PP
0 sg
2328 2591 mt 2129 2491 L
2129 2491 mt 2164 2480 L
c25
-199 -100 34 -11 2294 2602 3 MP
PP
0 sg
2294 2602 mt 2328 2591 L
2328 2591 mt 2129 2491 L
c26
35 -12 -200 -828 2328 1556 3 MP
PP
0 sg
2328 1556 mt 2128  728 L
2128  728 mt 2163  716 L
c26
-200 -828 35 -12 2293 1568 3 MP
PP
0 sg
2293 1568 mt 2328 1556 L
2328 1556 mt 2128  728 L
c8
34 -12 -199 -121 2320 2782 3 MP
PP
0 sg
2320 2782 mt 2121 2661 L
2121 2661 mt 2155 2649 L
c8
-199 -121 35 -8 2285 2790 3 MP
PP
0 sg
2285 2790 mt 2320 2782 L
2320 2782 mt 2121 2661 L
c12
-199 -360 35 -11 2284 1998 3 MP
PP
0 sg
2284 1998 mt 2319 1987 L
2319 1987 mt 2120 1627 L
c12
35 -12 -199 -360 2319 1987 3 MP
PP
0 sg
2319 1987 mt 2120 1627 L
2120 1627 mt 2155 1615 L
c14
35 -11 -200 -187 2311 2242 3 MP
PP
0 sg
2311 2242 mt 2111 2055 L
2111 2055 mt 2146 2044 L
c14
-200 -187 35 -12 2276 2254 3 MP
PP
0 sg
2276 2254 mt 2311 2242 L
2311 2242 mt 2111 2055 L
c22
35 -12 -199 -123 2302 2434 3 MP
PP
0 sg
2302 2434 mt 2103 2311 L
2103 2311 mt 2138 2299 L
c22
-199 -123 34 -11 2268 2445 3 MP
PP
0 sg
2268 2445 mt 2302 2434 L
2302 2434 mt 2103 2311 L
c25
34 -12 -199 -99 2294 2602 3 MP
PP
0 sg
2294 2602 mt 2095 2503 L
2095 2503 mt 2129 2491 L
c25
-199 -99 35 -12 2259 2614 3 MP
PP
0 sg
2259 2614 mt 2294 2602 L
2294 2602 mt 2095 2503 L
c26
34 -12 -199 -828 2293 1568 3 MP
PP
0 sg
2293 1568 mt 2094  740 L
2094  740 mt 2128  728 L
c26
-199 -828 35 -12 2258 1580 3 MP
PP
0 sg
2258 1580 mt 2293 1568 L
2293 1568 mt 2094  740 L
c8
35 -12 -199 -117 2285 2790 3 MP
PP
0 sg
2285 2790 mt 2086 2673 L
2086 2673 mt 2121 2661 L
c8
-199 -117 34 -9 2251 2799 3 MP
PP
0 sg
2251 2799 mt 2285 2790 L
2285 2790 mt 2086 2673 L
c12
35 -11 -199 -360 2284 1998 3 MP
PP
0 sg
2284 1998 mt 2085 1638 L
2085 1638 mt 2120 1627 L
c12
-199 -360 34 -12 2250 2010 3 MP
PP
0 sg
2250 2010 mt 2284 1998 L
2284 1998 mt 2085 1638 L
c14
34 -12 -199 -187 2276 2254 3 MP
PP
0 sg
2276 2254 mt 2077 2067 L
2077 2067 mt 2111 2055 L
c14
-199 -187 35 -11 2241 2265 3 MP
PP
0 sg
2241 2265 mt 2276 2254 L
2276 2254 mt 2077 2067 L
c22
-200 -123 35 -12 2233 2457 3 MP
PP
0 sg
2233 2457 mt 2268 2445 L
2268 2445 mt 2068 2322 L
c22
35 -11 -200 -123 2268 2445 3 MP
PP
0 sg
2268 2445 mt 2068 2322 L
2068 2322 mt 2103 2311 L
c25
-199 -99 35 -12 2224 2626 3 MP
PP
0 sg
2224 2626 mt 2259 2614 L
2259 2614 mt 2060 2515 L
c25
35 -12 -199 -99 2259 2614 3 MP
PP
0 sg
2259 2614 mt 2060 2515 L
2060 2515 mt 2095 2503 L
c26
35 -12 -199 -828 2258 1580 3 MP
PP
0 sg
2258 1580 mt 2059  752 L
2059  752 mt 2094  740 L
c26
-199 -828 34 -12 2224 1592 3 MP
PP
0 sg
2224 1592 mt 2258 1580 L
2258 1580 mt 2059  752 L
c8
35 -12 -200 -114 2251 2799 3 MP
PP
0 sg
2251 2799 mt 2051 2685 L
2051 2685 mt 2086 2673 L
c8
-200 -114 35 -10 2216 2809 3 MP
PP
0 sg
2216 2809 mt 2251 2799 L
2251 2799 mt 2051 2685 L
c12
34 -12 -199 -360 2250 2010 3 MP
PP
0 sg
2250 2010 mt 2051 1650 L
2051 1650 mt 2085 1638 L
c12
-199 -360 35 -11 2215 2021 3 MP
PP
0 sg
2215 2021 mt 2250 2010 L
2250 2010 mt 2051 1650 L
c14
35 -11 -199 -187 2241 2265 3 MP
PP
0 sg
2241 2265 mt 2042 2078 L
2042 2078 mt 2077 2067 L
c14
-199 -187 34 -11 2207 2276 3 MP
PP
0 sg
2207 2276 mt 2241 2265 L
2241 2265 mt 2042 2078 L
c22
34 -12 -199 -123 2233 2457 3 MP
PP
0 sg
2233 2457 mt 2034 2334 L
2034 2334 mt 2068 2322 L
c22
-199 -123 35 -11 2198 2468 3 MP
PP
0 sg
2198 2468 mt 2233 2457 L
2233 2457 mt 2034 2334 L
c25
-199 -99 34 -12 2190 2638 3 MP
PP
0 sg
2190 2638 mt 2224 2626 L
2224 2626 mt 2025 2527 L
c25
35 -12 -199 -99 2224 2626 3 MP
PP
0 sg
2224 2626 mt 2025 2527 L
2025 2527 mt 2060 2515 L
c26
34 -11 -199 -829 2224 1592 3 MP
PP
0 sg
2224 1592 mt 2025  763 L
2025  763 mt 2059  752 L
c26
-199 -829 35 -11 2189 1603 3 MP
PP
0 sg
2189 1603 mt 2224 1592 L
2224 1592 mt 2025  763 L
c8
34 -12 -199 -112 2216 2809 3 MP
PP
0 sg
2216 2809 mt 2017 2697 L
2017 2697 mt 2051 2685 L
c8
-199 -112 35 -9 2181 2818 3 MP
PP
0 sg
2181 2818 mt 2216 2809 L
2216 2809 mt 2017 2697 L
c12
-199 -360 34 -11 2181 2032 3 MP
PP
0 sg
2181 2032 mt 2215 2021 L
2215 2021 mt 2016 1661 L
c12
35 -11 -199 -360 2215 2021 3 MP
PP
0 sg
2215 2021 mt 2016 1661 L
2016 1661 mt 2051 1650 L
c14
34 -11 -199 -187 2207 2276 3 MP
PP
0 sg
2207 2276 mt 2008 2089 L
2008 2089 mt 2042 2078 L
c16
-199 -187 35 -12 2172 2288 3 MP
PP
0 sg
2172 2288 mt 2207 2276 L
2207 2276 mt 2008 2089 L
c22
-199 -123 34 -12 2164 2480 3 MP
PP
0 sg
2164 2480 mt 2198 2468 L
2198 2468 mt 1999 2345 L
c22
35 -11 -199 -123 2198 2468 3 MP
PP
0 sg
2198 2468 mt 1999 2345 L
1999 2345 mt 2034 2334 L
/c27 { 0.000000 0.000000 0.625000 sr} bdef
c27
-199 -100 35 -11 2155 2649 3 MP
PP
0 sg
2155 2649 mt 2190 2638 L
2190 2638 mt 1991 2538 L
c25
34 -11 -199 -100 2190 2638 3 MP
PP
0 sg
2190 2638 mt 1991 2538 L
1991 2538 mt 2025 2527 L
c26
35 -12 -199 -828 2189 1603 3 MP
PP
0 sg
2189 1603 mt 1990  775 L
1990  775 mt 2025  763 L
c26
-199 -828 34 -12 2155 1615 3 MP
PP
0 sg
2155 1615 mt 2189 1603 L
2189 1603 mt 1990  775 L
c8
35 -12 -199 -109 2181 2818 3 MP
PP
0 sg
2181 2818 mt 1982 2709 L
1982 2709 mt 2017 2697 L
c8
-199 -109 34 -9 2147 2827 3 MP
PP
0 sg
2147 2827 mt 2181 2818 L
2181 2818 mt 1982 2709 L
c12
-199 -360 35 -12 2146 2044 3 MP
PP
0 sg
2146 2044 mt 2181 2032 L
2181 2032 mt 1982 1672 L
c12
34 -11 -199 -360 2181 2032 3 MP
PP
0 sg
2181 2032 mt 1982 1672 L
1982 1672 mt 2016 1661 L
c16
-199 -187 34 -11 2138 2299 3 MP
PP
0 sg
2138 2299 mt 2172 2288 L
2172 2288 mt 1973 2101 L
c16
35 -12 -199 -187 2172 2288 3 MP
PP
0 sg
2172 2288 mt 1973 2101 L
1973 2101 mt 2008 2089 L
c22
-199 -123 35 -11 2129 2491 3 MP
PP
0 sg
2129 2491 mt 2164 2480 L
2164 2480 mt 1965 2357 L
c22
34 -12 -199 -123 2164 2480 3 MP
PP
0 sg
2164 2480 mt 1965 2357 L
1965 2357 mt 1999 2345 L
c27
-199 -99 34 -12 2121 2661 3 MP
PP
0 sg
2121 2661 mt 2155 2649 L
2155 2649 mt 1956 2550 L
c27
35 -12 -199 -99 2155 2649 3 MP
PP
0 sg
2155 2649 mt 1956 2550 L
1956 2550 mt 1991 2538 L
c26
35 -12 -200 -828 2155 1615 3 MP
PP
0 sg
2155 1615 mt 1955  787 L
1955  787 mt 1990  775 L
/c28 { 0.062500 1.000000 0.937500 sr} bdef
c28
-200 -828 35 -12 2120 1627 3 MP
PP
0 sg
2120 1627 mt 2155 1615 L
2155 1615 mt 1955  787 L
c8
34 -13 -199 -105 2147 2827 3 MP
PP
0 sg
2147 2827 mt 1948 2722 L
1948 2722 mt 1982 2709 L
c8
-199 -105 35 -9 2112 2836 3 MP
PP
0 sg
2112 2836 mt 2147 2827 L
2147 2827 mt 1948 2722 L
c12
-199 -360 35 -11 2111 2055 3 MP
PP
0 sg
2111 2055 mt 2146 2044 L
2146 2044 mt 1947 1684 L
c12
35 -12 -199 -360 2146 2044 3 MP
PP
0 sg
2146 2044 mt 1947 1684 L
1947 1684 mt 1982 1672 L
c16
35 -11 -200 -187 2138 2299 3 MP
PP
0 sg
2138 2299 mt 1938 2112 L
1938 2112 mt 1973 2101 L
c16
-200 -187 35 -12 2103 2311 3 MP
PP
0 sg
2103 2311 mt 2138 2299 L
2138 2299 mt 1938 2112 L
c22
-199 -122 34 -12 2095 2503 3 MP
PP
0 sg
2095 2503 mt 2129 2491 L
2129 2491 mt 1930 2369 L
c22
35 -12 -199 -122 2129 2491 3 MP
PP
0 sg
2129 2491 mt 1930 2369 L
1930 2369 mt 1965 2357 L
c27
-199 -99 35 -12 2086 2673 3 MP
PP
0 sg
2086 2673 mt 2121 2661 L
2121 2661 mt 1922 2562 L
c27
34 -12 -199 -99 2121 2661 3 MP
PP
0 sg
2121 2661 mt 1922 2562 L
1922 2562 mt 1956 2550 L
c28
34 -11 -199 -829 2120 1627 3 MP
PP
0 sg
2120 1627 mt 1921  798 L
1921  798 mt 1955  787 L
c28
-199 -829 35 -11 2085 1638 3 MP
PP
0 sg
2085 1638 mt 2120 1627 L
2120 1627 mt 1921  798 L
c8
-199 -102 34 -6 2078 2842 3 MP
PP
0 sg
2078 2842 mt 2112 2836 L
2112 2836 mt 1913 2734 L
c8
35 -12 -199 -102 2112 2836 3 MP
PP
0 sg
2112 2836 mt 1913 2734 L
1913 2734 mt 1948 2722 L
c12
35 -11 -199 -360 2111 2055 3 MP
PP
0 sg
2111 2055 mt 1912 1695 L
1912 1695 mt 1947 1684 L
c12
-199 -360 34 -12 2077 2067 3 MP
PP
0 sg
2077 2067 mt 2111 2055 L
2111 2055 mt 1912 1695 L
c16
-199 -187 35 -11 2068 2322 3 MP
PP
0 sg
2068 2322 mt 2103 2311 L
2103 2311 mt 1904 2124 L
c16
34 -12 -199 -187 2103 2311 3 MP
PP
0 sg
2103 2311 mt 1904 2124 L
1904 2124 mt 1938 2112 L
c22
35 -11 -200 -123 2095 2503 3 MP
PP
0 sg
2095 2503 mt 1895 2380 L
1895 2380 mt 1930 2369 L
c25
-200 -123 35 -12 2060 2515 3 MP
PP
0 sg
2060 2515 mt 2095 2503 L
2095 2503 mt 1895 2380 L
c27
35 -12 -199 -99 2086 2673 3 MP
PP
0 sg
2086 2673 mt 1887 2574 L
1887 2574 mt 1922 2562 L
c27
-199 -99 35 -12 2051 2685 3 MP
PP
0 sg
2051 2685 mt 2086 2673 L
2086 2673 mt 1887 2574 L
c28
35 -12 -199 -828 2085 1638 3 MP
PP
0 sg
2085 1638 mt 1886  810 L
1886  810 mt 1921  798 L
c28
-199 -828 34 -12 2051 1650 3 MP
PP
0 sg
2051 1650 mt 2085 1638 L
2085 1638 mt 1886  810 L
c8
-200 -96 35 -9 2043 2851 3 MP
PP
0 sg
2043 2851 mt 2078 2842 L
2078 2842 mt 1878 2746 L
c8
35 -12 -200 -96 2078 2842 3 MP
PP
0 sg
2078 2842 mt 1878 2746 L
1878 2746 mt 1913 2734 L
c12
34 -12 -199 -360 2077 2067 3 MP
PP
0 sg
2077 2067 mt 1878 1707 L
1878 1707 mt 1912 1695 L
c13
-199 -360 35 -11 2042 2078 3 MP
PP
0 sg
2042 2078 mt 2077 2067 L
2077 2067 mt 1878 1707 L
c16
35 -11 -199 -187 2068 2322 3 MP
PP
0 sg
2068 2322 mt 1869 2135 L
1869 2135 mt 1904 2124 L
c16
-199 -187 34 -12 2034 2334 3 MP
PP
0 sg
2034 2334 mt 2068 2322 L
2068 2322 mt 1869 2135 L
c25
34 -12 -199 -123 2060 2515 3 MP
PP
0 sg
2060 2515 mt 1861 2392 L
1861 2392 mt 1895 2380 L
c25
-199 -123 35 -12 2025 2527 3 MP
PP
0 sg
2025 2527 mt 2060 2515 L
2060 2515 mt 1861 2392 L
c27
-199 -99 34 -12 2017 2697 3 MP
PP
0 sg
2017 2697 mt 2051 2685 L
2051 2685 mt 1852 2586 L
c27
35 -12 -199 -99 2051 2685 3 MP
PP
0 sg
2051 2685 mt 1852 2586 L
1852 2586 mt 1887 2574 L
c28
34 -11 -199 -829 2051 1650 3 MP
PP
0 sg
2051 1650 mt 1852  821 L
1852  821 mt 1886  810 L
c28
-199 -829 35 -11 2016 1661 3 MP
PP
0 sg
2016 1661 mt 2051 1650 L
2051 1650 mt 1852  821 L
c8
34 -12 -199 -93 2043 2851 3 MP
PP
0 sg
2043 2851 mt 1844 2758 L
1844 2758 mt 1878 2746 L
c13
35 -11 -199 -360 2042 2078 3 MP
PP
0 sg
2042 2078 mt 1843 1718 L
1843 1718 mt 1878 1707 L
c13
-199 -360 34 -11 2008 2089 3 MP
PP
0 sg
2008 2089 mt 2042 2078 L
2042 2078 mt 1843 1718 L
c16
-199 -187 35 -11 1999 2345 3 MP
PP
0 sg
1999 2345 mt 2034 2334 L
2034 2334 mt 1835 2147 L
c16
34 -12 -199 -187 2034 2334 3 MP
PP
0 sg
2034 2334 mt 1835 2147 L
1835 2147 mt 1869 2135 L
c25
-199 -123 34 -11 1991 2538 3 MP
PP
0 sg
1991 2538 mt 2025 2527 L
2025 2527 mt 1826 2404 L
c25
35 -12 -199 -123 2025 2527 3 MP
PP
0 sg
2025 2527 mt 1826 2404 L
1826 2404 mt 1861 2392 L
c27
34 -13 -199 -98 2017 2697 3 MP
PP
0 sg
2017 2697 mt 1818 2599 L
1818 2599 mt 1852 2586 L
c27
-199 -98 35 -12 1982 2709 3 MP
PP
0 sg
1982 2709 mt 2017 2697 L
2017 2697 mt 1818 2599 L
c28
-199 -829 34 -11 1982 1672 3 MP
PP
0 sg
1982 1672 mt 2016 1661 L
2016 1661 mt 1817  832 L
c28
35 -11 -199 -829 2016 1661 3 MP
PP
0 sg
2016 1661 mt 1817  832 L
1817  832 mt 1852  821 L
c13
34 -11 -199 -360 2008 2089 3 MP
PP
0 sg
2008 2089 mt 1809 1729 L
1809 1729 mt 1843 1718 L
c13
-199 -360 35 -12 1973 2101 3 MP
PP
0 sg
1973 2101 mt 2008 2089 L
2008 2089 mt 1809 1729 L
c16
35 -11 -199 -187 1999 2345 3 MP
PP
0 sg
1999 2345 mt 1800 2158 L
1800 2158 mt 1835 2147 L
c16
-199 -187 34 -12 1965 2357 3 MP
PP
0 sg
1965 2357 mt 1999 2345 L
1999 2345 mt 1800 2158 L
c25
-199 -122 35 -12 1956 2550 3 MP
PP
0 sg
1956 2550 mt 1991 2538 L
1991 2538 mt 1792 2416 L
c25
34 -12 -199 -122 1991 2538 3 MP
PP
0 sg
1991 2538 mt 1792 2416 L
1792 2416 mt 1826 2404 L
c8
-199 -98 34 -13 1948 2722 3 MP
PP
0 sg
1948 2722 mt 1982 2709 L
1982 2709 mt 1783 2611 L
c27
35 -12 -199 -98 1982 2709 3 MP
PP
0 sg
1982 2709 mt 1783 2611 L
1783 2611 mt 1818 2599 L
c28
-200 -828 35 -12 1947 1684 3 MP
PP
0 sg
1947 1684 mt 1982 1672 L
1982 1672 mt 1782  844 L
c28
35 -12 -200 -828 1982 1672 3 MP
PP
0 sg
1982 1672 mt 1782  844 L
1782  844 mt 1817  832 L
c13
35 -12 -199 -360 1973 2101 3 MP
PP
0 sg
1973 2101 mt 1774 1741 L
1774 1741 mt 1809 1729 L
c13
-199 -360 35 -11 1938 2112 3 MP
PP
0 sg
1938 2112 mt 1973 2101 L
1973 2101 mt 1774 1741 L
c19
-200 -187 35 -12 1930 2369 3 MP
PP
0 sg
1930 2369 mt 1965 2357 L
1965 2357 mt 1765 2170 L
c16
35 -12 -200 -187 1965 2357 3 MP
PP
0 sg
1965 2357 mt 1765 2170 L
1765 2170 mt 1800 2158 L
c25
-199 -122 34 -12 1922 2562 3 MP
PP
0 sg
1922 2562 mt 1956 2550 L
1956 2550 mt 1757 2428 L
c25
35 -12 -199 -122 1956 2550 3 MP
PP
0 sg
1956 2550 mt 1757 2428 L
1757 2428 mt 1792 2416 L
c8
34 -12 -199 -99 1948 2722 3 MP
PP
0 sg
1948 2722 mt 1749 2623 L
1749 2623 mt 1783 2611 L
c8
-199 -99 35 -12 1913 2734 3 MP
PP
0 sg
1913 2734 mt 1948 2722 L
1948 2722 mt 1749 2623 L
c28
-199 -829 35 -11 1912 1695 3 MP
PP
0 sg
1912 1695 mt 1947 1684 L
1947 1684 mt 1748  855 L
c28
34 -11 -199 -829 1947 1684 3 MP
PP
0 sg
1947 1684 mt 1748  855 L
1748  855 mt 1782  844 L
c13
-199 -360 34 -12 1904 2124 3 MP
PP
0 sg
1904 2124 mt 1938 2112 L
1938 2112 mt 1739 1752 L
c13
35 -11 -199 -360 1938 2112 3 MP
PP
0 sg
1938 2112 mt 1739 1752 L
1739 1752 mt 1774 1741 L
c19
-199 -187 35 -11 1895 2380 3 MP
PP
0 sg
1895 2380 mt 1930 2369 L
1930 2369 mt 1731 2182 L
c19
34 -12 -199 -187 1930 2369 3 MP
PP
0 sg
1930 2369 mt 1731 2182 L
1731 2182 mt 1765 2170 L
c25
-200 -122 35 -12 1887 2574 3 MP
PP
0 sg
1887 2574 mt 1922 2562 L
1922 2562 mt 1722 2440 L
c25
35 -12 -200 -122 1922 2562 3 MP
PP
0 sg
1922 2562 mt 1722 2440 L
1722 2440 mt 1757 2428 L
c8
35 -12 -199 -99 1913 2734 3 MP
PP
0 sg
1913 2734 mt 1714 2635 L
1714 2635 mt 1749 2623 L
c8
-199 -99 35 -12 1878 2746 3 MP
PP
0 sg
1878 2746 mt 1913 2734 L
1913 2734 mt 1714 2635 L
c28
-199 -829 34 -12 1878 1707 3 MP
PP
0 sg
1878 1707 mt 1912 1695 L
1912 1695 mt 1713  866 L
c28
35 -11 -199 -829 1912 1695 3 MP
PP
0 sg
1912 1695 mt 1713  866 L
1713  866 mt 1748  855 L
c13
34 -12 -199 -360 1904 2124 3 MP
PP
0 sg
1904 2124 mt 1705 1764 L
1705 1764 mt 1739 1752 L
c13
-199 -360 35 -11 1869 2135 3 MP
PP
0 sg
1869 2135 mt 1904 2124 L
1904 2124 mt 1705 1764 L
c19
-199 -186 34 -12 1861 2392 3 MP
PP
0 sg
1861 2392 mt 1895 2380 L
1895 2380 mt 1696 2194 L
c19
35 -12 -199 -186 1895 2380 3 MP
PP
0 sg
1895 2380 mt 1696 2194 L
1696 2194 mt 1731 2182 L
c25
-199 -122 35 -12 1852 2586 3 MP
PP
0 sg
1852 2586 mt 1887 2574 L
1887 2574 mt 1688 2452 L
c25
34 -12 -199 -122 1887 2574 3 MP
PP
0 sg
1887 2574 mt 1688 2452 L
1688 2452 mt 1722 2440 L
c8
-199 -99 34 -12 1844 2758 3 MP
PP
0 sg
1844 2758 mt 1878 2746 L
1878 2746 mt 1679 2647 L
c8
35 -12 -199 -99 1878 2746 3 MP
PP
0 sg
1878 2746 mt 1679 2647 L
1679 2647 mt 1714 2635 L
/c29 { 0.000000 1.000000 1.000000 sr} bdef
c29
-199 -829 35 -11 1843 1718 3 MP
PP
0 sg
1843 1718 mt 1878 1707 L
1878 1707 mt 1679  878 L
c28
34 -12 -199 -829 1878 1707 3 MP
PP
0 sg
1878 1707 mt 1679  878 L
1679  878 mt 1713  866 L
c13
-199 -360 34 -12 1835 2147 3 MP
PP
0 sg
1835 2147 mt 1869 2135 L
1869 2135 mt 1670 1775 L
c13
35 -11 -199 -360 1869 2135 3 MP
PP
0 sg
1869 2135 mt 1670 1775 L
1670 1775 mt 1705 1764 L
c19
-199 -186 35 -12 1826 2404 3 MP
PP
0 sg
1826 2404 mt 1861 2392 L
1861 2392 mt 1662 2206 L
c19
34 -12 -199 -186 1861 2392 3 MP
PP
0 sg
1861 2392 mt 1662 2206 L
1662 2206 mt 1696 2194 L
c27
-199 -122 34 -13 1818 2599 3 MP
PP
0 sg
1818 2599 mt 1852 2586 L
1852 2586 mt 1653 2464 L
c25
35 -12 -199 -122 1852 2586 3 MP
PP
0 sg
1852 2586 mt 1653 2464 L
1653 2464 mt 1688 2452 L
c8
34 -12 -199 -99 1844 2758 3 MP
PP
0 sg
1844 2758 mt 1645 2659 L
1645 2659 mt 1679 2647 L
c29
-199 -829 34 -11 1809 1729 3 MP
PP
0 sg
1809 1729 mt 1843 1718 L
1843 1718 mt 1644  889 L
c29
35 -11 -199 -829 1843 1718 3 MP
PP
0 sg
1843 1718 mt 1644  889 L
1644  889 mt 1679  878 L
c13
34 -12 -199 -360 1835 2147 3 MP
PP
0 sg
1835 2147 mt 1636 1787 L
1636 1787 mt 1670 1775 L
c13
-199 -360 35 -11 1800 2158 3 MP
PP
0 sg
1800 2158 mt 1835 2147 L
1835 2147 mt 1636 1787 L
c19
35 -11 -199 -187 1826 2404 3 MP
PP
0 sg
1826 2404 mt 1627 2217 L
1627 2217 mt 1662 2206 L
c19
-199 -187 34 -12 1792 2416 3 MP
PP
0 sg
1792 2416 mt 1826 2404 L
1826 2404 mt 1627 2217 L
c27
-199 -123 35 -12 1783 2611 3 MP
PP
0 sg
1783 2611 mt 1818 2599 L
1818 2599 mt 1619 2476 L
c27
34 -12 -199 -123 1818 2599 3 MP
PP
0 sg
1818 2599 mt 1619 2476 L
1619 2476 mt 1653 2464 L
c29
35 -12 -200 -828 1809 1729 3 MP
PP
0 sg
1809 1729 mt 1609  901 L
1609  901 mt 1644  889 L
c29
-200 -828 35 -12 1774 1741 3 MP
PP
0 sg
1774 1741 mt 1809 1729 L
1809 1729 mt 1609  901 L
c13
35 -12 -199 -359 1800 2158 3 MP
PP
0 sg
1800 2158 mt 1601 1799 L
1601 1799 mt 1636 1787 L
c10
-199 -359 35 -12 1765 2170 3 MP
PP
0 sg
1765 2170 mt 1800 2158 L
1800 2158 mt 1601 1799 L
c19
-200 -187 35 -12 1757 2428 3 MP
PP
0 sg
1757 2428 mt 1792 2416 L
1792 2416 mt 1592 2229 L
c19
35 -12 -200 -187 1792 2416 3 MP
PP
0 sg
1792 2416 mt 1592 2229 L
1592 2229 mt 1627 2217 L
c27
35 -12 -199 -123 1783 2611 3 MP
PP
0 sg
1783 2611 mt 1584 2488 L
1584 2488 mt 1619 2476 L
c27
-199 -123 34 -12 1749 2623 3 MP
PP
0 sg
1749 2623 mt 1783 2611 L
1783 2611 mt 1584 2488 L
c29
-199 -829 35 -11 1739 1752 3 MP
PP
0 sg
1739 1752 mt 1774 1741 L
1774 1741 mt 1575  912 L
c29
34 -11 -199 -829 1774 1741 3 MP
PP
0 sg
1774 1741 mt 1575  912 L
1575  912 mt 1609  901 L
c10
-199 -360 34 -12 1731 2182 3 MP
PP
0 sg
1731 2182 mt 1765 2170 L
1765 2170 mt 1566 1810 L
c10
35 -11 -199 -360 1765 2170 3 MP
PP
0 sg
1765 2170 mt 1566 1810 L
1566 1810 mt 1601 1799 L
c19
34 -12 -199 -187 1757 2428 3 MP
PP
0 sg
1757 2428 mt 1558 2241 L
1558 2241 mt 1592 2229 L
c19
-199 -187 35 -12 1722 2440 3 MP
PP
0 sg
1722 2440 mt 1757 2428 L
1757 2428 mt 1558 2241 L
c27
35 -12 -200 -123 1749 2623 3 MP
PP
0 sg
1749 2623 mt 1549 2500 L
1549 2500 mt 1584 2488 L
c27
-200 -123 35 -12 1714 2635 3 MP
PP
0 sg
1714 2635 mt 1749 2623 L
1749 2623 mt 1549 2500 L
c29
35 -12 -199 -828 1739 1752 3 MP
PP
0 sg
1739 1752 mt 1540  924 L
1540  924 mt 1575  912 L
c29
-199 -828 34 -12 1705 1764 3 MP
PP
0 sg
1705 1764 mt 1739 1752 L
1739 1752 mt 1540  924 L
c10
-199 -360 35 -12 1696 2194 3 MP
PP
0 sg
1696 2194 mt 1731 2182 L
1731 2182 mt 1532 1822 L
c10
34 -12 -199 -360 1731 2182 3 MP
PP
0 sg
1731 2182 mt 1532 1822 L
1532 1822 mt 1566 1810 L
c22
-199 -187 34 -12 1688 2452 3 MP
PP
0 sg
1688 2452 mt 1722 2440 L
1722 2440 mt 1523 2253 L
c19
35 -12 -199 -187 1722 2440 3 MP
PP
0 sg
1722 2440 mt 1523 2253 L
1523 2253 mt 1558 2241 L
c27
-199 -123 35 -12 1679 2647 3 MP
PP
0 sg
1679 2647 mt 1714 2635 L
1714 2635 mt 1515 2512 L
c27
34 -12 -199 -123 1714 2635 3 MP
PP
0 sg
1714 2635 mt 1515 2512 L
1515 2512 mt 1549 2500 L
c29
34 -11 -199 -829 1705 1764 3 MP
PP
0 sg
1705 1764 mt 1506  935 L
1506  935 mt 1540  924 L
c29
-199 -829 35 -11 1670 1775 3 MP
PP
0 sg
1670 1775 mt 1705 1764 L
1705 1764 mt 1506  935 L
c10
-199 -360 34 -12 1662 2206 3 MP
PP
0 sg
1662 2206 mt 1696 2194 L
1696 2194 mt 1497 1834 L
c10
35 -12 -199 -360 1696 2194 3 MP
PP
0 sg
1696 2194 mt 1497 1834 L
1497 1834 mt 1532 1822 L
c22
34 -13 -199 -186 1688 2452 3 MP
PP
0 sg
1688 2452 mt 1489 2266 L
1489 2266 mt 1523 2253 L
c22
-199 -186 35 -12 1653 2464 3 MP
PP
0 sg
1653 2464 mt 1688 2452 L
1688 2452 mt 1489 2266 L
c27
-199 -123 34 -12 1645 2659 3 MP
PP
0 sg
1645 2659 mt 1679 2647 L
1679 2647 mt 1480 2524 L
c27
35 -12 -199 -123 1679 2647 3 MP
PP
0 sg
1679 2647 mt 1480 2524 L
1480 2524 mt 1515 2512 L
c29
-199 -828 34 -12 1636 1787 3 MP
PP
0 sg
1636 1787 mt 1670 1775 L
1670 1775 mt 1471  947 L
c29
35 -12 -199 -828 1670 1775 3 MP
PP
0 sg
1670 1775 mt 1471  947 L
1471  947 mt 1506  935 L
c10
-199 -360 35 -11 1627 2217 3 MP
PP
0 sg
1627 2217 mt 1662 2206 L
1662 2206 mt 1463 1846 L
c10
34 -12 -199 -360 1662 2206 3 MP
PP
0 sg
1662 2206 mt 1463 1846 L
1463 1846 mt 1497 1834 L
c22
35 -12 -199 -186 1653 2464 3 MP
PP
0 sg
1653 2464 mt 1454 2278 L
1454 2278 mt 1489 2266 L
c22
-199 -186 34 -12 1619 2476 3 MP
PP
0 sg
1619 2476 mt 1653 2464 L
1653 2464 mt 1454 2278 L
c27
34 -12 -199 -123 1645 2659 3 MP
PP
0 sg
1645 2659 mt 1446 2536 L
1446 2536 mt 1480 2524 L
c29
35 -12 -200 -828 1636 1787 3 MP
PP
0 sg
1636 1787 mt 1436  959 L
1436  959 mt 1471  947 L
/c30 { 0.000000 0.937500 1.000000 sr} bdef
c30
-200 -828 35 -12 1601 1799 3 MP
PP
0 sg
1601 1799 mt 1636 1787 L
1636 1787 mt 1436  959 L
c10
-199 -359 35 -12 1592 2229 3 MP
PP
0 sg
1592 2229 mt 1627 2217 L
1627 2217 mt 1428 1858 L
c10
35 -12 -199 -359 1627 2217 3 MP
PP
0 sg
1627 2217 mt 1428 1858 L
1428 1858 mt 1463 1846 L
c22
-200 -186 35 -12 1584 2488 3 MP
PP
0 sg
1584 2488 mt 1619 2476 L
1619 2476 mt 1419 2290 L
c22
35 -12 -200 -186 1619 2476 3 MP
PP
0 sg
1619 2476 mt 1419 2290 L
1419 2290 mt 1454 2278 L
c30
34 -11 -199 -829 1601 1799 3 MP
PP
0 sg
1601 1799 mt 1402  970 L
1402  970 mt 1436  959 L
c30
-199 -829 35 -11 1566 1810 3 MP
PP
0 sg
1566 1810 mt 1601 1799 L
1601 1799 mt 1402  970 L
c10
35 -12 -199 -359 1592 2229 3 MP
PP
0 sg
1592 2229 mt 1393 1870 L
1393 1870 mt 1428 1858 L
c10
-199 -359 34 -12 1558 2241 3 MP
PP
0 sg
1558 2241 mt 1592 2229 L
1592 2229 mt 1393 1870 L
c22
34 -12 -199 -186 1584 2488 3 MP
PP
0 sg
1584 2488 mt 1385 2302 L
1385 2302 mt 1419 2290 L
c22
-199 -186 35 -12 1549 2500 3 MP
PP
0 sg
1549 2500 mt 1584 2488 L
1584 2488 mt 1385 2302 L
c30
-199 -828 34 -12 1532 1822 3 MP
PP
0 sg
1532 1822 mt 1566 1810 L
1566 1810 mt 1367  982 L
c30
35 -12 -199 -828 1566 1810 3 MP
PP
0 sg
1566 1810 mt 1367  982 L
1367  982 mt 1402  970 L
c9
-199 -359 35 -12 1523 2253 3 MP
PP
0 sg
1523 2253 mt 1558 2241 L
1558 2241 mt 1359 1882 L
c10
34 -12 -199 -359 1558 2241 3 MP
PP
0 sg
1558 2241 mt 1359 1882 L
1359 1882 mt 1393 1870 L
c22
35 -12 -199 -186 1549 2500 3 MP
PP
0 sg
1549 2500 mt 1350 2314 L
1350 2314 mt 1385 2302 L
c22
-199 -186 34 -12 1515 2512 3 MP
PP
0 sg
1515 2512 mt 1549 2500 L
1549 2500 mt 1350 2314 L
c30
-199 -828 35 -12 1497 1834 3 MP
PP
0 sg
1497 1834 mt 1532 1822 L
1532 1822 mt 1333  994 L
c30
34 -12 -199 -828 1532 1822 3 MP
PP
0 sg
1532 1822 mt 1333  994 L
1333  994 mt 1367  982 L
c9
35 -12 -199 -359 1523 2253 3 MP
PP
0 sg
1523 2253 mt 1324 1894 L
1324 1894 mt 1359 1882 L
c9
-199 -359 34 -13 1489 2266 3 MP
PP
0 sg
1489 2266 mt 1523 2253 L
1523 2253 mt 1324 1894 L
c22
-199 -186 35 -12 1480 2524 3 MP
PP
0 sg
1480 2524 mt 1515 2512 L
1515 2512 mt 1316 2326 L
c22
34 -12 -199 -186 1515 2512 3 MP
PP
0 sg
1515 2512 mt 1316 2326 L
1316 2326 mt 1350 2314 L
c30
35 -12 -199 -828 1497 1834 3 MP
PP
0 sg
1497 1834 mt 1298 1006 L
1298 1006 mt 1333  994 L
c30
-199 -828 34 -12 1463 1846 3 MP
PP
0 sg
1463 1846 mt 1497 1834 L
1497 1834 mt 1298 1006 L
c9
34 -12 -199 -360 1489 2266 3 MP
PP
0 sg
1489 2266 mt 1290 1906 L
1290 1906 mt 1324 1894 L
c9
-199 -360 35 -12 1454 2278 3 MP
PP
0 sg
1454 2278 mt 1489 2266 L
1489 2266 mt 1290 1906 L
c25
-199 -186 34 -12 1446 2536 3 MP
PP
0 sg
1446 2536 mt 1480 2524 L
1480 2524 mt 1281 2338 L
c22
35 -12 -199 -186 1480 2524 3 MP
PP
0 sg
1480 2524 mt 1281 2338 L
1281 2338 mt 1316 2326 L
c30
35 -12 -200 -828 1463 1846 3 MP
PP
0 sg
1463 1846 mt 1263 1018 L
1263 1018 mt 1298 1006 L
c30
-200 -828 35 -12 1428 1858 3 MP
PP
0 sg
1428 1858 mt 1463 1846 L
1463 1846 mt 1263 1018 L
c9
35 -12 -199 -360 1454 2278 3 MP
PP
0 sg
1454 2278 mt 1255 1918 L
1255 1918 mt 1290 1906 L
c9
-199 -360 35 -12 1419 2290 3 MP
PP
0 sg
1419 2290 mt 1454 2278 L
1454 2278 mt 1255 1918 L
c25
35 -12 -200 -186 1446 2536 3 MP
PP
0 sg
1446 2536 mt 1246 2350 L
1246 2350 mt 1281 2338 L
c30
34 -12 -199 -828 1428 1858 3 MP
PP
0 sg
1428 1858 mt 1229 1030 L
1229 1030 mt 1263 1018 L
c30
-199 -828 35 -12 1393 1870 3 MP
PP
0 sg
1393 1870 mt 1428 1858 L
1428 1858 mt 1229 1030 L
c9
-199 -360 34 -12 1385 2302 3 MP
PP
0 sg
1385 2302 mt 1419 2290 L
1419 2290 mt 1220 1930 L
c9
35 -12 -199 -360 1419 2290 3 MP
PP
0 sg
1419 2290 mt 1220 1930 L
1220 1930 mt 1255 1918 L
/c31 { 0.000000 0.875000 1.000000 sr} bdef
c31
-199 -828 34 -12 1359 1882 3 MP
PP
0 sg
1359 1882 mt 1393 1870 L
1393 1870 mt 1194 1042 L
c30
35 -12 -199 -828 1393 1870 3 MP
PP
0 sg
1393 1870 mt 1194 1042 L
1194 1042 mt 1229 1030 L
c9
34 -12 -199 -360 1385 2302 3 MP
PP
0 sg
1385 2302 mt 1186 1942 L
1186 1942 mt 1220 1930 L
c9
-199 -360 35 -12 1350 2314 3 MP
PP
0 sg
1350 2314 mt 1385 2302 L
1385 2302 mt 1186 1942 L
c31
-199 -828 35 -12 1324 1894 3 MP
PP
0 sg
1324 1894 mt 1359 1882 L
1359 1882 mt 1160 1054 L
c31
34 -12 -199 -828 1359 1882 3 MP
PP
0 sg
1359 1882 mt 1160 1054 L
1160 1054 mt 1194 1042 L
c9
35 -12 -199 -360 1350 2314 3 MP
PP
0 sg
1350 2314 mt 1151 1954 L
1151 1954 mt 1186 1942 L
c11
-199 -360 34 -12 1316 2326 3 MP
PP
0 sg
1316 2326 mt 1350 2314 L
1350 2314 mt 1151 1954 L
c31
35 -12 -199 -828 1324 1894 3 MP
PP
0 sg
1324 1894 mt 1125 1066 L
1125 1066 mt 1160 1054 L
c31
-199 -828 34 -12 1290 1906 3 MP
PP
0 sg
1290 1906 mt 1324 1894 L
1324 1894 mt 1125 1066 L
c11
-199 -360 35 -12 1281 2338 3 MP
PP
0 sg
1281 2338 mt 1316 2326 L
1316 2326 mt 1117 1966 L
c11
34 -12 -199 -360 1316 2326 3 MP
PP
0 sg
1316 2326 mt 1117 1966 L
1117 1966 mt 1151 1954 L
c31
-200 -828 35 -12 1255 1918 3 MP
PP
0 sg
1255 1918 mt 1290 1906 L
1290 1906 mt 1090 1078 L
c31
35 -12 -200 -828 1290 1906 3 MP
PP
0 sg
1290 1906 mt 1090 1078 L
1090 1078 mt 1125 1066 L
c11
-199 -360 35 -12 1246 2350 3 MP
PP
0 sg
1246 2350 mt 1281 2338 L
1281 2338 mt 1082 1978 L
c11
35 -12 -199 -360 1281 2338 3 MP
PP
0 sg
1281 2338 mt 1082 1978 L
1082 1978 mt 1117 1966 L
c31
-199 -828 35 -12 1220 1930 3 MP
PP
0 sg
1220 1930 mt 1255 1918 L
1255 1918 mt 1056 1090 L
c31
34 -12 -199 -828 1255 1918 3 MP
PP
0 sg
1255 1918 mt 1056 1090 L
1056 1090 mt 1090 1078 L
c11
35 -12 -199 -360 1246 2350 3 MP
PP
0 sg
1246 2350 mt 1047 1990 L
1047 1990 mt 1082 1978 L
c31
-199 -828 34 -12 1186 1942 3 MP
PP
0 sg
1186 1942 mt 1220 1930 L
1220 1930 mt 1021 1102 L
c31
35 -12 -199 -828 1220 1930 3 MP
PP
0 sg
1220 1930 mt 1021 1102 L
1021 1102 mt 1056 1090 L
/c32 { 0.000000 0.812500 1.000000 sr} bdef
c32
-199 -828 35 -12 1151 1954 3 MP
PP
0 sg
1151 1954 mt 1186 1942 L
1186 1942 mt  987 1114 L
c31
34 -12 -199 -828 1186 1942 3 MP
PP
0 sg
1186 1942 mt  987 1114 L
 987 1114 mt 1021 1102 L
c32
35 -12 -199 -828 1151 1954 3 MP
PP
0 sg
1151 1954 mt  952 1126 L
 952 1126 mt  987 1114 L
c32
-199 -828 34 -12 1117 1966 3 MP
PP
0 sg
1117 1966 mt 1151 1954 L
1151 1954 mt  952 1126 L
c32
35 -12 -200 -828 1117 1966 3 MP
PP
0 sg
1117 1966 mt  917 1138 L
 917 1138 mt  952 1126 L
c32
-200 -828 35 -12 1082 1978 3 MP
PP
0 sg
1082 1978 mt 1117 1966 L
1117 1966 mt  917 1138 L
c32
34 -12 -199 -828 1082 1978 3 MP
PP
0 sg
1082 1978 mt  883 1150 L
 883 1150 mt  917 1138 L
c32
-199 -828 35 -12 1047 1990 3 MP
PP
0 sg
1047 1990 mt 1082 1978 L
1082 1978 mt  883 1150 L
c32
35 -12 -199 -828 1047 1990 3 MP
PP
0 sg
1047 1990 mt  848 1162 L
 848 1162 mt  883 1150 L
gr

%%IncludeResource: font Helvetica-Bold
/Helvetica-Bold /WindowsLatin1Encoding 120 FMSR

3316 2948 mt 
(Space) s
1162 2897 mt 
(Time) s

end %%Color Dict

eplot
%%EndObject

epage
end

showpage

%%Trailer
%%EOF
