%!PS-Adobe-3.0 EPSF-3.0
%%Creator: MATLAB, The MathWorks, Inc. Version 7.11.0.584 (R2010b). Operating System: Microsoft Windows 7.
%%Title: C:\Users\Hyun Lim\Dropbox\KGnl_paper\ncri.eps
%%CreationDate: 09/12/2014  18:03:00
%%DocumentNeededFonts: Helvetica
%%+ Helvetica-Bold
%%DocumentProcessColors: Cyan Magenta Yellow Black
%%LanguageLevel: 2
%%Pages: 1
%%BoundingBox:    15   147   594   644
%%EndComments

%%BeginProlog
% MathWorks dictionary
/MathWorks 160 dict begin
% definition operators
/bdef {bind def} bind def
/ldef {load def} bind def
/xdef {exch def} bdef
/xstore {exch store} bdef
% operator abbreviations
/c  /clip ldef
/cc /concat ldef
/cp /closepath ldef
/gr /grestore ldef
/gs /gsave ldef
/mt /moveto ldef
/np /newpath ldef
/cm /currentmatrix ldef
/sm /setmatrix ldef
/rm /rmoveto ldef
/rl /rlineto ldef
/s {show newpath} bdef
/sc {setcmykcolor} bdef
/sr /setrgbcolor ldef
/sg /setgray ldef
/w /setlinewidth ldef
/j /setlinejoin ldef
/cap /setlinecap ldef
/rc {rectclip} bdef
/rf {rectfill} bdef
% page state control
/pgsv () def
/bpage {/pgsv save def} bdef
/epage {pgsv restore} bdef
/bplot /gsave ldef
/eplot {stroke grestore} bdef
% orientation switch
/portraitMode 0 def /landscapeMode 1 def /rotateMode 2 def
% coordinate system mappings
/dpi2point 0 def
% font control
/FontSize 0 def
/FMS {/FontSize xstore findfont [FontSize 0 0 FontSize neg 0 0]
  makefont setfont} bdef
/ISOLatin1Encoding where {pop /WindowsLatin1Encoding 256 array bdef
ISOLatin1Encoding WindowsLatin1Encoding copy pop
/.notdef/.notdef/quotesinglbase/florin/quotedblbase/ellipsis/dagger
/daggerdbl/circumflex/perthousand/Scaron/guilsinglleft/OE/.notdef/.notdef
/.notdef/.notdef/quoteleft/quoteright/quotedblleft/quotedblright/bullet
/endash/emdash/tilde/trademark/scaron/guilsinglright/oe/.notdef/.notdef
/Ydieresis WindowsLatin1Encoding 128 32 getinterval astore pop}
{/WindowsLatin1Encoding StandardEncoding bdef} ifelse
/reencode {exch dup where {pop load} {pop StandardEncoding} ifelse
  exch dup 3 1 roll findfont dup length dict begin
  { 1 index /FID ne {def}{pop pop} ifelse } forall
  /Encoding exch def currentdict end definefont pop} bdef
/isroman {findfont /CharStrings get /Agrave known} bdef
/FMSR {3 1 roll 1 index dup isroman {reencode} {pop pop} ifelse
  exch FMS} bdef
/csm {1 dpi2point div -1 dpi2point div scale neg translate
 dup landscapeMode eq {pop -90 rotate}
  {rotateMode eq {90 rotate} if} ifelse} bdef
% line types: solid, dotted, dashed, dotdash
/SO { [] 0 setdash } bdef
/DO { [.5 dpi2point mul 4 dpi2point mul] 0 setdash } bdef
/DA { [6 dpi2point mul] 0 setdash } bdef
/DD { [.5 dpi2point mul 4 dpi2point mul 6 dpi2point mul 4
  dpi2point mul] 0 setdash } bdef
% macros for lines and objects
/L {lineto stroke} bdef
/MP {3 1 roll moveto 1 sub {rlineto} repeat} bdef
/AP {{rlineto} repeat} bdef
/PDlw -1 def
/W {/PDlw currentlinewidth def setlinewidth} def
/PP {closepath eofill} bdef
/DP {closepath stroke} bdef
/MR {4 -2 roll moveto dup  0 exch rlineto exch 0 rlineto
  neg 0 exch rlineto closepath} bdef
/FR {MR stroke} bdef
/PR {MR fill} bdef
/L1i {{currentfile picstr readhexstring pop} image} bdef
/tMatrix matrix def
/MakeOval {newpath tMatrix currentmatrix pop translate scale
0 0 1 0 360 arc tMatrix setmatrix} bdef
/FO {MakeOval stroke} bdef
/PO {MakeOval fill} bdef
/PD {currentlinewidth 2 div 0 360 arc fill
   PDlw -1 eq not {PDlw w /PDlw -1 def} if} def
/FA {newpath tMatrix currentmatrix pop translate scale
  0 0 1 5 -2 roll arc tMatrix setmatrix stroke} bdef
/PA {newpath tMatrix currentmatrix pop	translate 0 0 moveto scale
  0 0 1 5 -2 roll arc closepath tMatrix setmatrix fill} bdef
/FAn {newpath tMatrix currentmatrix pop translate scale
  0 0 1 5 -2 roll arcn tMatrix setmatrix stroke} bdef
/PAn {newpath tMatrix currentmatrix pop translate 0 0 moveto scale
  0 0 1 5 -2 roll arcn closepath tMatrix setmatrix fill} bdef
/vradius 0 def /hradius 0 def /lry 0 def
/lrx 0 def /uly 0 def /ulx 0 def /rad 0 def
/MRR {/vradius xdef /hradius xdef /lry xdef /lrx xdef /uly xdef
  /ulx xdef newpath tMatrix currentmatrix pop ulx hradius add uly
  vradius add translate hradius vradius scale 0 0 1 180 270 arc 
  tMatrix setmatrix lrx hradius sub uly vradius add translate
  hradius vradius scale 0 0 1 270 360 arc tMatrix setmatrix
  lrx hradius sub lry vradius sub translate hradius vradius scale
  0 0 1 0 90 arc tMatrix setmatrix ulx hradius add lry vradius sub
  translate hradius vradius scale 0 0 1 90 180 arc tMatrix setmatrix
  closepath} bdef
/FRR {MRR stroke } bdef
/PRR {MRR fill } bdef
/MlrRR {/lry xdef /lrx xdef /uly xdef /ulx xdef /rad lry uly sub 2 div def
  newpath tMatrix currentmatrix pop ulx rad add uly rad add translate
  rad rad scale 0 0 1 90 270 arc tMatrix setmatrix lrx rad sub lry rad
  sub translate rad rad scale 0 0 1 270 90 arc tMatrix setmatrix
  closepath} bdef
/FlrRR {MlrRR stroke } bdef
/PlrRR {MlrRR fill } bdef
/MtbRR {/lry xdef /lrx xdef /uly xdef /ulx xdef /rad lrx ulx sub 2 div def
  newpath tMatrix currentmatrix pop ulx rad add uly rad add translate
  rad rad scale 0 0 1 180 360 arc tMatrix setmatrix lrx rad sub lry rad
  sub translate rad rad scale 0 0 1 0 180 arc tMatrix setmatrix
  closepath} bdef
/FtbRR {MtbRR stroke } bdef
/PtbRR {MtbRR fill } bdef
/stri 6 array def /dtri 6 array def
/smat 6 array def /dmat 6 array def
/tmat1 6 array def /tmat2 6 array def /dif 3 array def
/asub {/ind2 exch def /ind1 exch def dup dup
  ind1 get exch ind2 get sub exch } bdef
/tri_to_matrix {
  2 0 asub 3 1 asub 4 0 asub 5 1 asub
  dup 0 get exch 1 get 7 -1 roll astore } bdef
/compute_transform {
  dmat dtri tri_to_matrix tmat1 invertmatrix 
  smat stri tri_to_matrix tmat2 concatmatrix } bdef
/ds {stri astore pop} bdef
/dt {dtri astore pop} bdef
/db {2 copy /cols xdef /rows xdef mul dup 3 mul string
  currentfile 
  3 index 0 eq {/ASCIIHexDecode filter}
  {/ASCII85Decode filter 3 index 2 eq {/RunLengthDecode filter} if }
  ifelse exch readstring pop
  dup 0 3 index getinterval /rbmap xdef
  dup 2 index dup getinterval /gbmap xdef
  1 index dup 2 mul exch getinterval /bbmap xdef pop pop}bdef
/it {gs np dtri aload pop moveto lineto lineto cp c
  cols rows 8 compute_transform 
  rbmap gbmap bbmap true 3 colorimage gr}bdef
/il {newpath moveto lineto stroke}bdef
currentdict end def
%%EndProlog

%%BeginSetup
MathWorks begin

0 cap

end
%%EndSetup

%%Page: 1 1
%%BeginPageSetup
%%PageBoundingBox:    15   147   594   644
MathWorks begin
bpage
%%EndPageSetup

%%BeginObject: obj1
bplot

/dpi2point 12 def
portraitMode 0180 7728 csm

    0     0  6956  5958 rc
85 dict begin %Colortable dictionary
/c0 { 0.000000 0.000000 0.000000 sr} bdef
/c1 { 1.000000 1.000000 1.000000 sr} bdef
/c2 { 0.900000 0.000000 0.000000 sr} bdef
/c3 { 0.000000 0.820000 0.000000 sr} bdef
/c4 { 0.000000 0.000000 0.800000 sr} bdef
/c5 { 0.910000 0.820000 0.320000 sr} bdef
/c6 { 1.000000 0.260000 0.820000 sr} bdef
/c7 { 0.000000 0.820000 0.820000 sr} bdef
c0
1 j
1 sg
   0    0 6957 5959 rf
6 w
0 4856 -5391 0 0 -4856 6295 5303 4 MP
PP
5391 0 0 4856 -5391 0 0 -4856 6295 5303 5 MP stroke
4 w
DO
SO
6 w
0 sg
6295  447 mt  904  447 L
6295 5303 mt  904 5303 L
 904 5303 mt  904  447 L
6295 5303 mt 6295  447 L
6295 5303 mt  904 5303 L
 904 5303 mt  904  447 L
6295 5303 mt 6295 5249 L
6295  447 mt 6295  500 L
%%IncludeResource: font Helvetica
/Helvetica /WindowsLatin1Encoding 192 FMSR

6162 5515 mt 
(8.5) s
5696 5303 mt 5696 5249 L
5696  447 mt 5696  500 L
5643 5515 mt 
(8) s
5097 5303 mt 5097 5249 L
5097  447 mt 5097  500 L
4964 5515 mt 
(7.5) s
4498 5303 mt 4498 5249 L
4498  447 mt 4498  500 L
4445 5515 mt 
(7) s
3899 5303 mt 3899 5249 L
3899  447 mt 3899  500 L
3766 5515 mt 
(6.5) s
3300 5303 mt 3300 5249 L
3300  447 mt 3300  500 L
3247 5515 mt 
(6) s
2701 5303 mt 2701 5249 L
2701  447 mt 2701  500 L
2568 5515 mt 
(5.5) s
2102 5303 mt 2102 5249 L
2102  447 mt 2102  500 L
2049 5515 mt 
(5) s
1503 5303 mt 1503 5249 L
1503  447 mt 1503  500 L
1370 5515 mt 
(4.5) s
 904 5303 mt  904 5249 L
 904  447 mt  904  500 L
 851 5515 mt 
(4) s
 904 5303 mt  957 5303 L
6295 5303 mt 6241 5303 L
 490 5374 mt 
(-0.5) s
 904 4331 mt  957 4331 L
6295 4331 mt 6241 4331 L
 763 4402 mt 
(0) s
 904 3360 mt  957 3360 L
6295 3360 mt 6241 3360 L
 603 3431 mt 
(0.5) s
 904 2389 mt  957 2389 L
6295 2389 mt 6241 2389 L
 763 2460 mt 
(1) s
 904 1418 mt  957 1418 L
6295 1418 mt 6241 1418 L
 603 1489 mt 
(1.5) s
 904  447 mt  957  447 L
6295  447 mt 6241  447 L
 763  518 mt 
(2) s
6295  447 mt  904  447 L
6295 5303 mt  904 5303 L
 904 5303 mt  904  447 L
6295 5303 mt 6295  447 L
gs 904 447 5392 4857 rc
DA
18 w
/c8 { 0.000000 0.000000 1.000000 sr} bdef
c8
-1 0 -1 0 -1 0 -1 0 -1 0 -1 0 -1 0 -1 0 
-1 0 -1 0 -1 0 -1 0 -1 0 -1 0 -1 0 -1 0 
-1 0 -1 0 -1 0 -1 0 -1 0 -1 0 -1 0 -1 0 
-1 0 -1 0 -1 0 -1 0 -1 0 -1 0 -1 0 -1 0 
-1 0 -1 0 -1 0 -1 0 -1 0 -1 0 -1 0 -1 0 
-1 0 -1 0 -1 0 -1 0 -1 0 -1 0 -1 0 -1 0 
-1 0 -1 0 -1 0 -1 0 -1 0 -1 0 -1 0 -1 0 
-1 0 -1 0 -1 0 -1 0 -1 0 -1 0 -1 0 -1 0 
-1 0 -1 0 -1 0 -1 0 -1 0 -1 0 -1 0 -1 0 
-1 0 -1 0 -1 0 -1 0 -1 0 -1 0 -1 0 -1 0 
-1 0 -1 0 -1 0 -1 0 -1 0 -1 0 -1 0 -1 0 
-1 0 -1 0 -1 0 -1 0 -1 0 -1 0 -1 0 -1 0 
-1 0 -1 0 -1 0 -1 0 -1 0 -1 0 -1 0 -1 0 
-1 0 -1 0 -1 0 -1 0 -1 0 -1 0 -1 0 -1 0 
-1 0 -1 0 -1 0 -1 0 -1 0 -1 0 -1 0 -1 0 
-1 0 -1 0 -1 0 -1 0 -1 0 -1 0 -1 0 -1 0 
-1 0 -1 0 -1 0 -1 0 -1 0 -1 0 -1 0 -1 0 
-1 0 -1 0 -1 0 -1 0 -1 0 -1 0 -1 0 -1 0 
-1 0 -1 0 -1 0 -1 0 -1 0 -1 0 -1 0 -1 0 
-1 0 -1 0 -1 0 -1 0 -1 0 -1 0 -1 0 -1 0 
-1 0 -1 0 -1 0 -1 0 -1 0 -1 0 -1 0 -1 0 
-1 0 -1 0 -1 0 -1 0 -1 0 -1 0 -1 0 -1 0 
-1 0 -1 0 -1 0 -1 0 -1 0 -1 0 -1 0 -1 0 
-1 0 -1 0 -1 0 -1 0 -1 0 -1 0 -1 0 -1 0 
-1 0 -1 0 -1 0 -1 0 -1 0 -1 0 -1 0 -1 0 
-1 0 -1 0 -1 0 -1 0 -1 0 -1 0 -1 0 -1 0 
-1 0 -1 0 -1 0 -1 0 -1 0 -1 0 -1 0 -1 0 
-1 0 -1 0 -1 0 -1 0 -1 0 -1 0 -1 0 -1 0 
-1 0 -1 0 -1 0 -1 0 -1 0 -1 0 -1 0 -1 0 
-1 0 -1 0 -1 0 -1 0 -1 0 -1 0 -1 0 -1 0 
-1 0 -1 0 -1 0 -1 0 -1 0 -1 0 -1 0 -1 0 
-1 0 -1 0 -1 0 -1 0 -1 0 -1 0 -1 0 -1 0 
-1 0 -1 0 -1 0 -1 0 -1 0 -1 0 -1 0 -1 0 
-1 0 -1 0 -1 0 -1 0 -1 0 -1 0 -1 0 -1 0 
-1 0 -1 0 -1 0 -1 0 -1 0 -1 0 -1 0 -1 0 
-1 0 -1 0 -1 0 -1 0 -1 0 -1 0 -1 0 -1 0 
-1 0 -1 0 -1 0 -1 0 -1 0 -1 0 -1 0 -1 0 
-1 0 -1 0 -1 0 1203 4331 300 MP stroke
-1 0 -1 0 -1 0 -1 0 -1 0 -1 0 -1 0 -1 0 
-1 0 -1 0 -1 0 -1 0 -1 0 -1 0 -1 0 -1 0 
-1 0 -1 0 -1 0 -1 0 -1 0 -1 0 -1 0 -1 0 
-1 0 -1 0 -1 0 -1 0 -1 0 -1 0 -1 0 -1 0 
-1 0 -1 0 -1 0 -1 0 -1 0 -1 0 -1 0 -1 0 
-1 0 -1 0 -1 0 -1 0 -1 0 -1 0 -1 0 -1 0 
-1 0 -1 0 -1 0 -1 0 -1 0 -1 0 -1 0 -1 0 
-1 0 -1 0 -1 0 -1 0 -1 0 -1 0 -1 0 -1 0 
-1 0 -1 0 -1 0 -1 0 -1 0 -1 0 -1 0 -1 0 
-1 0 -1 0 -1 0 -1 0 -1 0 -1 0 -1 0 -1 0 
-1 0 -1 0 -1 0 -1 0 -1 0 -1 0 -1 0 -1 0 
-1 0 -1 0 -1 0 -1 0 -1 0 -1 0 -1 0 -1 0 
-1 0 -1 0 -1 0 -1 0 -1 0 -1 0 -1 0 -1 0 
-1 0 -1 0 -1 0 -1 0 -1 0 -1 0 -1 0 -1 0 
-1 0 -1 0 -1 0 -1 0 -1 0 -1 0 -1 0 -1 0 
-1 0 -1 0 -1 0 -1 0 -1 0 -1 0 -1 0 -1 0 
-1 0 -1 0 -1 0 -1 0 -1 0 -1 0 -1 0 -1 0 
-1 0 -1 0 -1 0 -1 0 -1 0 -1 0 -1 0 -1 0 
-1 0 -1 0 -1 0 -1 0 -1 0 -1 0 -1 0 -1 0 
-1 0 -1 0 -1 0 -1 0 -1 0 -1 0 -1 0 -1 0 
-1 0 -1 0 -1 0 -1 0 -1 0 -1 0 -1 0 -1 0 
-1 0 -1 0 -1 0 -1 0 -1 0 -1 0 -1 0 -1 0 
-1 0 -1 0 -1 0 -1 0 -1 0 -1 0 -1 0 -1 0 
-1 0 -1 0 -1 0 -1 0 -1 0 -1 0 -1 0 -1 0 
-1 0 -1 0 -1 0 -1 0 -1 0 -1 0 -1 0 -1 0 
-1 0 -1 0 -1 0 -1 0 -1 0 -1 0 -1 0 -1 0 
-1 0 -1 0 -1 0 -1 0 -1 0 -1 0 -1 0 -1 0 
-1 0 -1 0 -1 0 -1 0 -1 0 -1 0 -1 0 -1 0 
-1 0 -1 0 -1 0 -1 0 -1 0 -1 0 -1 0 -1 0 
-1 0 -1 0 -1 0 -1 0 -1 0 -1 0 -1 0 -1 0 
-1 0 -1 0 -1 0 -1 0 -1 0 -1 0 -1 0 -1 0 
-1 0 -1 0 -1 0 -1 0 -1 0 -1 0 -1 0 -1 0 
-1 0 -1 0 -1 0 -1 0 -1 0 -1 0 -1 0 -1 0 
-1 0 -1 0 -1 0 -1 0 -1 0 -1 0 -1 0 -1 0 
-1 0 -1 0 -1 0 -1 0 -1 0 -1 0 -1 0 -1 0 
-1 0 -1 0 -1 0 -1 0 -1 0 -1 0 -1 0 -1 0 
-1 0 -1 0 -1 0 -1 0 -1 0 -1 0 -1 0 -1 0 
-1 0 -1 0 -1 0 1502 4331 300 MP stroke
-1 0 -1 0 -1 0 -1 0 -1 0 -1 0 -1 0 -1 0 
-1 0 -1 0 -1 0 -1 0 -1 0 -1 0 -1 0 -1 0 
-1 0 -1 0 -1 0 -1 0 -1 0 -1 0 -1 0 -1 0 
-1 0 -1 0 -1 0 -1 0 -1 0 -1 0 -1 0 -1 0 
-1 0 -1 0 -1 0 -1 0 -1 0 -1 0 -1 0 -1 0 
-1 0 -1 0 -1 0 -1 0 -1 0 -1 0 -1 0 -1 0 
-1 0 -1 0 -1 0 -1 0 -1 0 -1 0 -1 0 -1 0 
-1 0 -1 0 -1 0 -1 0 -1 0 -1 0 -1 0 -1 0 
-1 0 -1 0 -1 0 -1 0 -1 0 -1 0 -1 0 -1 0 
-1 0 -1 0 -1 0 -1 0 -1 0 -1 0 -1 0 -1 0 
-1 0 -1 0 -1 0 -1 0 -1 0 -1 0 -1 0 -1 0 
-1 0 -1 0 -1 0 -1 0 -1 0 -1 0 -1 0 -1 0 
-1 0 -1 0 -1 0 -1 0 -1 0 -1 0 -1 0 -1 0 
-1 0 -1 0 -1 0 -1 0 -1 0 -1 0 -1 0 -1 0 
-1 0 -1 0 -1 0 -1 0 -1 0 -1 0 -1 0 -1 0 
-1 0 -1 0 -1 0 -1 0 -1 0 -1 0 -1 0 -1 0 
-1 0 -1 0 -1 0 -1 0 -1 0 -1 0 -1 0 -1 0 
-1 0 -1 0 -1 0 -1 0 -1 0 -1 0 -1 0 -1 0 
-1 0 -1 0 -1 0 -1 0 -1 0 -1 0 -1 0 -1 0 
-1 0 -1 0 -1 0 -1 0 -1 0 -1 0 -1 0 -1 0 
-1 0 -1 0 -1 0 -1 0 -1 0 -1 0 -1 0 -1 0 
-1 0 -1 0 -1 0 -1 0 -1 0 -1 0 -1 0 -1 0 
-1 0 -1 0 -1 0 -1 0 -1 0 -1 0 -1 0 -1 0 
-1 0 -1 0 -1 0 -1 0 -1 0 -1 0 -1 0 -1 0 
-1 0 -1 0 -1 0 -1 0 -1 0 -1 0 -1 0 -1 0 
-1 0 -1 0 -1 0 -1 0 -1 0 -1 0 -1 0 -1 0 
-1 0 -1 0 -1 0 -1 0 -1 0 -1 0 -1 0 -1 0 
-1 0 -1 0 -1 0 -1 0 -1 0 -1 0 -1 0 -1 0 
-1 0 -1 0 -1 0 -1 0 -1 0 -1 0 -1 0 -1 0 
-1 0 -1 0 -1 0 -1 0 -1 0 -1 0 -1 0 -1 0 
-1 0 -1 0 -1 0 -1 0 -1 0 -1 0 -1 0 -1 0 
-1 0 -1 0 -1 0 -1 0 -1 0 -1 0 -1 0 -1 0 
-1 0 -1 0 -1 0 -1 0 -1 0 -1 0 -1 0 -1 0 
-1 0 -1 0 -1 0 -1 0 -1 0 -1 0 -1 0 -1 0 
-1 0 -1 0 -1 0 -1 0 -1 0 -1 0 -1 0 -1 0 
-1 0 -1 0 -1 0 -1 0 -1 0 -1 0 -1 0 -1 0 
-1 0 -1 0 -1 0 -1 0 -1 0 -1 0 -1 0 -1 0 
-1 0 -1 0 -1 0 1801 4331 300 MP stroke
-1 0 -1 0 -1 0 -1 0 -1 0 -1 0 -1 0 -1 0 
-1 0 -1 0 -1 0 -1 0 -1 0 -1 0 -1 0 -1 0 
-1 0 -1 0 -1 0 -1 0 -1 0 -1 0 -1 0 -1 0 
-1 0 -1 0 -1 0 -1 0 -1 0 -1 0 -1 0 -1 0 
-1 0 -1 0 -1 0 -1 0 -1 0 -1 0 -1 0 -1 0 
-1 0 -1 0 -1 0 -1 0 -1 0 -1 0 -1 0 -1 0 
-1 0 -1 0 -1 0 -1 0 -1 0 -1 0 -1 0 -1 0 
-1 0 -1 0 -1 0 -1 0 -1 0 -1 0 -1 0 -1 0 
-1 0 -1 0 -1 0 -1 0 -1 0 -1 0 -1 0 -1 0 
-1 0 -1 0 -1 0 -1 0 -1 0 -1 0 -1 0 -1 0 
-1 0 -1 0 -1 0 -1 0 -1 0 -1 0 -1 0 -1 0 
-1 0 -1 0 -1 0 -1 0 -1 0 -1 0 -1 0 -1 0 
-1 0 -1 0 -1 0 -1 0 -1 0 -1 0 -1 0 -1 0 
-1 0 -1 0 -1 0 -1 0 -1 0 -1 0 -1 0 -1 0 
-1 0 -1 0 -1 0 -1 0 -1 0 -1 0 -1 0 -1 0 
-1 0 -1 0 -1 0 -1 0 -1 0 -1 0 -1 0 -1 0 
-1 0 -1 0 -1 0 -1 0 -1 0 -1 0 -1 0 -1 0 
-1 0 -1 0 -1 0 -1 0 -1 0 -1 0 -1 0 -1 0 
-1 0 -1 0 -1 0 -1 0 -1 0 -1 0 -1 0 -1 0 
-1 0 -1 0 -1 0 -1 0 -1 0 -1 0 -1 0 -1 0 
-1 0 -1 0 -1 0 -1 0 -1 0 -1 0 -1 0 -1 0 
-1 0 -1 0 -1 0 -1 0 -1 0 -1 0 -1 0 -1 0 
-1 0 -1 0 -1 0 -1 0 -1 0 -1 0 -1 0 -1 0 
-1 0 -1 0 -1 0 -1 0 -1 0 -1 0 -1 0 -1 0 
-1 0 -1 0 -1 0 -1 0 -1 0 -1 0 -1 0 -1 0 
-1 0 -1 0 -1 0 -1 0 -1 0 -1 0 -1 0 -1 0 
-1 0 -1 0 -1 0 -1 0 -1 0 -1 0 -1 0 -1 0 
-1 0 -1 0 -1 0 -1 0 -1 0 -1 0 -1 0 -1 0 
-1 0 -1 0 -1 0 -1 0 -1 0 -1 0 -1 0 -1 0 
-1 0 -1 0 -1 0 -1 0 -1 0 -1 0 -1 0 -1 0 
-1 0 -1 0 -1 0 -1 0 -1 0 -1 0 -1 0 -1 0 
-1 0 -1 0 -1 0 -1 0 -1 0 -1 0 -1 0 -1 0 
-1 0 -1 0 -1 0 -1 0 -1 0 -1 0 -1 0 -1 0 
-1 0 -1 0 -1 0 -1 0 -1 0 -1 0 -1 0 -1 0 
-1 0 -1 0 -1 0 -1 0 -1 0 -1 0 -1 0 -1 0 
-1 0 -1 0 -1 0 -1 0 -1 0 -1 0 -1 0 -1 0 
-1 0 -1 0 -1 0 -1 0 -1 0 -1 0 -1 0 -1 0 
-1 0 -1 0 -1 0 2100 4331 300 MP stroke
-1 0 -1 0 -1 0 -1 0 -1 0 -1 0 -1 0 -1 0 
-1 0 -1 0 -1 0 -1 0 -1 0 -1 0 -1 0 -1 0 
-1 0 -1 0 -1 0 -1 0 -1 0 -1 0 -1 0 -1 0 
-1 0 -1 0 -1 0 -1 0 -1 0 -1 0 -1 0 -1 0 
-1 0 -1 0 -1 0 -1 0 -1 0 -1 0 -1 0 -1 0 
-1 0 -1 0 -1 0 -1 0 -1 0 -1 0 -1 0 -1 0 
-1 0 -1 0 -1 0 -1 0 -1 0 -1 0 -1 0 -1 0 
-1 0 -1 0 -1 0 -1 0 -1 0 -1 0 -1 0 -1 0 
-1 0 -1 0 -1 0 -1 0 -1 0 -1 0 -1 0 -1 0 
-1 0 -1 0 -1 0 -1 0 -1 0 -1 0 -1 0 -1 0 
-1 0 -1 0 -1 0 -1 0 -1 0 -1 0 -1 0 -1 0 
-1 0 -1 0 -1 0 -1 0 -1 0 -1 0 -1 0 -1 0 
-1 0 -1 0 -1 0 -1 0 -1 0 -1 0 -1 0 -1 0 
-1 0 -1 0 -1 0 -1 0 -1 0 -1 0 -1 0 -1 0 
-1 0 -1 0 -1 0 -1 0 -1 0 -1 0 -1 0 -1 0 
-1 0 -1 0 -1 0 -1 0 -1 0 -1 0 -1 0 -1 0 
-1 0 -1 0 -1 0 -1 0 -1 0 -1 0 -1 0 -1 0 
-1 0 -1 0 -1 0 -1 0 -1 0 -1 0 -1 0 -1 0 
-1 0 -1 0 -1 0 -1 0 -1 0 -1 0 -1 0 -1 0 
-1 0 -1 0 -1 0 -1 0 -1 0 -1 0 -1 0 -1 0 
-1 0 -1 0 -1 0 -1 0 -1 0 -1 0 -1 0 -1 0 
-1 0 -1 0 -1 0 -1 0 -1 0 -1 0 -1 0 -1 0 
-1 0 -1 0 -1 0 -1 0 -1 0 -1 0 -1 0 -1 0 
-1 0 -1 0 -1 0 -1 0 -1 0 -1 0 -1 0 -1 0 
-1 0 -1 0 -1 0 -1 0 -1 0 -1 0 -1 0 -1 0 
-1 0 -1 0 -1 0 -1 0 -1 0 -1 0 -1 0 -1 0 
-1 0 -1 0 -1 0 -1 0 -1 0 -1 0 -1 0 -1 0 
-1 0 -1 0 -1 0 -1 0 -1 0 -1 0 -1 0 -1 0 
-1 0 -1 0 -1 0 -1 0 -1 0 -1 0 -1 0 -1 0 
-1 0 -1 0 -1 0 -1 0 -1 0 -1 0 -1 0 -1 0 
-1 0 -1 0 -1 0 -1 0 -1 0 -1 0 -1 0 -1 0 
-1 0 -1 0 -1 0 -1 0 -1 0 -1 0 -1 0 -1 0 
-1 0 -1 0 -1 0 -1 0 -1 0 -1 0 -1 0 -1 0 
-1 0 -1 0 -1 0 -1 0 -1 0 -1 0 -1 0 -1 0 
-1 0 -1 0 -1 0 -1 0 -1 0 -1 0 -1 0 -1 0 
-1 0 -1 0 -1 0 -1 0 -1 0 -1 0 -1 0 -1 0 
-1 0 -1 0 -1 0 -1 0 -1 0 -1 0 -1 0 -1 0 
-1 0 -1 0 -1 0 2399 4331 300 MP stroke
-1 0 -1 0 -1 0 -1 0 -1 0 -1 0 -1 0 -1 0 
-1 0 -1 0 -1 0 -1 0 -1 0 -1 0 -1 0 -1 0 
-1 0 -1 0 -1 0 -1 0 -1 0 -1 0 -1 0 -1 0 
-1 0 -1 0 -1 0 -1 0 -1 0 -1 0 -1 0 -1 0 
-1 0 -1 0 -1 0 -1 0 -1 0 -1 0 -1 0 -1 0 
-1 0 -1 0 -1 0 -1 0 -1 0 -1 0 -1 0 -1 0 
-1 0 -1 0 -1 0 -1 0 -1 0 -1 0 -1 0 -1 0 
-1 0 -1 0 -1 0 -1 0 -1 0 -1 0 -1 0 -1 0 
-1 0 -1 0 -1 0 -1 0 -1 0 -1 0 -1 0 -1 0 
-1 0 -1 0 -1 0 -1 0 -1 0 -1 0 -1 0 -1 0 
-1 0 -1 0 -1 0 -1 0 -1 0 -1 0 -1 0 -1 0 
-1 0 -1 0 -1 0 -1 0 -1 0 -1 0 -1 0 -1 0 
-1 0 -1 0 -1 0 -1 0 -1 0 -1 0 -1 0 -1 0 
-1 0 -1 0 -1 0 -1 0 -1 0 -1 0 -1 0 -1 0 
-1 0 -1 0 -1 0 -1 0 -1 0 -1 0 -1 0 -1 0 
-1 0 -1 0 -1 0 -1 0 -1 0 -1 0 -1 0 -1 0 
-1 0 -1 0 -1 0 -1 0 -1 0 -1 0 -1 0 -1 0 
-1 0 -1 0 -1 0 -1 0 -1 0 -1 0 -1 0 -1 0 
-1 0 -1 0 -1 0 -1 0 -1 0 -1 0 -1 0 -1 0 
-1 0 -1 0 -1 0 -1 0 -1 0 -1 0 -1 0 -1 0 
-1 0 -1 0 -1 0 -1 0 -1 0 -1 0 -1 0 -1 0 
-1 0 -1 0 -1 0 -1 0 -1 0 -1 0 -1 0 -1 0 
-1 0 -1 0 -1 0 -1 0 -1 0 -1 0 -1 0 -1 0 
-1 0 -1 0 -1 0 -1 0 -1 0 -1 0 -1 0 -1 0 
-1 0 -1 0 -1 0 -1 0 -1 0 -1 0 -1 0 -1 0 
-1 0 -1 0 -1 0 -1 0 -1 0 -1 0 -1 0 -1 0 
-1 0 -1 0 -1 0 -1 0 -1 0 -1 0 -1 0 -1 0 
-1 0 -1 0 -1 0 -1 0 -1 0 -1 0 -1 0 -1 0 
-1 0 -1 0 -1 0 -1 0 -1 0 -1 0 -1 0 -1 0 
-1 0 -1 0 -1 0 -1 0 -1 0 -1 0 -1 0 -1 0 
-1 0 -1 0 -1 0 -1 0 -1 0 -1 0 -1 0 -1 0 
-1 0 -1 0 -1 0 -1 0 -1 0 -1 0 -1 0 -1 0 
-1 0 -1 0 -1 0 -1 0 -1 0 -1 0 -1 0 -1 0 
-1 0 -1 0 -1 0 -1 0 -1 0 -1 0 -1 0 -1 0 
-1 0 -1 0 -1 0 -1 0 -1 0 -1 0 -1 0 -1 0 
-1 0 -1 0 -1 0 -1 0 -1 0 -1 0 -1 0 -1 0 
-1 0 -1 0 -1 0 -1 0 -1 0 -1 0 -1 0 -1 0 
-1 0 -1 0 -1 0 2698 4331 300 MP stroke
-1 0 -1 0 -1 0 -1 0 -1 0 -1 0 -1 0 -1 0 
-1 0 -1 0 -1 0 -1 0 -1 0 -1 0 -1 0 -1 0 
-1 0 -1 0 -1 0 -1 0 -1 0 -1 0 -1 0 -1 0 
-1 0 -1 0 -1 0 -1 0 -1 0 -1 0 -1 0 -1 0 
-1 0 -1 0 -1 0 -1 0 -1 0 -1 0 -1 0 -1 0 
-1 0 -1 0 -1 0 -1 0 -1 0 -1 0 -1 0 -1 0 
-1 0 -1 0 -1 0 -1 0 -1 0 -1 0 -1 0 -1 0 
-1 0 -1 0 -1 0 -1 0 -1 0 -1 0 -1 0 -1 0 
-1 0 -1 0 -1 0 -1 0 -1 0 -1 0 -1 0 -1 0 
-1 0 -1 0 -1 0 -1 0 -1 0 -1 0 -1 0 -1 0 
-1 0 -1 0 -1 0 -1 0 -1 0 -1 0 -1 0 -1 0 
-1 0 -1 0 -1 0 -1 0 -1 0 -1 0 -1 0 -1 0 
-1 0 -1 0 -1 0 -1 0 -1 0 -1 0 -1 0 -1 0 
-1 0 -1 0 -1 0 -1 0 -1 0 -1 0 -1 0 -1 0 
-1 0 -1 0 -1 0 -1 0 -1 0 -1 0 -1 0 -1 0 
-1 0 -1 0 -1 0 -1 0 -1 0 -1 0 -1 0 -1 0 
-1 0 -1 0 -1 0 -1 0 -1 0 -1 0 -1 0 -1 0 
-1 0 -1 0 -1 0 -1 0 -1 0 -1 0 -1 0 -1 0 
-1 0 -1 0 -1 0 -1 0 -1 0 -1 0 -1 0 -1 0 
-1 0 -1 0 -1 0 -1 0 -1 0 -1 0 -1 0 -1 0 
-1 0 -1 0 -1 0 -1 0 -1 0 -1 0 -1 0 -1 0 
-1 0 -1 0 -1 0 -1 0 -1 0 -1 0 -1 0 -1 0 
-1 0 -1 0 -1 0 -1 0 -1 0 -1 0 -1 0 -1 0 
-1 0 -1 0 -1 0 -1 0 -1 0 -1 0 -1 0 -1 0 
-1 0 -1 0 -1 0 -1 0 -1 0 -1 0 -1 0 -1 0 
-1 0 -1 0 -1 0 -1 0 -1 0 -1 0 -1 0 -1 0 
-1 0 -1 0 -1 0 -1 0 -1 0 -1 0 -1 0 -1 0 
-1 0 -1 0 -1 0 -1 0 -1 0 -1 0 -1 0 -1 0 
-1 0 -1 0 -1 0 -1 0 -1 0 -1 0 -1 0 -1 0 
-1 0 -1 0 -1 0 -1 0 -1 1 -1 0 -1 0 -1 0 
-1 0 -1 0 -1 0 -1 0 -1 0 -1 0 -1 0 -1 0 
-1 0 -1 0 -1 0 -1 0 -1 0 -1 0 -1 0 -1 0 
-1 0 -1 0 -1 0 -1 0 -1 0 -1 0 -1 0 -1 0 
-1 0 -1 0 -1 0 -1 0 -1 0 -1 0 -1 0 -1 0 
-1 0 -1 0 -1 0 -1 0 -1 0 -1 0 -1 0 -1 0 
-1 0 -1 0 -1 0 -1 0 -1 0 -1 0 -1 0 -1 0 
-1 0 -1 0 -1 0 -1 0 -1 0 -1 0 -1 0 -1 0 
-1 0 -1 0 -1 0 2997 4330 300 MP stroke
-1 0 -1 0 -1 0 -1 0 -1 0 -1 0 -1 0 -1 0 
-1 0 -1 0 -1 0 -1 0 -1 0 -1 0 -1 0 -1 0 
-1 0 -1 0 -1 0 -1 0 -1 0 -1 0 -1 0 -1 0 
-1 0 -1 0 -1 0 -1 0 -1 0 -1 0 -1 0 -1 0 
-1 0 -1 0 -1 0 -1 0 -1 0 -1 0 -1 0 -1 0 
-1 0 -1 0 -1 0 -1 0 -1 0 -1 0 -1 0 -1 0 
-1 0 -1 0 -1 0 -1 0 -1 0 -1 0 -1 0 -1 0 
-1 0 -1 0 -1 0 -1 0 -1 0 -1 0 -1 0 -1 0 
-1 0 -1 0 -1 0 -1 0 -1 0 -1 0 -1 0 -1 0 
-1 0 -1 0 -1 0 -1 0 -1 0 -1 0 -1 0 -1 0 
-1 0 -1 0 -1 0 -1 0 -1 0 -1 0 -1 0 -1 0 
-1 0 -1 0 -1 0 -1 0 -1 0 -1 0 -1 0 -1 0 
-1 0 -1 0 -1 0 -1 0 -1 0 -1 0 -1 0 -1 0 
-1 0 -1 0 -1 0 -1 0 -1 0 -1 0 -1 0 -1 0 
-1 0 -1 0 -1 0 -1 0 -1 0 -1 0 -1 0 -1 0 
-1 0 -1 0 -1 0 -1 0 -1 0 -1 0 -1 0 -1 0 
-1 0 -1 0 -1 0 -1 0 -1 0 -1 0 -1 0 -1 0 
-1 0 -1 0 -1 0 -1 0 -1 0 -1 0 -1 0 -1 0 
-1 0 -1 0 -1 0 -1 0 -1 0 -1 0 -1 0 -1 0 
-1 0 -1 0 -1 0 -1 0 -1 0 -1 0 -1 0 -1 0 
-1 0 -1 0 -1 0 -1 0 -1 0 -1 0 -1 0 -1 0 
-1 0 -1 0 -1 0 -1 0 -1 0 -1 0 -1 0 -1 0 
-1 0 -1 0 -1 0 -1 0 -1 0 -1 0 -1 0 -1 0 
-1 0 -1 0 -1 0 -1 0 -1 0 -1 0 -1 0 -1 0 
-1 0 -1 0 -1 0 -1 0 -1 0 -1 0 -1 0 -1 0 
-1 0 -1 0 -1 0 -1 0 -1 0 -1 0 -1 0 -1 0 
-1 0 -1 0 -1 0 -1 0 -1 0 -1 0 -1 0 -1 0 
-1 0 -1 0 -1 0 -1 0 -1 0 -1 0 -1 0 -1 0 
-1 0 -1 0 -1 0 -1 0 -1 0 -1 0 -1 0 -1 0 
-1 0 -1 0 -1 0 -1 0 -1 0 -1 0 -1 0 -1 0 
-1 0 -1 0 -1 0 -1 0 -1 0 -1 0 -1 0 -1 0 
-1 1 -1 0 -1 0 -1 0 -1 0 -1 0 -1 0 -1 0 
-1 0 -1 0 -1 0 -1 0 -1 0 -1 0 -1 0 -1 0 
-1 0 -1 0 -1 0 -1 0 -1 0 -1 0 -1 0 -1 0 
-1 0 -1 0 -1 0 -1 0 -1 0 -1 0 -1 0 -1 0 
-1 0 -1 0 -1 0 -1 0 -1 0 -1 0 -1 0 -1 0 
-1 0 -1 0 -1 0 -1 0 -1 0 -1 0 -1 0 -1 0 
-1 0 -1 0 -1 0 3296 4329 300 MP stroke
-1 0 -1 0 -1 0 -1 0 -1 0 -1 0 -1 0 -1 0 
-1 0 -1 0 -1 0 -1 0 -1 0 -1 0 -1 0 -1 0 
-1 0 -1 0 -1 0 -1 0 -1 0 -1 0 -1 0 -1 0 
-1 0 -1 0 -1 0 -1 0 -1 0 -1 0 -1 0 -1 0 
-1 0 -1 0 -1 0 -1 0 -1 0 -1 0 -1 0 -1 0 
-1 0 -1 0 -1 0 -1 0 -1 0 -1 0 -1 0 -1 0 
-1 0 -1 0 -1 0 -1 0 -1 0 -1 0 -1 0 -1 0 
-1 0 -1 0 -1 0 -1 0 -1 0 -1 0 -1 0 -1 0 
-1 0 -1 0 -1 0 -1 0 -1 0 -1 0 -1 0 -1 0 
-1 0 -1 0 -1 0 -1 0 -1 0 -1 0 -1 0 -1 0 
-1 0 -1 0 -1 0 -1 0 -1 0 -1 0 -1 0 -1 0 
-1 0 -1 0 -1 0 -1 0 -1 0 -1 0 -1 0 -1 0 
-1 0 -1 0 -1 0 -1 0 -1 0 -1 0 -1 0 -1 1 
-1 0 -1 0 -1 0 -1 0 -1 0 -1 0 -1 0 -1 0 
-1 0 -1 0 -1 0 -1 0 -1 0 -1 0 -1 0 -1 0 
-1 0 -1 0 -1 0 -1 0 -1 0 -1 0 -1 0 -1 0 
-1 0 -1 0 -1 0 -1 0 -1 0 -1 0 -1 0 -1 0 
-1 0 -1 0 -1 0 -1 0 -1 0 -1 0 -1 0 -1 0 
-1 0 -1 0 -1 0 -1 0 -1 0 -1 0 -1 0 -1 0 
-1 0 -1 0 -1 0 -1 0 -1 0 -1 0 -1 0 -1 0 
-1 0 -1 0 -1 0 -1 0 -1 0 -1 0 -1 0 -1 0 
-1 0 -1 0 -1 0 -1 0 -1 0 -1 0 -1 0 -1 0 
-1 0 -1 0 -1 0 -1 0 -1 0 -1 0 -1 0 -1 0 
-1 0 -1 0 -1 0 -1 0 -1 0 -1 0 -1 0 -1 0 
-1 0 -1 0 -1 0 -1 0 -1 0 -1 0 -1 0 -1 0 
-1 0 -1 0 -1 0 -1 0 -1 0 -1 1 -1 0 -1 0 
-1 0 -1 0 -1 0 -1 0 -1 0 -1 0 -1 0 -1 0 
-1 0 -1 0 -1 0 -1 0 -1 0 -1 0 -1 0 -1 0 
-1 0 -1 0 -1 0 -1 0 -1 0 -1 0 -1 0 -1 0 
-1 0 -1 0 -1 0 -1 0 -1 0 -1 0 -1 0 -1 0 
-1 0 -1 0 -1 0 -1 0 -1 0 -1 0 -1 0 -1 0 
-1 0 -1 0 -1 0 -1 0 -1 0 -1 0 -1 0 -1 0 
-1 0 -1 0 -1 0 -1 0 -1 0 -1 0 -1 0 -1 0 
-1 0 -1 0 -1 0 -1 0 -1 0 -1 0 -1 0 -1 0 
-1 0 -1 0 -1 0 -1 0 -1 0 -1 0 -1 0 -1 0 
-1 0 -1 0 -1 0 -1 1 -1 0 -1 0 -1 0 -1 0 
-1 0 -1 0 -1 0 -1 0 -1 0 -1 0 -1 0 -1 0 
-1 0 -1 0 -1 0 3595 4326 300 MP stroke
-1 0 -1 0 -1 0 -1 0 -1 0 -1 0 -1 0 -1 0 
-1 0 -1 0 -1 0 -1 0 -1 0 -1 0 -1 0 -1 0 
-1 0 -1 0 -1 0 -1 0 -1 0 -1 0 -1 0 -1 0 
-1 0 -1 0 -1 0 -1 0 -1 0 -1 0 -1 0 -1 0 
-1 0 -1 0 -1 0 -1 0 -1 0 -1 0 -1 0 -1 0 
-1 0 -1 0 -1 0 -1 0 -1 0 -1 0 -1 1 -1 0 
-1 0 -1 0 -1 0 -1 0 -1 0 -1 0 -1 0 -1 0 
-1 0 -1 0 -1 0 -1 0 -1 0 -1 0 -1 0 -1 0 
-1 0 -1 0 -1 0 -1 0 -1 0 -1 0 -1 0 -1 0 
-1 0 -1 0 -1 0 -1 0 -1 0 -1 0 -1 0 -1 0 
-1 0 -1 0 -1 0 -1 0 -1 0 -1 0 -1 0 -1 0 
-1 0 -1 0 -1 0 -1 0 -1 0 -1 0 -1 0 -1 0 
-1 0 -1 0 -1 1 -1 0 -1 0 -1 0 -1 0 -1 0 
-1 0 -1 0 -1 0 -1 0 -1 0 -1 0 -1 0 -1 0 
-1 0 -1 0 -1 0 -1 0 -1 0 -1 0 -1 0 -1 0 
-1 0 -1 0 -1 0 -1 0 -1 0 -1 0 -1 0 -1 0 
-1 0 -1 0 -1 0 -1 0 -1 0 -1 0 -1 0 -1 0 
-1 0 -1 0 -1 0 -1 0 -1 0 -1 0 -1 0 -1 1 
-1 0 -1 0 -1 0 -1 0 -1 0 -1 0 -1 0 -1 0 
-1 0 -1 0 -1 0 -1 0 -1 0 -1 0 -1 0 -1 0 
-1 0 -1 0 -1 0 -1 0 -1 0 -1 0 -1 0 -1 0 
-1 0 -1 0 -1 0 -1 0 -1 0 -1 0 -1 0 -1 0 
-1 0 -1 0 -1 0 -1 0 -1 0 -1 0 -1 1 -1 0 
-1 0 -1 0 -1 0 -1 0 -1 0 -1 0 -1 0 -1 0 
-1 0 -1 0 -1 0 -1 0 -1 0 -1 0 -1 0 -1 0 
-1 0 -1 0 -1 0 -1 0 -1 0 -1 0 -1 0 -1 0 
-1 0 -1 0 -1 0 -1 0 -1 0 -1 0 -1 0 -1 0 
-1 0 -1 0 -1 1 -1 0 -1 0 -1 0 -1 0 -1 0 
-1 0 -1 0 -1 0 -1 0 -1 0 -1 0 -1 0 -1 0 
-1 0 -1 0 -1 0 -1 0 -1 0 -1 0 -1 0 -1 0 
-1 0 -1 0 -1 0 -1 0 -1 0 -1 0 -1 0 -1 0 
-1 0 -1 0 -1 1 -1 0 -1 0 -1 0 -1 0 -1 0 
-1 0 -1 0 -1 0 -1 0 -1 0 -1 0 -1 0 -1 0 
-1 0 -1 0 -1 0 -1 0 -1 0 -1 0 -1 0 -1 0 
-1 0 -1 0 -1 0 -1 0 -1 0 -1 0 -1 0 -1 1 
-1 0 -1 0 -1 0 -1 0 -1 0 -1 0 -1 0 -1 0 
-1 0 -1 0 -1 0 -1 0 -1 0 -1 0 -1 0 -1 0 
-1 0 -1 0 -1 0 3894 4319 300 MP stroke
-1 0 -1 0 -1 0 -1 0 -1 0 -1 0 -1 0 -1 1 
-1 0 -1 0 -1 0 -1 0 -1 0 -1 0 -1 0 -1 0 
-1 0 -1 0 -1 0 -1 0 -1 0 -1 0 -1 0 -1 0 
-1 0 -1 0 -1 0 -1 0 -1 0 -1 0 -1 0 -1 0 
-1 1 -1 0 -1 0 -1 0 -1 0 -1 0 -1 0 -1 0 
-1 0 -1 0 -1 0 -1 0 -1 0 -1 0 -1 0 -1 0 
-1 0 -1 0 -1 0 -1 0 -1 0 -1 0 -1 0 -1 0 
-1 1 -1 0 -1 0 -1 0 -1 0 -1 0 -1 0 -1 0 
-1 0 -1 0 -1 0 -1 0 -1 0 -1 0 -1 0 -1 0 
-1 0 -1 0 -1 0 -1 0 -1 0 -1 1 -1 0 -1 0 
-1 0 -1 0 -1 0 -1 0 -1 0 -1 0 -1 0 -1 0 
-1 0 -1 0 -1 0 -1 0 -1 0 -1 0 -1 0 -1 0 
-1 0 -1 0 -1 1 -1 0 -1 0 -1 0 -1 0 -1 0 
-1 0 -1 0 -1 0 -1 0 -1 0 -1 0 -1 0 -1 0 
-1 0 -1 0 -1 0 -1 0 -1 0 -1 1 -1 0 -1 0 
-1 0 -1 0 -1 0 -1 0 -1 0 -1 0 -1 0 -1 0 
-1 0 -1 0 -1 0 -1 0 -1 0 -1 0 -1 0 -1 0 
-1 1 -1 0 -1 0 -1 0 -1 0 -1 0 -1 0 -1 0 
-1 0 -1 0 -1 0 -1 0 -1 0 -1 0 -1 0 -1 0 
-1 0 -1 1 -1 0 -1 0 -1 0 -1 0 -1 0 -1 0 
-1 0 -1 0 -1 0 -1 0 -1 0 -1 0 -1 0 -1 0 
-1 0 -1 0 -1 1 -1 0 -1 0 -1 0 -1 0 -1 0 
-1 0 -1 0 -1 0 -1 0 -1 0 -1 0 -1 0 -1 0 
-1 0 -1 0 -1 1 -1 0 -1 0 -1 0 -1 0 -1 0 
-1 0 -1 0 -1 0 -1 0 -1 0 -1 0 -1 0 -1 0 
-1 0 -1 1 -1 0 -1 0 -1 0 -1 0 -1 0 -1 0 
-1 0 -1 0 -1 0 -1 0 -1 0 -1 0 -1 0 -1 0 
-1 1 -1 0 -1 0 -1 0 -1 0 -1 0 -1 0 -1 0 
-1 0 -1 0 -1 0 -1 0 -1 0 -1 0 -1 1 -1 0 
-1 0 -1 0 -1 0 -1 0 -1 0 -1 0 -1 0 -1 0 
-1 0 -1 0 -1 0 -1 0 -1 1 -1 0 -1 0 -1 0 
-1 0 -1 0 -1 0 -1 0 -1 0 -1 0 -1 0 -1 0 
-1 1 -1 0 -1 0 -1 0 -1 0 -1 0 -1 0 -1 0 
-1 0 -1 0 -1 0 -1 0 -1 0 -1 1 -1 0 -1 0 
-1 0 -1 0 -1 0 -1 0 -1 0 -1 0 -1 0 -1 0 
-1 0 -1 1 -1 0 -1 0 -1 0 -1 0 -1 0 -1 0 
-1 0 -1 0 -1 0 -1 0 -1 0 -1 1 -1 0 -1 0 
-1 0 -1 0 -1 0 4193 4301 300 MP stroke
-1 0 -1 0 -1 0 -1 0 -1 0 -1 0 -1 1 -1 0 
-1 0 -1 0 -1 0 -1 0 -1 0 -1 0 -1 0 -1 0 
-1 1 -1 0 -1 0 -1 0 -1 0 -1 0 -1 0 -1 0 
-1 0 -1 0 -1 0 -1 1 -1 0 -1 0 -1 0 -1 0 
-1 0 -1 0 -1 0 -1 0 -1 0 -1 0 -1 1 -1 0 
-1 0 -1 0 -1 0 -1 0 -1 0 -1 0 -1 0 -1 0 
-1 1 -1 0 -1 0 -1 0 -1 0 -1 0 -1 0 -1 0 
-1 0 -1 0 -1 1 -1 0 -1 0 -1 0 -1 0 -1 0 
-1 0 -1 0 -1 0 -1 0 -1 1 -1 0 -1 0 -1 0 
-1 0 -1 0 -1 0 -1 0 -1 0 -1 1 -1 0 -1 0 
-1 0 -1 0 -1 0 -1 0 -1 0 -1 0 -1 1 -1 0 
-1 0 -1 0 -1 0 -1 0 -1 0 -1 0 -1 0 -1 1 
-1 0 -1 0 -1 0 -1 0 -1 0 -1 0 -1 0 -1 0 
-1 1 -1 0 -1 0 -1 0 -1 0 -1 0 -1 0 -1 0 
-1 0 -1 1 -1 0 -1 0 -1 0 -1 0 -1 0 -1 0 
-1 0 -1 0 -1 1 -1 0 -1 0 -1 0 -1 0 -1 0 
-1 0 -1 0 -1 1 -1 0 -1 0 -1 0 -1 0 -1 0 
-1 0 -1 0 -1 1 -1 0 -1 0 -1 0 -1 0 -1 0 
-1 0 -1 0 -1 1 -1 0 -1 0 -1 0 -1 0 -1 0 
-1 0 -1 1 -1 0 -1 0 -1 0 -1 0 -1 0 -1 0 
-1 0 -1 1 -1 0 -1 0 -1 0 -1 0 -1 0 -1 0 
-1 1 -1 0 -1 0 -1 0 -1 0 -1 0 -1 0 -1 1 
-1 0 -1 0 -1 0 -1 0 -1 0 -1 0 -1 0 -1 1 
-1 0 -1 0 -1 0 -1 0 -1 0 -1 0 -1 1 -1 0 
-1 0 -1 0 -1 0 -1 0 -1 0 -1 1 -1 0 -1 0 
-1 0 -1 0 -1 0 -1 1 -1 0 -1 0 -1 0 -1 0 
-1 0 -1 0 -1 1 -1 0 -1 0 -1 0 -1 0 -1 0 
-1 0 -1 1 -1 0 -1 0 -1 0 -1 0 -1 0 -1 1 
-1 0 -1 0 -1 0 -1 0 -1 0 -1 1 -1 0 -1 0 
-1 0 -1 0 -1 0 -1 0 -1 1 -1 0 -1 0 -1 0 
-1 0 -1 0 -1 1 -1 0 -1 0 -1 0 -1 0 -1 0 
-1 1 -1 0 -1 0 -1 0 -1 0 -1 0 -1 1 -1 0 
-1 0 -1 0 -1 0 -1 0 -1 1 -1 0 -1 0 -1 0 
-1 0 -1 0 -1 1 -1 0 -1 0 -1 0 -1 0 -1 0 
-1 1 -1 0 -1 0 -1 0 -1 0 -1 1 -1 0 -1 0 
-1 0 -1 0 -1 0 -1 1 -1 0 -1 0 -1 0 -1 0 
-1 0 -1 1 -1 0 -1 0 -1 0 -1 0 -1 1 -1 0 
-1 0 -1 0 -1 0 4492 4262 300 MP stroke
-1 1 -1 0 -1 0 -1 0 -1 0 -1 0 -1 1 -1 0 
-1 0 -1 0 -1 0 -1 1 -1 0 -1 0 -1 0 -1 0 
-1 1 -1 0 -1 0 -1 0 -1 0 -1 1 -1 0 -1 0 
-1 0 -1 0 -1 1 -1 0 -1 0 -1 0 -1 0 -1 1 
-1 0 -1 0 -1 0 -1 0 -1 1 -1 0 -1 0 -1 0 
-1 0 -1 1 -1 0 -1 0 -1 0 -1 1 -1 0 -1 0 
-1 0 -1 0 -1 0 -1 1 -1 0 -1 0 -1 0 -1 1 
-1 0 -1 0 -1 0 -1 0 -1 1 -1 0 -1 0 -1 0 
-1 1 -1 0 -1 0 -1 0 -1 0 -1 1 -1 0 -1 0 
-1 0 -1 1 -1 0 -1 0 -1 0 -1 0 -1 1 -1 0 
-1 0 -1 0 -1 1 -1 0 -1 0 -1 0 -1 0 -1 1 
-1 0 -1 0 -1 0 -1 1 -1 0 -1 0 -1 0 -1 1 
-1 0 -1 0 -1 0 -1 1 -1 0 -1 0 -1 0 -1 0 
-1 1 -1 0 -1 0 -1 1 -1 0 -1 0 -1 0 -1 0 
-1 1 -1 0 -1 0 -1 0 -1 1 -1 0 -1 0 -1 0 
-1 1 -1 0 -1 0 -1 1 -1 0 -1 0 -1 0 -1 0 
-1 1 -1 0 -1 0 -1 0 -1 1 -1 0 -1 0 -1 1 
-1 0 -1 0 -1 0 -1 0 -1 1 -1 0 -1 0 -1 1 
-1 0 -1 0 -1 0 -1 1 -1 0 -1 0 -1 1 -1 0 
-1 0 -1 0 -1 0 -1 1 -1 0 -1 0 -1 1 -1 0 
-1 0 -1 0 -1 1 -1 0 -1 0 -1 0 -1 1 -1 0 
-1 0 -1 1 -1 0 -1 0 -1 0 -1 1 -1 0 -1 0 
-1 1 -1 0 -1 0 -1 1 -1 0 -1 0 -1 0 -1 1 
-1 0 -1 0 -1 1 -1 0 -1 0 -1 0 -1 1 -1 0 
-1 0 -1 0 -1 1 -1 0 -1 1 -1 0 -1 0 -1 0 
-1 1 -1 0 -1 0 -1 1 -1 0 -1 0 -1 0 -1 1 
-1 0 -1 0 -1 1 -1 0 -1 0 -1 1 -1 0 -1 0 
-1 1 -1 0 -1 0 -1 0 -1 1 -1 0 -1 1 -1 0 
-1 0 -1 0 -1 1 -1 0 -1 0 -1 1 -1 0 -1 0 
-1 1 -1 0 -1 0 -1 1 -1 0 -1 0 -1 1 -1 0 
-1 0 -1 1 -1 0 -1 0 -1 1 -1 0 -1 0 -1 1 
-1 0 -1 0 -1 1 -1 0 -1 0 -1 1 -1 0 -1 0 
-1 1 -1 0 -1 0 -1 1 -1 0 -1 0 -1 1 -1 0 
-1 1 -1 0 -1 0 -1 0 -1 1 -1 0 -1 0 -1 1 
-1 0 -1 1 -1 0 -1 0 -1 1 -1 0 -1 0 -1 1 
-1 0 -1 0 -1 1 -1 0 -1 1 -1 0 -1 0 -1 1 
-1 0 -1 0 -1 1 -1 0 -1 1 -1 0 -1 0 -1 1 
-1 0 -1 0 -1 1 4791 4180 300 MP stroke
-1 0 -1 1 -1 0 -1 0 -1 1 -1 0 -1 0 -1 1 
-1 0 -1 0 -1 1 -1 0 -1 1 -1 0 -1 0 -1 1 
-1 0 -1 0 -1 1 -1 0 -1 1 -1 0 -1 1 -1 0 
-1 0 -1 1 -1 0 -1 1 -1 0 -1 0 -1 1 -1 0 
-1 0 -1 1 -1 0 -1 1 -1 0 -1 1 -1 0 -1 0 
-1 1 -1 0 -1 1 -1 0 -1 0 -1 1 -1 0 -1 1 
-1 0 -1 1 -1 0 -1 0 -1 1 -1 0 -1 1 -1 0 
-1 1 -1 0 -1 0 -1 1 -1 0 -1 0 -1 1 -1 1 
-1 0 -1 0 -1 1 -1 0 -1 1 -1 0 -1 0 -1 1 
-1 1 -1 0 -1 0 -1 1 -1 0 -1 1 -1 0 -1 0 
-1 1 -1 1 -1 0 -1 0 -1 1 -1 0 -1 1 -1 0 
-1 0 -1 1 -1 1 -1 0 -1 0 -1 1 -1 0 -1 1 
-1 0 -1 1 -1 0 -1 1 -1 0 -1 1 -1 0 -1 0 
-1 1 -1 0 -1 1 -1 1 -1 0 -1 0 -1 1 -1 0 
-1 1 -1 0 -1 1 -1 0 -1 1 -1 0 -1 1 -1 0 
-1 1 -1 0 -1 1 -1 0 -1 0 -1 1 -1 1 -1 0 
-1 1 -1 0 -1 1 -1 0 -1 0 -1 1 -1 1 -1 0 
-1 1 -1 0 -1 1 -1 0 -1 0 -1 1 -1 1 -1 0 
-1 1 -1 0 -1 1 -1 0 -1 1 -1 0 -1 1 -1 0 
-1 1 -1 0 -1 1 -1 0 -1 1 -1 0 -1 1 -1 0 
-1 1 -1 1 -1 0 -1 1 -1 0 -1 1 -1 0 -1 1 
-1 0 -1 1 -1 1 -1 0 -1 1 -1 0 -1 0 -1 1 
-1 0 -1 1 -1 1 -1 0 -1 1 -1 0 -1 1 -1 0 
-1 1 -1 0 -1 1 -1 1 -1 0 -1 1 -1 0 -1 1 
-1 0 -1 1 -1 1 -1 1 -1 0 -1 1 -1 0 -1 1 
-1 0 -1 1 -1 0 -1 1 -1 1 -1 0 -1 1 -1 0 
-1 1 -1 0 -1 1 -1 0 -1 1 -1 1 -1 1 -1 0 
-1 1 -1 0 -1 1 -1 0 -1 1 -1 0 -1 1 -1 1 
-1 0 -1 1 -1 1 -1 0 -1 1 -1 0 -1 1 -1 1 
-1 0 -1 1 -1 1 -1 0 -1 1 -1 0 -1 1 -1 0 
-1 1 -1 1 -1 1 -1 0 -1 1 -1 0 -1 1 -1 0 
1 0 -2 2 -1 0 -1 1 -1 0 -1 1 -1 0 -1 1 
-1 1 -1 0 -1 1 -1 1 -1 0 -1 1 -1 1 -1 0 
-1 1 -1 0 -1 1 -1 1 -1 1 -1 0 -1 1 -1 1 
-1 0 -1 1 -1 0 -1 1 -1 1 -1 1 -1 0 -1 1 
-1 1 -1 0 -1 1 -1 0 -1 1 -1 1 -1 1 -1 0 
-1 1 -1 1 -1 0 -1 1 -1 1 -1 0 -1 1 -1 1 
-1 1 -1 0 -1 1 5089 4024 300 MP stroke
-1 1 -1 0 -1 1 -1 1 -1 1 -1 0 -1 1 -1 1 
-1 0 -1 1 -1 1 -1 0 1 0 -2 2 -1 0 -1 1 
-1 1 -1 0 -1 1 -1 0 -1 1 -1 1 -1 1 -1 1 
-1 0 -1 1 -1 1 -1 0 -1 1 -1 1 -1 0 1 0 
-2 2 -1 0 -1 1 -1 1 -1 0 -1 1 -1 1 -1 0 
-1 1 0 1 -1 1 -1 0 -1 1 -1 1 -1 0 -1 1 
-1 1 -1 0 -1 1 -1 1 -1 1 -1 1 -1 1 -1 0 
-1 1 -1 1 -1 0 1 0 -2 2 -1 0 -1 1 -1 1 
-1 1 -1 0 -1 1 -1 1 -1 0 1 0 -2 2 -1 1 
-1 0 -1 1 -1 1 -1 0 -1 1 -1 1 -1 1 -1 1 
-1 1 -1 1 -1 0 -1 1 -1 1 -1 1 -1 0 -1 1 
0 1 -1 1 -1 0 -1 1 -1 1 -1 0 -1 1 -1 1 
-1 1 -1 1 -1 1 -1 1 -1 1 -1 0 -1 1 -1 1 
-1 1 -1 0 -1 1 0 1 -1 1 -1 0 -1 1 -1 1 
-1 1 -1 1 -1 0 -1 1 0 1 -1 1 -1 0 -1 1 
-1 1 -1 1 -1 1 -1 0 -1 1 -1 1 0 1 -1 1 
-1 0 -1 1 -1 1 -1 1 -1 1 -1 0 -1 1 -1 1 
0 1 -1 1 -1 0 -1 1 -1 1 -1 1 -1 1 -1 0 
-1 1 -1 1 0 1 -1 1 -1 1 -1 0 -1 1 -1 1 
-1 1 -1 1 -1 1 -1 0 1 0 -2 2 -1 1 -1 1 
-1 1 -1 0 -1 1 -1 1 -1 1 -1 1 0 1 -1 1 
-1 0 -1 1 -1 1 -1 1 -1 1 -1 1 -1 1 -1 1 
-1 1 -1 1 -1 1 -1 1 -1 1 -1 1 -1 0 -1 1 
0 1 -1 1 -1 1 -1 1 -1 1 -1 1 -1 0 -1 1 
-1 1 -1 1 0 1 -1 1 -1 1 -1 1 -1 1 -1 1 
-1 0 -1 1 -1 1 -1 1 0 1 -1 1 -1 1 -1 1 
-1 1 -1 1 -1 1 -1 0 -1 1 -1 1 0 1 -1 1 
-1 1 -1 1 -1 1 -1 1 -1 1 -1 1 -1 1 -1 1 
0 1 -1 1 -1 0 -1 1 -1 1 -1 1 -1 1 -1 1 
-1 1 -1 1 0 1 -1 1 -1 1 -1 1 -1 1 -1 1 
-1 1 -1 1 -1 1 0 1 -1 1 -1 1 -1 1 -1 1 
-1 1 -1 1 -1 1 -1 1 -1 1 0 1 -1 1 -1 1 
-1 1 -1 1 -1 1 -1 1 -1 1 -1 1 -1 1 0 1 
-1 1 -1 1 -1 1 -1 1 -1 1 -1 1 -1 1 -1 1 
-1 1 0 1 -1 1 -1 1 -1 1 -1 1 -1 1 -1 1 
-1 1 -1 1 -1 1 0 1 -1 1 -1 1 -1 1 -1 1 
-1 1 -1 1 -1 1 -1 1 -1 1 0 2 -1 1 -1 1 
-1 1 -1 1 -1 1 5363 3770 300 MP stroke
-1 1 -1 1 -1 1 0 1 -1 1 -1 1 -1 1 -1 1 
-1 2 -1 1 -1 1 -1 1 -1 1 0 1 -1 1 -1 1 
-1 1 -1 1 -1 1 -1 2 -1 1 -1 1 -1 1 0 1 
-1 1 -1 1 -1 1 -1 1 -1 2 -1 1 -1 1 -1 1 
-1 1 0 1 -1 1 -1 1 -1 2 -1 1 -1 1 -1 1 
-1 1 -1 1 -1 1 0 2 -1 1 -1 1 -1 1 -1 1 
-1 1 -1 1 -1 2 -1 1 -1 1 0 1 -1 1 -1 1 
-1 2 -1 1 -1 1 -1 1 -1 1 -1 2 0 1 -1 1 
-1 1 -1 1 -1 1 -1 2 -1 1 -1 1 -1 1 -1 1 
0 2 -1 1 -1 1 -1 1 -1 1 -1 2 -1 1 -1 1 
-1 1 -1 2 0 1 -1 1 -1 1 -1 1 -1 2 -1 1 
-1 1 -1 1 -1 2 -1 1 0 1 -1 1 -1 2 -1 1 
-1 1 -1 1 -1 2 -1 1 -1 1 -1 1 0 2 -1 1 
-1 1 -1 2 -1 1 -1 1 -1 1 -1 2 -1 1 -1 1 
0 2 -1 1 -1 1 -1 1 -1 2 -1 1 -1 1 -1 2 
-1 1 0 1 -1 2 -1 1 -1 1 -1 1 -1 2 -1 1 
-1 1 -1 2 -1 1 0 1 -1 2 -1 1 -1 1 -1 2 
-1 1 -1 1 -1 2 -1 1 -1 1 0 2 -1 1 -1 2 
-1 1 -1 1 -1 2 -1 1 -1 1 -1 2 -1 1 0 1 
-1 2 -1 1 -1 2 -1 1 -1 1 -1 2 -1 1 -1 2 
-1 1 0 1 -1 2 -1 1 -1 2 -1 1 -1 1 -1 2 
-1 1 -1 2 -1 1 0 1 -1 2 -1 1 -1 2 -1 1 
-1 2 -1 1 -1 1 -1 2 0 1 -1 2 -1 1 -1 2 
-1 1 -1 2 -1 1 -1 2 -1 1 -1 1 0 2 -1 1 
-1 2 -1 1 -1 2 -1 1 -1 2 -1 1 -1 2 -1 1 
0 2 -1 1 -1 2 -1 1 -1 2 -1 1 -1 2 -1 1 
-1 2 -1 1 0 2 -1 1 -1 2 -1 1 -1 2 -1 2 
-1 1 -1 2 -1 1 -1 2 0 1 -1 2 -1 1 -1 2 
-1 1 -1 2 -1 2 -1 1 -1 2 -1 1 0 2 -1 1 
-1 2 -1 2 -1 1 -1 2 -1 1 -1 2 -1 2 -1 1 
0 2 -1 1 -1 2 -1 2 -1 1 -1 2 -1 1 -1 2 
-1 2 0 1 -1 2 -1 2 -1 1 -1 2 -1 1 -1 2 
-1 2 -1 1 -1 2 0 2 -1 1 -1 2 -1 2 -1 1 
-1 2 -1 2 -1 1 -1 2 -1 2 0 1 -1 2 -1 2 
-1 2 -1 1 -1 2 -1 2 -1 1 -1 2 -1 2 0 1 
-1 2 -1 2 -1 2 -1 1 -1 2 -1 2 -1 2 -1 1 
-1 2 0 2 -1 2 -1 1 -1 2 -1 2 -1 2 -1 1 
-1 2 -1 2 -1 2 5632 3355 300 MP stroke
0 1 -1 2 -1 2 -1 2 -1 2 -1 1 -1 2 -1 2 
-1 2 0 2 -1 1 -1 2 -1 2 -1 2 -1 2 -1 2 
-1 1 -1 2 -1 2 0 2 -1 2 -1 2 -1 1 -1 2 
-1 2 -1 2 -1 2 -1 2 -1 2 0 1 -1 2 -1 2 
-1 2 -1 2 -1 2 -1 2 -1 2 -1 2 -1 2 0 1 
-1 2 -1 2 -1 2 -1 2 -1 2 -1 2 -1 2 -1 2 
-1 2 0 2 -1 2 -1 2 -1 2 -1 2 -1 2 -1 2 
-1 2 -1 2 -1 1 0 2 -1 2 -1 2 -1 2 -1 2 
-1 2 -1 2 -1 2 -1 2 0 3 -1 2 -1 2 -1 2 
-1 2 -1 2 -1 2 -1 2 -1 2 -1 2 0 2 -1 2 
-1 2 -1 2 -1 2 -1 2 -1 2 -1 2 -1 3 -1 2 
0 2 -1 2 -1 2 -1 2 -1 2 -1 2 -1 2 -1 3 
-1 2 -1 2 0 2 -1 2 -1 2 -1 2 -1 3 -1 2 
-1 2 -1 2 -1 2 -1 2 0 3 -1 2 -1 2 -1 2 
-1 2 -1 3 -1 2 -1 2 -1 2 -1 3 0 2 -1 2 
-1 2 -1 2 -1 3 -1 2 -1 2 -1 2 -1 3 0 2 
-1 2 -1 3 -1 2 -1 2 -1 2 -1 3 -1 2 -1 2 
-1 3 0 2 -1 2 -1 3 -1 2 -1 2 -1 3 -1 2 
-1 2 -1 3 -1 2 0 2 -1 3 -1 2 -1 3 -1 2 
-1 2 -1 3 -1 2 -1 3 -1 2 0 2 -1 3 -1 2 
-1 3 -1 2 -1 3 -1 2 -1 3 -1 2 -1 2 0 3 
-1 2 -1 3 -1 2 -1 3 -1 2 -1 3 -1 2 -1 3 
-1 2 0 3 -1 2 -1 3 -1 3 -1 2 -1 3 -1 2 
-1 3 -1 2 -1 3 0 3 -1 2 -1 3 -1 2 -1 3 
-1 3 -1 2 -1 3 -1 2 0 3 -1 3 -1 2 -1 3 
-1 3 -1 2 -1 3 -1 3 -1 2 -1 3 0 3 -1 2 
-1 3 -1 3 -1 3 -1 2 -1 3 -1 3 -1 3 -1 2 
0 3 -1 3 -1 3 -1 2 -1 3 -1 3 -1 3 -1 3 
-1 2 -1 3 0 3 -1 3 -1 3 -1 3 -1 2 -1 3 
-1 3 -1 3 -1 3 -1 3 0 3 -1 3 -1 2 -1 3 
-1 3 -1 3 -1 3 -1 3 -1 3 -1 3 0 3 -1 3 
-1 3 -1 3 -1 3 -1 3 -1 3 -1 3 -1 3 0 3 
-1 3 -1 3 -1 3 -1 3 -1 3 -1 3 -1 3 -1 4 
-1 3 0 3 -1 3 -1 3 -1 3 -1 3 -1 3 -1 4 
-1 3 -1 3 -1 3 0 3 -1 4 -1 3 -1 3 -1 3 
-1 3 -1 4 -1 3 -1 3 -1 3 0 4 -1 3 -1 3 
-1 4 -1 3 -1 3 -1 4 -1 3 -1 3 -1 4 0 3 
-1 3 -1 4 -1 3 5900 2624 300 MP stroke
-1 4 -1 3 -1 3 -1 4 -1 3 -1 4 0 3 -1 4 
-1 3 -1 4 -1 3 -1 4 -1 3 -1 4 -1 3 0 4 
-1 3 -1 4 -1 3 -1 4 -1 4 -1 3 -1 4 -1 3 
-1 4 0 4 -1 3 -1 4 -1 4 -1 3 -1 4 -1 4 
-1 3 -1 4 -1 4 0 4 -1 3 -1 4 -1 4 -1 4 
-1 4 -1 3 -1 4 -1 4 -1 4 0 4 -1 4 -1 4 
-1 3 -1 4 -1 4 -1 4 -1 4 -1 4 -1 4 0 4 
-1 4 -1 4 -1 4 -1 4 -1 4 -1 4 -1 4 -1 4 
-1 4 0 4 -1 5 -1 4 -1 4 -1 4 -1 4 -1 4 
-1 5 -1 4 0 4 -1 4 -1 4 -1 5 -1 4 -1 4 
-1 4 -1 5 -1 4 -1 4 0 5 -1 4 -1 5 -1 4 
-1 4 -1 5 -1 4 -1 5 -1 4 -1 5 0 4 -1 5 
-1 4 -1 5 -1 4 -1 5 -1 4 -1 5 -1 5 -1 4 
0 5 -1 4 -1 5 -1 5 -1 4 -1 5 -1 5 -1 5 
-1 4 -1 5 0 5 -1 5 -1 5 -1 5 -1 4 -1 5 
-1 5 -1 5 -1 5 -1 5 0 5 -1 5 -1 5 -1 5 
-1 5 -1 5 -1 5 -1 5 -1 5 0 5 -1 5 -1 6 
-1 5 -1 5 -1 5 -1 5 -1 6 -1 5 -1 5 0 5 
-1 6 -1 5 -1 5 -1 6 -1 5 -1 6 -1 5 -1 5 
-1 6 0 5 -1 6 -1 5 -1 6 -1 6 -1 5 -1 6 
-1 5 -1 6 -1 6 0 5 -1 6 -1 6 -1 6 -1 5 
-1 6 -1 6 -1 6 -1 6 -1 5 0 6 -1 6 -1 6 
-1 6 -1 6 -1 6 -1 6 -1 6 -1 6 -1 6 0 7 
-1 6 -1 6 -1 6 -1 6 -1 6 -1 7 -1 6 -1 6 
-1 7 0 6 -1 6 -1 7 -1 6 -1 7 -1 6 -1 6 
-1 7 -1 7 0 6 -1 7 -1 6 -1 7 -1 7 -1 6 
-1 7 -1 7 -1 6 -1 7 0 7 -1 7 -1 7 -1 7 
-1 6 -1 7 -1 7 -1 7 -1 7 -1 7 0 7 -1 8 
-1 7 -1 7 -1 7 -1 7 -1 7 -1 8 -1 7 -1 7 
0 7 -1 8 -1 7 -1 8 -1 7 -1 7 -1 8 -1 7 
-1 8 -1 8 0 7 -1 8 -1 7 -1 8 -1 8 -1 7 
-1 8 -1 8 -1 8 -1 8 0 7 -1 8 -1 8 -1 8 
-1 8 -1 8 -1 8 -1 8 -1 8 0 8 -1 9 -1 8 
-1 8 -1 8 -1 8 -1 9 -1 8 -1 8 -1 8 0 9 
-1 8 -1 9 -1 8 -1 8 -1 9 -1 8 -1 9 -1 9 
-1 8 0 9 -1 8 -1 9 -1 9 -1 8 -1 9 -1 9 
-1 9 -1 8 -1 9 0 9 -1 9 -1 9 -1 9 -1 9 
-1 8 -1 9 -1 9 6169 916 300 MP stroke
-1 9 -1 9 0 9 -1 9 -1 9 -1 10 -1 9 -1 9 
-1 9 -1 9 -1 9 -1 9 0 10 -1 9 -1 9 -1 9 
-1 9 -1 10 -1 9 -1 9 -1 9 0 10 -1 9 -1 9 
-1 9 -1 10 -1 9 -1 9 -1 9 -1 10 -1 9 0 9 
-1 10 -1 9 -1 9 -1 9 -1 10 -1 9 -1 9 -1 9 
-1 10 0 9 -1 9 -1 9 -1 9 -1 9 -1 10 -1 9 
-1 9 -1 9 -1 9 6215 447 52 MP stroke
gr

18 w
c8
DA
0 sg
%%IncludeResource: font Helvetica-Bold
/Helvetica-Bold /WindowsLatin1Encoding 240 FMSR

3558 5746 mt 
(t) s
 365 3290 mt  -90 rotate
(max\() s
90 rotate
%%IncludeResource: font Symbol
/Symbol /WindowsLatin1Encoding 240 FMSR

 365 2730 mt  -90 rotate
(Y) s
90 rotate
%%IncludeResource: font Helvetica-Bold
/Helvetica-Bold /WindowsLatin1Encoding 240 FMSR

 365 2540 mt  -90 rotate
(\)) s
90 rotate
gs 904 447 5392 4857 rc
SO
/c9 { 0.000000 0.500000 0.000000 sr} bdef
c9
-1 0 -1 0 -1 0 -1 0 -1 0 -1 0 -1 0 -1 0 
-1 0 -1 0 -1 0 -1 0 -1 0 -1 0 -1 0 -1 0 
-1 0 -1 0 -1 0 -1 0 -1 0 -1 0 -1 0 -1 0 
-1 0 -1 0 -1 0 -1 0 -1 0 -1 0 -1 0 -1 0 
-1 0 -1 0 -1 0 -1 0 -1 0 -1 0 -1 0 -1 0 
-1 0 -1 0 -1 0 -1 0 -1 0 -1 0 -1 0 -1 0 
-1 0 -1 0 -1 0 -1 0 -1 0 -1 0 -1 0 -1 0 
-1 0 -1 0 -1 0 -1 0 -1 0 -1 0 -1 0 -1 0 
-1 0 -1 0 -1 0 -1 0 -1 0 -1 0 -1 0 -1 0 
-1 0 -1 0 -1 0 -1 0 -1 0 -1 0 -1 0 -1 0 
-1 0 -1 0 -1 0 -1 0 -1 0 -1 0 -1 0 -1 0 
-1 0 -1 0 -1 0 -1 0 -1 0 -1 0 -1 0 -1 0 
-1 0 -1 0 -1 0 -1 0 -1 0 -1 0 -1 0 -1 0 
-1 0 -1 0 -1 0 -1 0 -1 0 -1 0 -1 0 -1 0 
-1 0 -1 0 -1 0 -1 0 -1 0 -1 0 -1 0 -1 0 
-1 0 -1 0 -1 0 -1 0 -1 0 -1 0 -1 0 -1 0 
-1 0 -1 0 -1 0 -1 0 -1 0 -1 0 -1 0 -1 0 
-1 0 -1 0 -1 0 -1 0 -1 0 -1 0 -1 0 -1 0 
-1 0 -1 0 -1 0 -1 0 -1 0 -1 0 -1 0 -1 0 
-1 0 -1 0 -1 0 -1 0 -1 0 -1 0 -1 0 -1 0 
-1 0 -1 0 -1 0 -1 0 -1 0 -1 0 -1 0 -1 0 
-1 0 -1 0 -1 0 -1 0 -1 0 -1 0 -1 0 -1 0 
-1 0 -1 0 -1 0 -1 0 -1 0 -1 0 -1 0 -1 0 
-1 0 -1 0 -1 0 -1 0 -1 0 -1 0 -1 0 -1 0 
-1 0 -1 0 -1 0 -1 0 -1 0 -1 0 -1 0 -1 0 
-1 0 -1 0 -1 0 -1 0 -1 0 -1 0 -1 0 -1 0 
-1 0 -1 0 -1 0 -1 0 -1 0 -1 0 -1 0 -1 0 
-1 0 -1 0 -1 0 -1 0 -1 0 -1 0 -1 0 -1 0 
-1 0 -1 0 -1 0 -1 0 -1 0 -1 0 -1 0 -1 0 
-1 0 -1 0 -1 0 -1 0 -1 0 -1 0 -1 0 -1 0 
-1 0 -1 0 -1 0 -1 0 -1 0 -1 0 -1 0 -1 0 
-1 0 -1 0 -1 0 -1 0 -1 0 -1 0 -1 0 -1 0 
-1 0 -1 0 -1 0 -1 0 -1 0 -1 0 -1 0 -1 0 
-1 0 -1 0 -1 0 -1 0 -1 0 -1 0 -1 0 -1 0 
-1 0 -1 0 -1 0 -1 0 -1 0 -1 0 -1 0 -1 0 
-1 0 -1 0 -1 0 -1 0 -1 0 -1 0 -1 0 -1 0 
-1 0 -1 0 -1 0 -1 0 -1 0 -1 0 -1 0 -1 0 
-1 0 -1 0 -1 0 1203 4331 300 MP stroke
-1 0 -1 0 -1 0 -1 0 -1 0 -1 0 -1 0 -1 0 
-1 0 -1 0 -1 0 -1 0 -1 0 -1 0 -1 0 -1 0 
-1 0 -1 0 -1 0 -1 0 -1 0 -1 0 -1 0 -1 0 
-1 0 -1 0 -1 0 -1 0 -1 0 -1 0 -1 0 -1 0 
-1 0 -1 0 -1 0 -1 0 -1 0 -1 0 -1 0 -1 0 
-1 0 -1 0 -1 0 -1 0 -1 0 -1 0 -1 0 -1 0 
-1 0 -1 0 -1 0 -1 0 -1 0 -1 0 -1 0 -1 0 
-1 0 -1 0 -1 0 -1 0 -1 0 -1 0 -1 0 -1 0 
-1 0 -1 0 -1 0 -1 0 -1 0 -1 0 -1 0 -1 0 
-1 0 -1 0 -1 0 -1 0 -1 0 -1 0 -1 0 -1 0 
-1 0 -1 0 -1 0 -1 0 -1 0 -1 0 -1 0 -1 0 
-1 0 -1 0 -1 0 -1 0 -1 0 -1 0 -1 0 -1 0 
-1 0 -1 0 -1 0 -1 0 -1 0 -1 0 -1 0 -1 0 
-1 0 -1 0 -1 0 -1 0 -1 0 -1 0 -1 0 -1 0 
-1 0 -1 0 -1 0 -1 0 -1 0 -1 0 -1 0 -1 0 
-1 0 -1 0 -1 0 -1 0 -1 0 -1 0 -1 0 -1 0 
-1 0 -1 0 -1 0 -1 0 -1 0 -1 0 -1 0 -1 0 
-1 0 -1 0 -1 0 -1 0 -1 0 -1 0 -1 0 -1 0 
-1 0 -1 0 -1 0 -1 0 -1 0 -1 0 -1 0 -1 0 
-1 0 -1 0 -1 0 -1 0 -1 0 -1 0 -1 0 -1 0 
-1 0 -1 0 -1 0 -1 0 -1 0 -1 0 -1 0 -1 0 
-1 0 -1 0 -1 0 -1 0 -1 0 -1 0 -1 0 -1 0 
-1 0 -1 0 -1 0 -1 0 -1 0 -1 0 -1 0 -1 0 
-1 0 -1 0 -1 0 -1 0 -1 0 -1 0 -1 0 -1 0 
-1 0 -1 0 -1 0 -1 0 -1 0 -1 0 -1 0 -1 0 
-1 0 -1 0 -1 0 -1 0 -1 0 -1 0 -1 0 -1 0 
-1 0 -1 0 -1 0 -1 0 -1 0 -1 0 -1 0 -1 0 
-1 0 -1 0 -1 0 -1 0 -1 0 -1 0 -1 0 -1 0 
-1 0 -1 0 -1 0 -1 0 -1 0 -1 0 -1 0 -1 0 
-1 0 -1 0 -1 0 -1 0 -1 0 -1 0 -1 0 -1 0 
-1 0 -1 0 -1 0 -1 0 -1 0 -1 0 -1 0 -1 0 
-1 0 -1 0 -1 0 -1 0 -1 0 -1 0 -1 0 -1 0 
-1 0 -1 0 -1 0 -1 0 -1 0 -1 0 -1 0 -1 0 
-1 0 -1 0 -1 0 -1 0 -1 0 -1 0 -1 0 -1 0 
-1 0 -1 0 -1 0 -1 0 -1 0 -1 0 -1 0 -1 0 
-1 0 -1 0 -1 0 -1 0 -1 0 -1 0 -1 0 -1 0 
-1 0 -1 0 -1 0 -1 0 -1 0 -1 0 -1 0 -1 0 
-1 0 -1 0 -1 0 1502 4331 300 MP stroke
-1 0 -1 0 -1 0 -1 0 -1 0 -1 0 -1 0 -1 0 
-1 0 -1 0 -1 0 -1 0 -1 0 -1 0 -1 0 -1 0 
-1 0 -1 0 -1 0 -1 0 -1 0 -1 0 -1 0 -1 0 
-1 0 -1 0 -1 0 -1 0 -1 0 -1 0 -1 0 -1 0 
-1 0 -1 0 -1 0 -1 0 -1 0 -1 0 -1 0 -1 0 
-1 0 -1 0 -1 0 -1 0 -1 0 -1 0 -1 0 -1 0 
-1 0 -1 0 -1 0 -1 0 -1 0 -1 0 -1 0 -1 0 
-1 0 -1 0 -1 0 -1 0 -1 0 -1 0 -1 0 -1 0 
-1 0 -1 0 -1 0 -1 0 -1 0 -1 0 -1 0 -1 0 
-1 0 -1 0 -1 0 -1 0 -1 0 -1 0 -1 0 -1 0 
-1 0 -1 0 -1 0 -1 0 -1 0 -1 0 -1 0 -1 0 
-1 0 -1 0 -1 0 -1 0 -1 0 -1 0 -1 0 -1 0 
-1 0 -1 0 -1 0 -1 0 -1 0 -1 0 -1 0 -1 0 
-1 0 -1 0 -1 0 -1 0 -1 0 -1 0 -1 0 -1 0 
-1 0 -1 0 -1 0 -1 0 -1 0 -1 0 -1 0 -1 0 
-1 0 -1 0 -1 0 -1 0 -1 0 -1 0 -1 0 -1 0 
-1 0 -1 0 -1 0 -1 0 -1 0 -1 0 -1 0 -1 0 
-1 0 -1 0 -1 0 -1 0 -1 0 -1 0 -1 0 -1 0 
-1 0 -1 0 -1 0 -1 0 -1 0 -1 0 -1 0 -1 0 
-1 0 -1 0 -1 0 -1 0 -1 0 -1 0 -1 0 -1 0 
-1 0 -1 0 -1 0 -1 0 -1 0 -1 0 -1 0 -1 0 
-1 0 -1 0 -1 0 -1 0 -1 0 -1 0 -1 0 -1 0 
-1 0 -1 0 -1 0 -1 0 -1 0 -1 0 -1 0 -1 0 
-1 0 -1 0 -1 0 -1 0 -1 0 -1 0 -1 0 -1 0 
-1 0 -1 0 -1 0 -1 0 -1 0 -1 0 -1 0 -1 0 
-1 0 -1 0 -1 0 -1 0 -1 0 -1 0 -1 0 -1 0 
-1 0 -1 0 -1 0 -1 0 -1 0 -1 0 -1 0 -1 0 
-1 0 -1 0 -1 0 -1 0 -1 0 -1 0 -1 0 -1 0 
-1 0 -1 0 -1 0 -1 0 -1 0 -1 0 -1 0 -1 0 
-1 0 -1 0 -1 0 -1 0 -1 0 -1 0 -1 0 -1 0 
-1 0 -1 0 -1 0 -1 0 -1 0 -1 0 -1 0 -1 0 
-1 0 -1 0 -1 0 -1 0 -1 0 -1 0 -1 0 -1 0 
-1 0 -1 0 -1 0 -1 0 -1 0 -1 0 -1 0 -1 0 
-1 0 -1 0 -1 0 -1 0 -1 0 -1 0 -1 0 -1 0 
-1 0 -1 0 -1 0 -1 0 -1 0 -1 0 -1 0 -1 0 
-1 0 -1 0 -1 0 -1 0 -1 0 -1 0 -1 0 -1 0 
-1 0 -1 0 -1 0 -1 0 -1 0 -1 0 -1 0 -1 0 
-1 0 -1 0 -1 0 1801 4331 300 MP stroke
-1 0 -1 0 -1 0 -1 0 -1 0 -1 0 -1 0 -1 0 
-1 0 -1 0 -1 0 -1 0 -1 0 -1 0 -1 0 -1 0 
-1 0 -1 0 -1 0 -1 0 -1 0 -1 0 -1 0 -1 0 
-1 0 -1 0 -1 0 -1 0 -1 0 -1 0 -1 0 -1 0 
-1 0 -1 0 -1 0 -1 0 -1 0 -1 0 -1 0 -1 0 
-1 0 -1 0 -1 0 -1 0 -1 0 -1 0 -1 0 -1 0 
-1 0 -1 0 -1 0 -1 0 -1 0 -1 0 -1 0 -1 0 
-1 0 -1 0 -1 0 -1 0 -1 0 -1 0 -1 0 -1 0 
-1 0 -1 0 -1 0 -1 0 -1 0 -1 0 -1 0 -1 0 
-1 0 -1 0 -1 0 -1 0 -1 0 -1 0 -1 0 -1 0 
-1 0 -1 0 -1 0 -1 0 -1 0 -1 0 -1 0 -1 0 
-1 0 -1 0 -1 0 -1 0 -1 0 -1 0 -1 0 -1 0 
-1 0 -1 0 -1 0 -1 0 -1 0 -1 0 -1 0 -1 0 
-1 0 -1 0 -1 0 -1 0 -1 0 -1 0 -1 0 -1 0 
-1 0 -1 0 -1 0 -1 0 -1 0 -1 0 -1 0 -1 0 
-1 0 -1 0 -1 0 -1 0 -1 0 -1 0 -1 0 -1 0 
-1 0 -1 0 -1 0 -1 0 -1 0 -1 0 -1 0 -1 0 
-1 0 -1 0 -1 0 -1 0 -1 0 -1 0 -1 0 -1 0 
-1 0 -1 0 -1 0 -1 0 -1 0 -1 0 -1 0 -1 0 
-1 0 -1 0 -1 0 -1 0 -1 0 -1 0 -1 0 -1 0 
-1 0 -1 0 -1 0 -1 0 -1 0 -1 0 -1 0 -1 0 
-1 0 -1 0 -1 0 -1 0 -1 0 -1 0 -1 0 -1 0 
-1 0 -1 0 -1 0 -1 0 -1 0 -1 0 -1 0 -1 0 
-1 0 -1 0 -1 0 -1 0 -1 0 -1 0 -1 0 -1 0 
-1 0 -1 0 -1 0 -1 0 -1 0 -1 0 -1 0 -1 0 
-1 0 -1 0 -1 0 -1 0 -1 0 -1 0 -1 0 -1 0 
-1 0 -1 0 -1 0 -1 0 -1 0 -1 0 -1 0 -1 0 
-1 0 -1 0 -1 0 -1 0 -1 0 -1 0 -1 0 -1 0 
-1 0 -1 0 -1 0 -1 0 -1 0 -1 0 -1 0 -1 0 
-1 0 -1 0 -1 0 -1 0 -1 0 -1 0 -1 0 -1 0 
-1 0 -1 0 -1 0 -1 0 -1 0 -1 0 -1 0 -1 0 
-1 0 -1 0 -1 0 -1 0 -1 0 -1 0 -1 0 -1 0 
-1 0 -1 0 -1 0 -1 0 -1 0 -1 0 -1 0 -1 0 
-1 0 -1 0 -1 0 -1 0 -1 0 -1 0 -1 0 -1 0 
-1 0 -1 0 -1 0 -1 0 -1 0 -1 0 -1 0 -1 0 
-1 0 -1 0 -1 0 -1 0 -1 0 -1 0 -1 0 -1 0 
-1 0 -1 0 -1 0 -1 0 -1 0 -1 0 -1 0 -1 0 
-1 0 -1 0 -1 0 2100 4331 300 MP stroke
-1 0 -1 0 -1 0 -1 0 -1 0 -1 0 -1 0 -1 0 
-1 0 -1 0 -1 0 -1 0 -1 0 -1 0 -1 0 -1 0 
-1 0 -1 0 -1 0 -1 0 -1 0 -1 0 -1 0 -1 0 
-1 0 -1 0 -1 0 -1 0 -1 0 -1 0 -1 0 -1 0 
-1 0 -1 0 -1 0 -1 0 -1 0 -1 0 -1 0 -1 0 
-1 0 -1 0 -1 0 -1 0 -1 0 -1 0 -1 0 -1 0 
-1 0 -1 0 -1 0 -1 0 -1 0 -1 0 -1 0 -1 0 
-1 0 -1 0 -1 0 -1 0 -1 0 -1 0 -1 0 -1 0 
-1 0 -1 0 -1 0 -1 0 -1 0 -1 0 -1 0 -1 0 
-1 0 -1 0 -1 0 -1 0 -1 0 -1 0 -1 0 -1 0 
-1 0 -1 0 -1 0 -1 0 -1 0 -1 0 -1 0 -1 0 
-1 0 -1 0 -1 0 -1 0 -1 0 -1 0 -1 0 -1 0 
-1 0 -1 0 -1 0 -1 0 -1 0 -1 0 -1 0 -1 0 
-1 0 -1 0 -1 0 -1 0 -1 0 -1 0 -1 0 -1 0 
-1 0 -1 0 -1 0 -1 0 -1 0 -1 0 -1 0 -1 0 
-1 0 -1 0 -1 0 -1 0 -1 0 -1 0 -1 0 -1 0 
-1 0 -1 0 -1 0 -1 0 -1 0 -1 0 -1 0 -1 0 
-1 0 -1 0 -1 0 -1 0 -1 0 -1 0 -1 0 -1 0 
-1 0 -1 0 -1 0 -1 0 -1 0 -1 0 -1 0 -1 0 
-1 0 -1 0 -1 0 -1 0 -1 0 -1 0 -1 0 -1 0 
-1 0 -1 0 -1 0 -1 0 -1 0 -1 0 -1 0 -1 0 
-1 0 -1 0 -1 0 -1 0 -1 0 -1 0 -1 0 -1 0 
-1 0 -1 0 -1 0 -1 0 -1 0 -1 0 -1 0 -1 0 
-1 0 -1 0 -1 0 -1 0 -1 0 -1 0 -1 0 -1 0 
-1 0 -1 0 -1 0 -1 0 -1 0 -1 0 -1 0 -1 0 
-1 0 -1 0 -1 0 -1 0 -1 0 -1 0 -1 0 -1 0 
-1 0 -1 0 -1 0 -1 0 -1 0 -1 0 -1 0 -1 0 
-1 0 -1 0 -1 0 -1 0 -1 0 -1 0 -1 0 -1 0 
-1 0 -1 0 -1 0 -1 0 -1 0 -1 0 -1 0 -1 0 
-1 0 -1 0 -1 0 -1 0 -1 0 -1 0 -1 0 -1 0 
-1 0 -1 0 -1 0 -1 0 -1 0 -1 0 -1 0 -1 0 
-1 0 -1 0 -1 0 -1 0 -1 0 -1 0 -1 0 -1 0 
-1 0 -1 0 -1 0 -1 0 -1 0 -1 0 -1 0 -1 0 
-1 0 -1 0 -1 0 -1 0 -1 0 -1 0 -1 0 -1 0 
-1 0 -1 0 -1 0 -1 0 -1 0 -1 0 -1 0 -1 0 
-1 0 -1 0 -1 0 -1 0 -1 0 -1 0 -1 0 -1 0 
-1 0 -1 0 -1 0 -1 0 -1 0 -1 0 -1 0 -1 0 
-1 0 -1 0 -1 0 2399 4331 300 MP stroke
-1 0 -1 0 -1 0 -1 0 -1 0 -1 0 -1 0 -1 0 
-1 0 -1 0 -1 0 -1 0 -1 0 -1 0 -1 0 -1 0 
-1 0 -1 0 -1 0 -1 0 -1 0 -1 0 -1 0 -1 0 
-1 0 -1 0 -1 0 -1 0 -1 0 -1 0 -1 0 -1 0 
-1 0 -1 0 -1 0 -1 0 -1 0 -1 0 -1 0 -1 0 
-1 0 -1 0 -1 0 -1 0 -1 0 -1 0 -1 0 -1 0 
-1 0 -1 0 -1 0 -1 0 -1 0 -1 0 -1 0 -1 0 
-1 0 -1 0 -1 0 -1 0 -1 0 -1 0 -1 0 -1 0 
-1 0 -1 0 -1 0 -1 0 -1 0 -1 0 -1 0 -1 0 
-1 0 -1 0 -1 0 -1 0 -1 0 -1 0 -1 0 -1 0 
-1 0 -1 0 -1 0 -1 0 -1 0 -1 0 -1 0 -1 0 
-1 0 -1 0 -1 0 -1 0 -1 0 -1 0 -1 0 -1 0 
-1 0 -1 0 -1 0 -1 0 -1 0 -1 0 -1 0 -1 0 
-1 0 -1 0 -1 0 -1 0 -1 0 -1 0 -1 0 -1 0 
-1 0 -1 0 -1 0 -1 0 -1 0 -1 0 -1 0 -1 0 
-1 0 -1 0 -1 0 -1 0 -1 0 -1 0 -1 0 -1 0 
-1 0 -1 0 -1 0 -1 0 -1 0 -1 0 -1 0 -1 0 
-1 0 -1 0 -1 0 -1 0 -1 0 -1 0 -1 0 -1 0 
-1 0 -1 0 -1 0 -1 0 -1 0 -1 0 -1 0 -1 0 
-1 0 -1 0 -1 0 -1 0 -1 0 -1 0 -1 0 -1 0 
-1 0 -1 0 -1 0 -1 0 -1 0 -1 0 -1 0 -1 0 
-1 0 -1 0 -1 0 -1 0 -1 0 -1 0 -1 0 -1 0 
-1 0 -1 0 -1 0 -1 0 -1 0 -1 0 -1 0 -1 0 
-1 0 -1 0 -1 0 -1 0 -1 0 -1 0 -1 0 -1 0 
-1 0 -1 0 -1 0 -1 0 -1 0 -1 0 -1 0 -1 0 
-1 0 -1 0 -1 0 -1 0 -1 0 -1 0 -1 0 -1 0 
-1 0 -1 0 -1 0 -1 0 -1 0 -1 0 -1 0 -1 0 
-1 0 -1 0 -1 0 -1 0 -1 0 -1 0 -1 0 -1 0 
-1 0 -1 0 -1 0 -1 0 -1 0 -1 0 -1 0 -1 0 
-1 0 -1 0 -1 0 -1 0 -1 0 -1 0 -1 0 -1 0 
-1 0 -1 0 -1 0 -1 0 -1 0 -1 0 -1 0 -1 0 
-1 0 -1 0 -1 0 -1 0 -1 0 -1 0 -1 0 -1 0 
-1 0 -1 0 -1 0 -1 0 -1 0 -1 0 -1 0 -1 0 
-1 0 -1 0 -1 0 -1 0 -1 0 -1 0 -1 0 -1 0 
-1 0 -1 0 -1 0 -1 0 -1 0 -1 0 -1 0 -1 0 
-1 0 -1 0 -1 0 -1 0 -1 0 -1 0 -1 0 -1 0 
-1 0 -1 0 -1 0 -1 0 -1 0 -1 0 -1 0 -1 0 
-1 0 -1 0 -1 0 2698 4331 300 MP stroke
-1 0 -1 0 -1 0 -1 0 -1 0 -1 0 -1 0 -1 0 
-1 0 -1 0 -1 0 -1 0 -1 0 -1 0 -1 0 -1 0 
-1 0 -1 0 -1 0 -1 0 -1 0 -1 0 -1 0 -1 0 
-1 0 -1 0 -1 0 -1 0 -1 0 -1 0 -1 0 -1 0 
-1 0 -1 0 -1 0 -1 0 -1 0 -1 0 -1 0 -1 0 
-1 0 -1 0 -1 0 -1 0 -1 0 -1 0 -1 0 -1 0 
-1 0 -1 0 -1 0 -1 0 -1 0 -1 0 -1 0 -1 0 
-1 0 -1 0 -1 0 -1 0 -1 0 -1 0 -1 0 -1 0 
-1 0 -1 0 -1 0 -1 0 -1 0 -1 0 -1 0 -1 0 
-1 0 -1 0 -1 0 -1 0 -1 0 -1 0 -1 0 -1 0 
-1 0 -1 0 -1 0 -1 0 -1 0 -1 0 -1 0 -1 0 
-1 0 -1 0 -1 0 -1 0 -1 0 -1 0 -1 0 -1 0 
-1 0 -1 0 -1 0 -1 0 -1 0 -1 0 -1 0 -1 0 
-1 0 -1 0 -1 0 -1 0 -1 0 -1 0 -1 0 -1 0 
-1 0 -1 0 -1 0 -1 0 -1 0 -1 0 -1 0 -1 0 
-1 0 -1 0 -1 0 -1 0 -1 0 -1 0 -1 0 -1 0 
-1 0 -1 0 -1 0 -1 0 -1 0 -1 0 -1 0 -1 0 
-1 0 -1 0 -1 0 -1 0 -1 0 -1 0 -1 0 -1 0 
-1 0 -1 0 -1 0 -1 0 -1 0 -1 0 -1 0 -1 0 
-1 0 -1 0 -1 0 -1 0 -1 0 -1 0 -1 0 -1 0 
-1 0 -1 0 -1 0 -1 0 -1 0 -1 0 -1 0 -1 0 
-1 0 -1 0 -1 0 -1 0 -1 0 -1 0 -1 0 -1 0 
-1 0 -1 0 -1 0 -1 0 -1 0 -1 0 -1 0 -1 0 
-1 0 -1 0 -1 0 -1 0 -1 0 -1 0 -1 0 -1 0 
-1 0 -1 0 -1 0 -1 0 -1 0 -1 0 -1 0 -1 0 
-1 0 -1 0 -1 0 -1 0 -1 0 -1 0 -1 0 -1 0 
-1 0 -1 0 -1 0 -1 0 -1 0 -1 0 -1 0 -1 0 
-1 0 -1 0 -1 0 -1 0 -1 0 -1 0 -1 0 -1 0 
-1 0 -1 0 -1 0 -1 0 -1 0 -1 0 -1 0 -1 0 
-1 0 -1 0 -1 0 -1 0 -1 0 -1 0 -1 0 -1 0 
-1 0 -1 0 -1 0 -1 0 -1 0 -1 0 -1 0 -1 0 
-1 0 -1 0 -1 0 -1 0 -1 0 -1 0 -1 0 -1 0 
-1 0 -1 0 -1 0 -1 0 -1 0 -1 0 -1 0 -1 0 
-1 0 -1 0 -1 0 -1 0 -1 0 -1 0 -1 0 -1 0 
-1 0 -1 0 -1 0 -1 0 -1 0 -1 0 -1 0 -1 0 
-1 0 -1 0 -1 0 -1 0 -1 0 -1 0 -1 0 -1 0 
-1 0 -1 0 -1 0 -1 0 -1 0 -1 0 -1 0 -1 0 
-1 0 -1 0 -1 0 2997 4331 300 MP stroke
-1 0 -1 0 -1 0 -1 0 -1 0 -1 0 -1 0 -1 0 
-1 0 -1 0 -1 0 -1 0 -1 0 -1 0 -1 0 -1 0 
-1 0 -1 0 -1 0 -1 0 -1 0 -1 1 -1 0 -1 0 
-1 0 -1 0 -1 0 -1 0 -1 0 -1 0 -1 0 -1 0 
-1 0 -1 0 -1 0 -1 0 -1 0 -1 0 -1 0 -1 0 
-1 0 -1 0 -1 0 -1 0 -1 0 -1 0 -1 0 -1 0 
-1 0 -1 0 -1 0 -1 0 -1 0 -1 0 -1 0 -1 0 
-1 0 -1 0 -1 0 -1 0 -1 0 -1 0 -1 0 -1 0 
-1 0 -1 0 -1 0 -1 0 -1 0 -1 0 -1 0 -1 0 
-1 0 -1 0 -1 0 -1 0 -1 0 -1 0 -1 0 -1 0 
-1 0 -1 0 -1 0 -1 0 -1 0 -1 0 -1 0 -1 0 
-1 0 -1 0 -1 0 -1 0 -1 0 -1 0 -1 0 -1 0 
-1 0 -1 0 -1 0 -1 0 -1 0 -1 0 -1 0 -1 0 
-1 0 -1 0 -1 0 -1 0 -1 0 -1 0 -1 0 -1 0 
-1 0 -1 0 -1 0 -1 0 -1 0 -1 0 -1 0 -1 0 
-1 0 -1 0 -1 0 -1 0 -1 0 -1 0 -1 0 -1 0 
-1 0 -1 0 -1 0 -1 0 -1 0 -1 0 -1 0 -1 0 
-1 0 -1 0 -1 0 -1 0 -1 0 -1 0 -1 0 -1 0 
-1 0 -1 0 -1 0 -1 0 -1 0 -1 0 -1 0 -1 0 
-1 0 -1 0 -1 0 -1 0 -1 0 -1 0 -1 0 -1 0 
-1 0 -1 0 -1 0 -1 0 -1 0 -1 0 -1 0 -1 0 
-1 0 -1 0 -1 0 -1 0 -1 0 -1 0 -1 0 -1 0 
-1 0 -1 0 -1 0 -1 0 -1 0 -1 0 -1 0 -1 0 
-1 0 -1 0 -1 0 -1 0 -1 0 -1 0 -1 0 -1 0 
-1 0 -1 0 -1 0 -1 0 -1 0 -1 0 -1 0 -1 0 
-1 0 -1 0 -1 0 -1 0 -1 0 -1 0 -1 0 -1 0 
-1 0 -1 0 -1 0 -1 0 -1 0 -1 0 -1 0 -1 0 
-1 0 -1 0 -1 0 -1 0 -1 0 -1 0 -1 0 -1 0 
-1 0 -1 0 -1 0 -1 0 -1 0 -1 0 -1 0 -1 0 
-1 0 -1 0 -1 0 -1 0 -1 0 -1 0 -1 0 -1 0 
-1 0 -1 0 -1 0 -1 0 -1 0 -1 0 -1 0 -1 0 
-1 0 -1 0 -1 0 -1 0 -1 0 -1 0 -1 0 -1 0 
-1 0 -1 0 -1 0 -1 0 -1 0 -1 0 -1 0 -1 0 
-1 0 -1 0 -1 0 -1 0 -1 0 -1 0 -1 0 -1 0 
-1 0 -1 0 -1 0 -1 0 -1 0 -1 0 -1 0 -1 0 
-1 0 -1 0 -1 0 -1 0 -1 0 -1 0 -1 0 -1 0 
-1 0 -1 0 -1 0 -1 0 -1 0 -1 0 -1 0 -1 0 
-1 0 -1 0 -1 0 3296 4330 300 MP stroke
-1 0 -1 0 -1 0 -1 0 -1 0 -1 0 -1 0 -1 0 
-1 0 -1 0 -1 0 -1 0 -1 0 -1 0 -1 0 -1 0 
-1 0 -1 0 -1 0 -1 0 -1 0 -1 0 -1 0 -1 0 
-1 0 -1 0 -1 0 -1 0 -1 0 -1 0 -1 0 -1 0 
-1 0 -1 0 -1 0 -1 0 -1 0 -1 0 -1 0 -1 0 
-1 0 -1 0 -1 0 -1 0 -1 0 -1 0 -1 0 -1 0 
-1 0 -1 0 -1 0 -1 0 -1 0 -1 0 -1 0 -1 0 
-1 0 -1 0 -1 0 -1 0 -1 0 -1 0 -1 0 -1 0 
-1 0 -1 0 -1 0 -1 0 -1 0 -1 0 -1 0 -1 0 
-1 0 -1 0 -1 0 -1 0 -1 0 -1 0 -1 0 -1 0 
-1 0 -1 0 -1 0 -1 0 -1 0 -1 0 -1 0 -1 0 
-1 0 -1 0 -1 0 -1 0 -1 0 -1 0 -1 0 -1 0 
-1 0 -1 0 -1 0 -1 0 -1 0 -1 0 -1 0 -1 0 
-1 0 -1 0 -1 0 -1 0 -1 0 -1 0 -1 0 -1 0 
-1 0 -1 0 -1 0 -1 0 -1 0 -1 0 -1 0 -1 0 
-1 0 -1 0 -1 0 -1 0 -1 0 -1 0 -1 0 -1 0 
-1 0 -1 0 -1 0 -1 0 -1 0 -1 0 -1 0 -1 0 
-1 0 -1 0 -1 0 -1 0 -1 0 -1 0 -1 0 -1 0 
-1 0 -1 0 -1 0 -1 0 -1 0 -1 0 -1 0 -1 0 
-1 0 -1 0 -1 0 -1 0 -1 0 -1 0 -1 0 -1 0 
-1 0 -1 0 -1 0 -1 0 -1 0 -1 0 -1 0 -1 0 
-1 0 -1 0 -1 0 -1 0 -1 0 -1 0 -1 0 -1 0 
-1 0 -1 0 -1 0 -1 0 -1 0 -1 0 -1 0 -1 0 
-1 0 -1 0 -1 0 -1 0 -1 0 -1 0 -1 0 -1 0 
-1 0 -1 0 -1 0 -1 0 -1 0 -1 0 -1 0 -1 0 
-1 0 -1 0 -1 0 -1 0 -1 0 -1 0 -1 0 -1 0 
-1 0 -1 0 -1 0 -1 0 -1 0 -1 0 -1 0 -1 0 
-1 0 -1 0 -1 0 -1 0 -1 0 -1 0 -1 0 -1 0 
-1 0 -1 0 -1 0 -1 0 -1 0 -1 0 -1 0 -1 0 
-1 0 -1 0 -1 1 -1 0 -1 0 -1 0 -1 0 -1 0 
-1 0 -1 0 -1 0 -1 0 -1 0 -1 0 -1 0 -1 0 
-1 0 -1 0 -1 0 -1 0 -1 0 -1 0 -1 0 -1 0 
-1 0 -1 0 -1 0 -1 0 -1 0 -1 0 -1 0 -1 0 
-1 0 -1 0 -1 0 -1 0 -1 0 -1 0 -1 0 -1 0 
-1 0 -1 0 -1 0 -1 0 -1 0 -1 0 -1 0 -1 0 
-1 0 -1 0 -1 0 -1 0 -1 0 -1 0 -1 0 -1 0 
-1 0 -1 0 -1 0 -1 0 -1 0 -1 0 -1 0 -1 0 
-1 0 -1 0 -1 0 3595 4329 300 MP stroke
-1 0 -1 0 -1 0 -1 0 -1 0 -1 0 -1 0 -1 0 
-1 0 -1 0 -1 0 -1 0 -1 0 -1 0 -1 0 -1 0 
-1 0 -1 0 -1 0 -1 0 -1 0 -1 0 -1 0 -1 0 
-1 0 -1 0 -1 0 -1 0 -1 0 -1 0 -1 0 -1 0 
-1 0 -1 0 -1 0 -1 0 -1 0 -1 0 -1 0 -1 0 
-1 0 -1 0 -1 0 -1 0 -1 0 -1 0 -1 0 -1 0 
-1 0 -1 0 -1 0 -1 0 -1 0 -1 0 -1 0 -1 0 
-1 0 -1 0 -1 0 -1 0 -1 0 -1 0 -1 0 -1 0 
-1 0 -1 0 -1 0 -1 0 -1 0 -1 0 -1 0 -1 0 
-1 0 -1 0 -1 0 -1 0 -1 0 -1 0 -1 0 -1 0 
-1 0 -1 0 -1 0 -1 0 -1 0 -1 0 -1 0 -1 0 
-1 0 -1 0 -1 0 -1 0 -1 0 -1 0 -1 0 -1 0 
-1 0 -1 0 -1 0 -1 0 -1 0 -1 0 -1 0 -1 0 
-1 0 -1 0 -1 0 -1 0 -1 0 -1 0 -1 0 -1 0 
-1 0 -1 0 -1 0 -1 0 -1 0 -1 0 -1 0 -1 0 
-1 0 -1 0 -1 0 -1 0 -1 0 -1 0 -1 0 -1 0 
-1 0 -1 0 -1 0 -1 0 -1 0 -1 0 -1 0 -1 0 
-1 0 -1 0 -1 0 -1 0 -1 0 -1 0 -1 0 -1 0 
-1 0 -1 0 -1 0 -1 0 -1 0 -1 0 -1 0 -1 0 
-1 0 -1 0 -1 0 -1 0 -1 0 -1 0 -1 0 -1 0 
-1 0 -1 0 -1 0 -1 0 -1 0 -1 0 -1 0 -1 0 
-1 0 -1 0 -1 0 -1 0 -1 0 -1 0 -1 0 -1 0 
-1 0 -1 0 -1 0 -1 0 -1 0 -1 0 -1 0 -1 0 
-1 0 -1 0 -1 0 -1 0 -1 0 -1 0 -1 0 -1 0 
-1 0 -1 0 -1 0 -1 0 -1 0 -1 0 -1 0 -1 0 
-1 0 -1 0 -1 0 -1 0 -1 0 -1 0 -1 0 -1 1 
-1 0 -1 0 -1 0 -1 0 -1 0 -1 0 -1 0 -1 0 
-1 0 -1 0 -1 0 -1 0 -1 0 -1 0 -1 0 -1 0 
-1 0 -1 0 -1 0 -1 0 -1 0 -1 0 -1 0 -1 0 
-1 0 -1 0 -1 0 -1 0 -1 0 -1 0 -1 0 -1 0 
-1 0 -1 0 -1 0 -1 0 -1 0 -1 0 -1 0 -1 0 
-1 0 -1 0 -1 0 -1 0 -1 0 -1 0 -1 0 -1 0 
-1 0 -1 0 -1 0 -1 0 -1 0 -1 0 -1 0 -1 0 
-1 0 -1 0 -1 0 -1 0 -1 0 -1 0 -1 0 -1 0 
-1 0 -1 0 -1 0 -1 0 -1 0 -1 0 -1 0 -1 0 
-1 0 -1 0 -1 0 -1 0 -1 0 -1 0 -1 0 -1 0 
-1 0 -1 0 -1 0 -1 0 -1 0 -1 0 -1 0 -1 0 
-1 0 -1 0 -1 0 3894 4328 300 MP stroke
-1 0 -1 0 -1 0 -1 0 -1 0 -1 0 -1 0 -1 0 
-1 0 -1 0 -1 0 -1 0 -1 0 -1 0 -1 0 -1 0 
-1 0 -1 0 -1 0 -1 0 -1 0 -1 0 -1 0 -1 0 
-1 0 -1 0 -1 0 -1 0 -1 0 -1 0 -1 0 -1 0 
-1 0 -1 0 -1 0 -1 0 -1 0 -1 0 -1 0 -1 0 
-1 0 -1 0 -1 0 -1 0 -1 0 -1 0 -1 0 -1 0 
-1 0 -1 0 -1 0 -1 0 -1 0 -1 0 -1 0 -1 0 
-1 0 -1 0 -1 0 -1 0 -1 0 -1 0 -1 0 -1 0 
-1 0 -1 0 -1 0 -1 0 -1 0 -1 0 -1 0 -1 1 
-1 0 -1 0 -1 0 -1 0 -1 0 -1 0 -1 0 -1 0 
-1 0 -1 0 -1 0 -1 0 -1 0 -1 0 -1 0 -1 0 
-1 0 -1 0 -1 0 -1 0 -1 0 -1 0 -1 0 -1 0 
-1 0 -1 0 -1 0 -1 0 -1 0 -1 0 -1 0 -1 0 
-1 0 -1 0 -1 0 -1 0 -1 0 -1 0 -1 0 -1 0 
-1 0 -1 0 -1 0 -1 0 -1 0 -1 0 -1 0 -1 0 
-1 0 -1 0 -1 0 -1 0 -1 0 -1 0 -1 0 -1 0 
-1 0 -1 0 -1 0 -1 0 -1 0 -1 0 -1 0 -1 0 
-1 0 -1 0 -1 0 -1 0 -1 0 -1 0 -1 0 -1 0 
-1 0 -1 0 -1 0 -1 0 -1 0 -1 0 -1 0 -1 0 
-1 0 -1 0 -1 0 -1 0 -1 0 -1 0 -1 0 -1 0 
-1 0 -1 0 -1 0 -1 0 -1 0 -1 0 -1 0 -1 0 
-1 0 -1 0 -1 0 -1 0 -1 0 -1 0 -1 0 -1 0 
-1 0 -1 0 -1 0 -1 1 -1 0 -1 0 -1 0 -1 0 
-1 0 -1 0 -1 0 -1 0 -1 0 -1 0 -1 0 -1 0 
-1 0 -1 0 -1 0 -1 0 -1 0 -1 0 -1 0 -1 0 
-1 0 -1 0 -1 0 -1 0 -1 0 -1 0 -1 0 -1 0 
-1 0 -1 0 -1 0 -1 0 -1 0 -1 0 -1 0 -1 0 
-1 0 -1 0 -1 0 -1 0 -1 0 -1 0 -1 0 -1 0 
-1 0 -1 0 -1 0 -1 0 -1 0 -1 0 -1 0 -1 0 
-1 0 -1 0 -1 0 -1 0 -1 0 -1 0 -1 0 -1 0 
-1 0 -1 0 -1 0 -1 0 -1 0 -1 0 -1 0 -1 0 
-1 0 -1 0 -1 0 -1 0 -1 0 -1 0 -1 0 -1 0 
-1 1 -1 0 -1 0 -1 0 -1 0 -1 0 -1 0 -1 0 
-1 0 -1 0 -1 0 -1 0 -1 0 -1 0 -1 0 -1 0 
-1 0 -1 0 -1 0 -1 0 -1 0 -1 0 -1 0 -1 0 
-1 0 -1 0 -1 0 -1 0 -1 0 -1 0 -1 0 -1 0 
-1 0 -1 0 -1 0 -1 0 -1 0 -1 0 -1 0 -1 0 
-1 0 -1 0 -1 0 4193 4325 300 MP stroke
-1 0 -1 0 -1 0 -1 0 -1 0 -1 0 -1 0 -1 0 
-1 0 -1 0 -1 0 -1 0 -1 0 -1 0 -1 0 -1 0 
-1 0 -1 1 -1 0 -1 0 -1 0 -1 0 -1 0 -1 0 
-1 0 -1 0 -1 0 -1 0 -1 0 -1 0 -1 0 -1 0 
-1 0 -1 0 -1 0 -1 0 -1 0 -1 0 -1 0 -1 0 
-1 0 -1 0 -1 0 -1 0 -1 0 -1 0 -1 0 -1 0 
-1 0 -1 0 -1 0 -1 0 -1 0 -1 0 -1 0 -1 0 
-1 0 -1 0 -1 0 -1 0 -1 0 -1 0 -1 0 -1 0 
-1 0 -1 0 -1 1 -1 0 -1 0 -1 0 -1 0 -1 0 
-1 0 -1 0 -1 0 -1 0 -1 0 -1 0 -1 0 -1 0 
-1 0 -1 0 -1 0 -1 0 -1 0 -1 0 -1 0 -1 0 
-1 0 -1 0 -1 0 -1 0 -1 0 -1 0 -1 0 -1 0 
-1 0 -1 0 -1 0 -1 0 -1 0 -1 0 -1 0 -1 0 
-1 0 -1 0 -1 0 -1 1 -1 0 -1 0 -1 0 -1 0 
-1 0 -1 0 -1 0 -1 0 -1 0 -1 0 -1 0 -1 0 
-1 0 -1 0 -1 0 -1 0 -1 0 -1 0 -1 0 -1 0 
-1 0 -1 0 -1 0 -1 0 -1 0 -1 0 -1 0 -1 0 
-1 0 -1 0 -1 0 -1 0 -1 0 -1 0 -1 1 -1 0 
-1 0 -1 0 -1 0 -1 0 -1 0 -1 0 -1 0 -1 0 
-1 0 -1 0 -1 0 -1 0 -1 0 -1 0 -1 0 -1 0 
-1 0 -1 0 -1 0 -1 0 -1 0 -1 0 -1 0 -1 0 
-1 0 -1 0 -1 0 -1 0 -1 0 -1 1 -1 0 -1 0 
-1 0 -1 0 -1 0 -1 0 -1 0 -1 0 -1 0 -1 0 
-1 0 -1 0 -1 0 -1 0 -1 0 -1 0 -1 0 -1 0 
-1 0 -1 0 -1 0 -1 0 -1 0 -1 0 -1 0 -1 0 
-1 0 -1 1 -1 0 -1 0 -1 0 -1 0 -1 0 -1 0 
-1 0 -1 0 -1 0 -1 0 -1 0 -1 0 -1 0 -1 0 
-1 0 -1 0 -1 0 -1 0 -1 0 -1 0 -1 0 -1 0 
-1 0 -1 0 -1 1 -1 0 -1 0 -1 0 -1 0 -1 0 
-1 0 -1 0 -1 0 -1 0 -1 0 -1 0 -1 0 -1 0 
-1 0 -1 0 -1 0 -1 0 -1 0 -1 0 -1 0 -1 0 
-1 1 -1 0 -1 0 -1 0 -1 0 -1 0 -1 0 -1 0 
-1 0 -1 0 -1 0 -1 0 -1 0 -1 0 -1 0 -1 0 
-1 0 -1 0 -1 0 -1 0 -1 0 -1 1 -1 0 -1 0 
-1 0 -1 0 -1 0 -1 0 -1 0 -1 0 -1 0 -1 0 
-1 0 -1 0 -1 0 -1 0 -1 0 -1 0 -1 0 -1 0 
-1 0 -1 1 -1 0 -1 0 -1 0 -1 0 -1 0 -1 0 
-1 0 -1 0 -1 0 4492 4315 300 MP stroke
-1 0 -1 0 -1 0 -1 0 -1 0 -1 0 -1 0 -1 0 
-1 1 -1 0 -1 0 -1 0 -1 0 -1 0 -1 0 -1 0 
-1 0 -1 0 -1 0 -1 0 -1 0 -1 0 -1 0 -1 0 
-1 0 -1 1 -1 0 -1 0 -1 0 -1 0 -1 0 -1 0 
-1 0 -1 0 -1 0 -1 0 -1 0 -1 0 -1 0 -1 0 
-1 1 -1 0 -1 0 -1 0 -1 0 -1 0 -1 0 -1 0 
-1 0 -1 0 -1 0 -1 0 -1 0 -1 0 -1 0 -1 1 
-1 0 -1 0 -1 0 -1 0 -1 0 -1 0 -1 0 -1 0 
-1 0 -1 0 -1 0 -1 0 -1 0 -1 0 -1 1 -1 0 
-1 0 -1 0 -1 0 -1 0 -1 0 -1 0 -1 0 -1 0 
-1 0 -1 0 -1 0 -1 1 -1 0 -1 0 -1 0 -1 0 
-1 0 -1 0 -1 0 -1 0 -1 0 -1 0 -1 0 -1 0 
-1 1 -1 0 -1 0 -1 0 -1 0 -1 0 -1 0 -1 0 
-1 0 -1 0 -1 0 -1 0 -1 1 -1 0 -1 0 -1 0 
-1 0 -1 0 -1 0 -1 0 -1 0 -1 0 -1 0 -1 0 
-1 1 -1 0 -1 0 -1 0 -1 0 -1 0 -1 0 -1 0 
-1 0 -1 0 -1 0 -1 1 -1 0 -1 0 -1 0 -1 0 
-1 0 -1 0 -1 0 -1 0 -1 0 -1 1 -1 0 -1 0 
-1 0 -1 0 -1 0 -1 0 -1 0 -1 0 -1 0 -1 0 
-1 1 -1 0 -1 0 -1 0 -1 0 -1 0 -1 0 -1 0 
-1 0 -1 0 -1 1 -1 0 -1 0 -1 0 -1 0 -1 0 
-1 0 -1 0 -1 0 -1 0 -1 1 -1 0 -1 0 -1 0 
-1 0 -1 0 -1 0 -1 0 -1 0 -1 1 -1 0 -1 0 
-1 0 -1 0 -1 0 -1 0 -1 0 -1 0 -1 0 -1 1 
-1 0 -1 0 -1 0 -1 0 -1 0 -1 0 -1 0 -1 1 
-1 0 -1 0 -1 0 -1 0 -1 0 -1 0 -1 0 -1 0 
-1 1 -1 0 -1 0 -1 0 -1 0 -1 0 -1 0 -1 0 
-1 1 -1 0 -1 0 -1 0 -1 0 -1 0 -1 0 -1 0 
-1 1 -1 0 -1 0 -1 0 -1 0 -1 0 -1 0 -1 0 
-1 1 -1 0 -1 0 -1 0 -1 0 -1 0 -1 0 -1 1 
-1 0 -1 0 -1 0 -1 0 -1 0 -1 0 -1 0 -1 1 
-1 0 -1 0 -1 0 -1 0 -1 0 -1 0 -1 0 -1 1 
-1 0 -1 0 -1 0 -1 0 -1 0 -1 0 -1 1 -1 0 
-1 0 -1 0 -1 0 -1 0 -1 1 -1 0 -1 0 -1 0 
-1 0 -1 0 -1 0 -1 1 -1 0 -1 0 -1 0 -1 0 
-1 0 -1 0 -1 1 -1 0 -1 0 -1 0 -1 0 -1 0 
-1 1 -1 0 -1 0 -1 0 -1 0 -1 0 -1 1 -1 0 
-1 0 -1 0 -1 0 4791 4285 300 MP stroke
-1 0 -1 1 -1 0 -1 0 -1 0 -1 0 -1 0 -1 0 
-1 1 -1 0 -1 0 -1 0 -1 0 -1 0 -1 1 -1 0 
-1 0 -1 0 -1 0 -1 1 -1 0 -1 0 -1 0 -1 0 
-1 0 -1 0 -1 1 -1 0 -1 0 -1 0 -1 0 -1 1 
-1 0 -1 0 -1 0 -1 0 -1 1 -1 0 -1 0 -1 0 
-1 0 -1 0 -1 1 -1 0 -1 0 -1 0 -1 0 -1 1 
-1 0 -1 0 -1 0 -1 0 -1 0 -1 1 -1 0 -1 0 
-1 0 -1 0 -1 1 -1 0 -1 0 -1 0 -1 0 -1 1 
-1 0 -1 0 -1 0 -1 0 -1 1 -1 0 -1 0 -1 0 
-1 0 -1 1 -1 0 -1 0 -1 0 -1 0 -1 1 -1 0 
-1 0 -1 0 -1 1 -1 0 -1 0 -1 0 -1 0 -1 0 
-1 1 -1 0 -1 0 -1 0 -1 1 -1 0 -1 0 -1 0 
-1 0 -1 1 -1 0 -1 0 -1 0 -1 1 -1 0 -1 0 
-1 0 -1 0 -1 1 -1 0 -1 0 -1 0 -1 1 -1 0 
-1 0 -1 0 -1 0 -1 1 -1 0 -1 0 -1 1 -1 0 
-1 0 -1 0 -1 0 -1 1 -1 0 -1 0 -1 0 -1 1 
-1 0 -1 0 -1 0 -1 1 -1 0 -1 0 -1 0 -1 1 
-1 0 -1 0 -1 0 -1 1 -1 0 -1 0 -1 0 -1 1 
-1 0 -1 0 -1 0 -1 1 -1 0 -1 0 -1 0 -1 1 
-1 0 -1 0 -1 0 -1 1 -1 0 -1 0 -1 0 -1 1 
-1 0 -1 0 -1 1 -1 0 -1 0 -1 0 -1 1 -1 0 
-1 0 -1 0 -1 1 -1 0 -1 0 -1 0 -1 1 -1 0 
-1 0 -1 0 -1 1 -1 0 -1 0 -1 1 -1 0 -1 0 
-1 1 -1 0 -1 0 -1 1 -1 0 -1 0 -1 0 -1 1 
-1 0 -1 0 -1 0 -1 1 -1 0 -1 0 -1 1 -1 0 
-1 0 -1 0 -1 1 -1 0 -1 1 -1 0 -1 0 -1 0 
-1 1 -1 0 -1 0 -1 0 -1 1 -1 0 -1 1 -1 0 
-1 0 -1 0 -1 1 -1 0 -1 0 -1 1 -1 0 -1 0 
-1 1 -1 0 -1 0 -1 1 -1 0 -1 0 -1 0 -1 1 
-1 0 -1 1 -1 0 -1 0 -1 0 -1 1 -1 0 -1 0 
-1 1 -1 0 -1 1 -1 0 -1 0 -1 0 -1 1 -1 0 
-1 1 -1 0 -1 0 -1 1 -1 0 -1 0 -1 1 -1 0 
-1 0 -1 1 -1 0 -1 0 -1 1 -1 0 -1 0 -1 1 
-1 0 -1 0 -1 1 -1 0 -1 1 -1 0 -1 0 -1 1 
-1 0 -1 0 -1 1 -1 0 -1 1 -1 0 -1 0 -1 1 
-1 0 -1 0 -1 1 -1 0 -1 1 -1 0 -1 0 -1 1 
-1 0 -1 0 -1 1 -1 0 -1 0 -1 1 -1 0 -1 1 
-1 0 -1 0 -1 1 5090 4206 300 MP stroke
-1 0 -1 0 -1 1 -1 0 -1 1 -1 0 -1 1 -1 0 
-1 0 -1 1 -1 0 -1 1 -1 0 -1 0 -1 1 -1 0 
-1 1 -1 0 -1 0 -1 1 -1 0 -1 1 -1 0 -1 0 
-1 1 -1 0 -1 1 -1 0 -1 0 -1 1 -1 0 -1 1 
-1 0 -1 1 -1 0 -1 0 -1 1 -1 0 -1 1 -1 0 
-1 1 -1 0 -1 0 -1 1 -1 0 -1 1 -1 0 -1 1 
-1 0 -1 1 -1 0 -1 0 -1 1 -1 0 -1 1 -1 0 
-1 1 -1 0 -1 1 -1 0 -1 0 -1 1 -1 0 -1 1 
-1 1 -1 0 -1 0 -1 1 -1 0 -1 1 -1 0 -1 0 
-1 1 -1 1 -1 0 -1 1 -1 0 -1 0 -1 1 -1 0 
-1 1 -1 0 -1 1 -1 0 -1 1 -1 0 -1 1 -1 0 
-1 1 -1 0 -1 0 -1 1 -1 1 -1 0 -1 1 -1 0 
-1 1 -1 0 -1 0 -1 1 -1 1 -1 0 -1 1 -1 0 
-1 1 -1 0 -1 0 -1 1 -1 1 -1 0 -1 1 -1 0 
-1 1 -1 0 -1 1 -1 0 -1 1 -1 0 -1 1 -1 0 
-1 1 -1 0 -1 1 -1 0 -1 1 -1 0 -1 1 -1 1 
-1 0 -1 1 -1 0 -1 1 -1 0 -1 1 -1 0 -1 1 
-1 1 -1 0 -1 1 -1 0 -1 1 -1 0 -1 1 -1 0 
-1 1 -1 0 -1 1 -1 0 -1 1 -1 0 -1 1 -1 1 
-1 0 -1 1 -1 1 -1 0 -1 1 -1 0 -1 1 -1 0 
-1 1 -1 1 -1 0 -1 1 -1 0 -1 1 -1 0 -1 1 
-1 0 -1 1 -1 1 -1 0 -1 1 -1 0 -1 1 -1 1 
-1 0 -1 1 -1 0 -1 1 -1 1 -1 0 -1 1 -1 0 
-1 1 -1 0 -1 1 -1 1 -1 1 -1 0 -1 1 -1 0 
-1 1 -1 0 -1 1 -1 1 -1 0 -1 1 -1 1 -1 0 
-1 1 -1 0 -1 1 -1 1 -1 0 -1 1 -1 1 -1 0 
-1 1 -1 1 -1 0 -1 1 -1 0 -1 1 -1 0 1 0 
-2 2 -1 0 -1 1 -1 0 -1 1 -1 1 -1 0 -1 1 
-1 1 -1 0 -1 1 -1 1 -1 0 -1 1 -1 0 -1 1 
-1 1 -1 1 -1 0 -1 1 -1 1 -1 0 -1 1 -1 1 
-1 0 -1 1 -1 1 -1 1 -1 0 -1 1 -1 0 -1 1 
-1 1 -1 0 -1 1 -1 1 -1 1 -1 0 -1 1 -1 1 
-1 0 -1 1 -1 1 -1 0 -1 1 -1 1 -1 1 -1 0 
-1 1 -1 1 -1 0 -1 1 -1 1 -1 1 -1 1 -1 0 
-1 1 -1 0 -1 1 -1 1 -1 0 1 0 -2 2 -1 0 
-1 1 -1 1 -1 0 -1 1 -1 1 -1 0 -1 1 -1 1 
-1 1 -1 1 -1 0 -1 1 -1 1 -1 0 -1 1 -1 1 
-1 1 -1 1 -1 0 5387 4039 300 MP stroke
-1 1 -1 1 -1 1 -1 0 -1 1 -1 1 -1 1 -1 1 
-1 0 -1 1 -1 1 -1 0 -1 1 -1 1 -1 1 -1 1 
-1 1 -1 0 -1 1 -1 1 -1 0 -1 1 -1 1 -1 1 
-1 1 -1 1 -1 0 -1 1 -1 1 -1 1 -1 0 -1 1 
-1 1 -1 1 -1 1 -1 1 -1 0 -1 1 -1 1 -1 1 
-1 0 1 0 -2 2 -1 0 -1 1 -1 1 -1 1 -1 0 
-1 1 -1 1 -1 1 -1 1 -1 1 -1 1 -1 0 -1 1 
-1 1 -1 1 -1 0 -1 1 0 1 -1 1 -1 0 -1 1 
-1 1 -1 1 -1 0 -1 1 -1 1 -1 1 -1 1 -1 1 
-1 1 -1 1 -1 0 -1 1 -1 1 -1 1 -1 1 -1 1 
-1 1 -1 1 -1 0 -1 1 -1 1 -1 1 -1 1 -1 1 
-1 1 -1 1 -1 1 -1 0 -1 1 -1 1 -1 1 -1 0 
1 0 -2 2 -1 1 -1 1 -1 0 -1 1 -1 1 -1 1 
-1 1 -1 1 -1 1 -1 1 -1 1 -1 1 -1 0 -1 1 
-1 1 -1 1 -1 1 -1 1 -1 1 -1 1 -1 1 -1 1 
-1 0 -1 1 -1 1 -1 1 0 1 -1 1 -1 0 -1 1 
-1 1 -1 1 -1 1 -1 1 -1 0 -1 1 0 1 -1 1 
-1 1 -1 1 -1 0 -1 1 -1 1 -1 1 -1 1 0 1 
-1 1 -1 0 -1 1 -1 1 -1 1 -1 1 -1 1 -1 1 
-1 0 1 0 -2 2 -1 1 -1 1 -1 1 -1 1 -1 0 
-1 1 -1 1 -1 1 0 1 -1 1 -1 1 -1 1 -1 0 
-1 1 -1 1 -1 1 -1 1 -1 1 0 1 -1 1 -1 0 
-1 1 -1 1 -1 1 -1 1 -1 1 -1 1 -1 1 -1 1 
-1 1 -1 1 -1 1 -1 1 -1 1 -1 1 -1 1 -1 1 
-1 1 -1 1 -1 1 -1 1 -1 1 -1 1 -1 1 -1 1 
-1 1 -1 1 -1 1 -1 1 -1 1 -1 1 -1 1 -1 1 
-1 1 0 1 -1 1 -1 0 -1 1 -1 1 -1 1 -1 1 
-1 1 -1 1 -1 1 0 1 -1 1 -1 1 -1 1 -1 0 
-1 1 -1 1 -1 1 -1 1 -1 1 0 1 -1 1 -1 1 
-1 1 -1 1 -1 1 -1 1 -1 0 -1 1 -1 1 0 1 
-1 1 -1 1 -1 1 -1 1 -1 1 -1 1 -1 1 -1 1 
-1 1 0 1 -1 1 -1 1 -1 0 -1 1 -1 1 -1 1 
-1 1 -1 1 -1 1 0 1 -1 1 -1 1 -1 1 -1 1 
-1 1 -1 1 -1 1 -1 1 -1 1 -1 1 -1 1 -1 1 
-1 1 -1 1 -1 1 -1 1 -1 1 0 1 -1 1 -1 1 
-1 1 -1 1 -1 1 -1 1 -1 1 -1 1 -1 1 -1 1 
-1 1 -1 1 -1 1 -1 1 -1 1 -1 1 -1 1 -1 1 
0 1 -1 1 -1 1 5669 3774 300 MP stroke
-1 1 -1 1 -1 1 -1 1 -1 1 -1 1 -1 1 -1 1 
-1 1 -1 1 -1 1 -1 1 -1 1 -1 1 -1 1 -1 1 
0 1 -1 1 -1 1 -1 1 -1 1 -1 1 -1 1 -1 1 
-1 1 0 1 -1 1 -1 0 -1 1 -1 1 -1 1 -1 1 
-1 1 -1 1 -1 1 0 1 -1 1 -1 1 -1 1 -1 1 
-1 1 -1 1 -1 1 -1 1 -1 1 -1 1 -1 1 -1 1 
-1 1 -1 1 -1 1 -1 1 -1 1 -1 1 0 1 -1 1 
-1 1 -1 1 -1 1 -1 1 -1 0 -1 1 -1 1 -1 1 
0 1 -1 1 -1 1 -1 1 -1 1 -1 1 -1 1 -1 1 
-1 1 -1 0 1 0 -2 2 -1 1 -1 1 -1 1 -1 1 
-1 1 -1 1 -1 1 0 1 -1 1 -1 0 -1 1 -1 1 
-1 1 -1 1 -1 1 -1 1 -1 1 0 1 -1 1 -1 0 
-1 1 -1 1 -1 1 -1 1 -1 1 -1 1 -1 1 -1 1 
-1 1 -1 1 -1 1 -1 1 -1 1 -1 1 -1 1 -1 0 
1 0 -2 2 -1 1 -1 1 -1 1 -1 1 -1 0 -1 1 
-1 1 -1 1 0 1 -1 1 -1 1 -1 0 -1 1 -1 1 
-1 1 -1 1 -1 1 -1 0 1 0 -2 2 -1 1 -1 1 
-1 1 -1 0 -1 1 -1 1 -1 1 -1 1 -1 1 -1 1 
-1 1 -1 1 -1 0 -1 1 -1 1 -1 1 -1 1 -1 1 
-1 1 -1 1 -1 0 -1 1 -1 1 -1 1 -1 0 1 0 
-2 2 -1 1 -1 0 -1 1 -1 1 -1 1 -1 0 -1 1 
-1 1 -1 1 -1 1 -1 1 -1 0 -1 1 -1 1 -1 0 
-1 1 -1 1 -1 1 -1 1 -1 1 -1 0 -1 1 -1 1 
-1 0 -1 1 -1 1 -1 1 -1 1 -1 0 -1 1 -1 0 
-1 1 -1 1 -1 0 -1 1 -1 1 -1 1 -1 0 -1 1 
-1 1 -1 0 -1 1 -1 0 1 0 -2 2 -1 0 -1 1 
-1 0 -1 1 -1 0 -1 1 -1 0 -1 1 -1 1 -1 1 
-1 0 -1 1 -1 0 -1 1 -1 0 -1 1 -1 0 -1 1 
-1 1 -1 0 -1 1 -1 0 -1 0 -1 1 -1 0 -1 1 
-1 1 -1 0 -1 1 -1 0 -1 0 -1 1 -1 0 -1 1 
-1 0 -1 1 -1 0 -1 1 -1 0 -1 0 -1 1 -1 0 
-1 0 -1 1 -1 0 -1 1 -1 0 -1 0 -1 1 -1 0 
-1 0 -1 1 -1 0 -1 0 -1 1 -1 0 -1 0 -1 1 
-1 0 -1 0 -1 0 -1 1 -1 0 -1 0 -1 0 -1 1 
-1 0 -1 0 -1 0 -1 0 -1 1 -1 0 -1 0 -1 0 
-1 0 -1 1 -1 0 -1 0 -1 0 -1 0 -1 0 -1 0 
-1 0 -1 1 -1 0 -1 0 -1 0 -1 0 -1 0 -1 0 
-1 0 -1 0 -1 0 5955 3561 300 MP stroke
-1 0 -1 0 -1 0 -1 0 -1 0 -1 0 -1 0 -1 0 
-1 0 -1 0 -1 0 -1 0 -1 0 -1 0 -1 0 -1 0 
-1 0 -1 0 -1 -1 -1 0 -1 0 -1 0 -1 0 -1 0 
-1 0 -1 -1 -1 0 -1 0 -1 0 -1 0 -1 0 -1 -1 
-1 0 -1 0 -1 0 -1 0 -1 -1 -1 0 -1 0 -1 -1 
-1 0 -1 0 -1 0 -1 -1 -1 0 -1 0 -1 0 -1 -1 
-1 0 -1 0 -1 -1 -1 0 -1 0 -1 -1 -1 0 -1 0 
-1 -1 -1 0 -1 -1 -1 0 -1 0 -1 -1 -1 0 -1 -1 
-1 0 -1 -1 -1 0 -1 0 -1 -1 -1 0 -1 -1 -1 0 
-1 -1 -1 0 -1 -1 -1 0 -1 -1 -1 0 -1 -1 -1 0 
-1 -1 -1 0 -1 0 -1 -1 -1 -1 -1 0 -1 -1 -1 0 
-1 -1 -1 0 -1 -1 -1 0 -1 -1 -1 -1 -1 -1 -1 0 
-1 -1 -1 0 -1 -1 -1 0 -1 -1 -1 -1 -1 0 -1 -1 
-1 -1 -1 0 -1 -1 -1 0 -1 -1 -1 -1 -1 -1 -1 0 
-1 -1 -1 0 -1 -1 -1 -1 -1 0 -1 -1 -1 -1 -1 -1 
-1 0 -1 -1 -1 -1 -1 0 -1 -1 -1 -1 -1 0 -1 -1 
-1 -1 -1 -1 -1 0 -1 -1 -1 -1 -1 0 -1 -1 -1 -1 
-1 -1 -1 -1 -1 0 -1 -1 -1 -1 -1 0 -1 -1 -1 -1 
-1 0 1 0 -2 -2 -1 0 -1 -1 -1 -1 -1 0 -1 -1 
-1 -1 -1 0 -1 -1 -1 -1 -1 -1 -1 -1 -1 0 -1 -1 
-1 -1 -1 0 -1 -1 -1 -1 -1 -1 -1 -1 -1 -1 -1 0 
-1 -1 -1 -1 -1 0 -1 -1 -1 -1 -1 -1 -1 -1 -1 0 
-1 -1 -1 -1 -1 0 -1 -1 -1 -1 -1 -1 -1 -1 -1 -1 
-1 0 -1 -1 -1 -1 -1 0 -1 -1 -1 -1 -1 -1 -1 -1 
-1 0 -1 -1 -1 -1 -1 0 -1 -1 -1 0 -1 -1 -1 -1 
-1 -1 -1 -1 -1 0 -1 -1 -1 -1 -1 0 -1 -1 -1 -1 
-1 -1 -1 0 -1 -1 -1 -1 -1 0 -1 -1 -1 -1 -1 0 
-1 -1 -1 -1 -1 -1 -1 0 -1 -1 -1 0 -1 -1 -1 -1 
-1 0 -1 -1 -1 -1 -1 -1 -1 0 -1 -1 -1 0 -1 -1 
-1 0 -1 -1 -1 -1 -1 -1 -1 0 -1 -1 -1 0 -1 -1 
-1 0 -1 -1 -1 0 -1 -1 -1 -1 -1 0 -1 -1 -1 0 
-1 -1 -1 0 -1 -1 -1 0 -1 -1 -1 -1 -1 0 -1 -1 
-1 0 -1 -1 -1 0 -1 0 -1 -1 -1 -1 -1 0 -1 -1 
-1 0 -1 0 -1 -1 -1 0 -1 -1 -1 0 -1 -1 -1 0 
-1 -1 -1 0 -1 0 -1 -1 -1 0 -1 -1 -1 0 -1 -1 
-1 0 -1 0 -1 -1 -1 0 -1 0 -1 -1 -1 0 -1 0 
-1 -1 -1 0 -1 0 -1 -1 -1 0 -1 0 -1 0 -1 -1 
-1 0 -1 -1 -1 0 6253 3717 300 MP stroke
-1 0 -1 0 -1 0 -1 -1 -1 0 -1 0 -1 -1 -1 0 
-1 0 -1 0 -1 0 -1 0 -1 -1 -1 0 -1 0 -1 0 
-1 0 -1 -1 -1 0 -1 0 -1 0 -1 0 -1 0 -1 0 
-1 0 -1 -1 -1 0 -1 0 -1 0 -1 0 -1 0 -1 0 
-1 0 -1 0 -1 0 -1 0 -1 0 -1 0 -1 0 -1 0 
-1 0 -1 0 6295 3722 43 MP stroke
gr

c9
SO
0 sg
%%IncludeResource: font Helvetica
/Helvetica /WindowsLatin1Encoding 120 FMSR

 887 5346 mt 
( ) s
6279  489 mt 
( ) s
6 w
%%IncludeResource: font Symbol
/Symbol /WindowsLatin1Encoding 192 FMSR

1234 1483 mt 
(Y) s
%%IncludeResource: font Helvetica-Bold
/Helvetica-Bold /WindowsLatin1Encoding 192 FMSR

1386 1483 mt 
(\(x,t\)) s
%%IncludeResource: font Helvetica-Bold
/Helvetica-Bold /WindowsLatin1Encoding 144 FMSR

1737 1579 mt 
(initial) s
%%IncludeResource: font Helvetica-Bold
/Helvetica-Bold /WindowsLatin1Encoding 192 FMSR

2113 1483 mt 
( = A e) s
%%IncludeResource: font Helvetica-Bold
/Helvetica-Bold /WindowsLatin1Encoding 144 FMSR

2630 1387 mt 
(-\(r-R\)) s
%%IncludeResource: font Helvetica-Bold
/Helvetica-Bold /WindowsLatin1Encoding 108 FMSR

3054 1291 mt 
(2) s

end %%Color Dict

eplot
%%EndObject

epage
end

showpage

%%Trailer
%%EOF
