%!PS-Adobe-3.0 EPSF-3.0
%%Creator: MATLAB, The MathWorks, Inc. Version 7.11.0.584 (R2010b). Operating System: Microsoft Windows 7.
%%Title: C:\Users\Hyun Lim\Dropbox\KG\Klein-Gordon paper_Siam\subdomain.eps
%%CreationDate: 04/03/2013  19:28:38
%%DocumentNeededFonts: Helvetica
%%DocumentProcessColors: Cyan Magenta Yellow Black
%%LanguageLevel: 2
%%Pages: 1
%%BoundingBox:    96   238   515   553
%%EndComments

%%BeginProlog
% MathWorks dictionary
/MathWorks 160 dict begin
% definition operators
/bdef {bind def} bind def
/ldef {load def} bind def
/xdef {exch def} bdef
/xstore {exch store} bdef
% operator abbreviations
/c  /clip ldef
/cc /concat ldef
/cp /closepath ldef
/gr /grestore ldef
/gs /gsave ldef
/mt /moveto ldef
/np /newpath ldef
/cm /currentmatrix ldef
/sm /setmatrix ldef
/rm /rmoveto ldef
/rl /rlineto ldef
/s {show newpath} bdef
/sc {setcmykcolor} bdef
/sr /setrgbcolor ldef
/sg /setgray ldef
/w /setlinewidth ldef
/j /setlinejoin ldef
/cap /setlinecap ldef
/rc {rectclip} bdef
/rf {rectfill} bdef
% page state control
/pgsv () def
/bpage {/pgsv save def} bdef
/epage {pgsv restore} bdef
/bplot /gsave ldef
/eplot {stroke grestore} bdef
% orientation switch
/portraitMode 0 def /landscapeMode 1 def /rotateMode 2 def
% coordinate system mappings
/dpi2point 0 def
% font control
/FontSize 0 def
/FMS {/FontSize xstore findfont [FontSize 0 0 FontSize neg 0 0]
  makefont setfont} bdef
/ISOLatin1Encoding where {pop /WindowsLatin1Encoding 256 array bdef
ISOLatin1Encoding WindowsLatin1Encoding copy pop
/.notdef/.notdef/quotesinglbase/florin/quotedblbase/ellipsis/dagger
/daggerdbl/circumflex/perthousand/Scaron/guilsinglleft/OE/.notdef/.notdef
/.notdef/.notdef/quoteleft/quoteright/quotedblleft/quotedblright/bullet
/endash/emdash/tilde/trademark/scaron/guilsinglright/oe/.notdef/.notdef
/Ydieresis WindowsLatin1Encoding 128 32 getinterval astore pop}
{/WindowsLatin1Encoding StandardEncoding bdef} ifelse
/reencode {exch dup where {pop load} {pop StandardEncoding} ifelse
  exch dup 3 1 roll findfont dup length dict begin
  { 1 index /FID ne {def}{pop pop} ifelse } forall
  /Encoding exch def currentdict end definefont pop} bdef
/isroman {findfont /CharStrings get /Agrave known} bdef
/FMSR {3 1 roll 1 index dup isroman {reencode} {pop pop} ifelse
  exch FMS} bdef
/csm {1 dpi2point div -1 dpi2point div scale neg translate
 dup landscapeMode eq {pop -90 rotate}
  {rotateMode eq {90 rotate} if} ifelse} bdef
% line types: solid, dotted, dashed, dotdash
/SO { [] 0 setdash } bdef
/DO { [.5 dpi2point mul 4 dpi2point mul] 0 setdash } bdef
/DA { [6 dpi2point mul] 0 setdash } bdef
/DD { [.5 dpi2point mul 4 dpi2point mul 6 dpi2point mul 4
  dpi2point mul] 0 setdash } bdef
% macros for lines and objects
/L {lineto stroke} bdef
/MP {3 1 roll moveto 1 sub {rlineto} repeat} bdef
/AP {{rlineto} repeat} bdef
/PDlw -1 def
/W {/PDlw currentlinewidth def setlinewidth} def
/PP {closepath eofill} bdef
/DP {closepath stroke} bdef
/MR {4 -2 roll moveto dup  0 exch rlineto exch 0 rlineto
  neg 0 exch rlineto closepath} bdef
/FR {MR stroke} bdef
/PR {MR fill} bdef
/L1i {{currentfile picstr readhexstring pop} image} bdef
/tMatrix matrix def
/MakeOval {newpath tMatrix currentmatrix pop translate scale
0 0 1 0 360 arc tMatrix setmatrix} bdef
/FO {MakeOval stroke} bdef
/PO {MakeOval fill} bdef
/PD {currentlinewidth 2 div 0 360 arc fill
   PDlw -1 eq not {PDlw w /PDlw -1 def} if} def
/FA {newpath tMatrix currentmatrix pop translate scale
  0 0 1 5 -2 roll arc tMatrix setmatrix stroke} bdef
/PA {newpath tMatrix currentmatrix pop	translate 0 0 moveto scale
  0 0 1 5 -2 roll arc closepath tMatrix setmatrix fill} bdef
/FAn {newpath tMatrix currentmatrix pop translate scale
  0 0 1 5 -2 roll arcn tMatrix setmatrix stroke} bdef
/PAn {newpath tMatrix currentmatrix pop translate 0 0 moveto scale
  0 0 1 5 -2 roll arcn closepath tMatrix setmatrix fill} bdef
/vradius 0 def /hradius 0 def /lry 0 def
/lrx 0 def /uly 0 def /ulx 0 def /rad 0 def
/MRR {/vradius xdef /hradius xdef /lry xdef /lrx xdef /uly xdef
  /ulx xdef newpath tMatrix currentmatrix pop ulx hradius add uly
  vradius add translate hradius vradius scale 0 0 1 180 270 arc 
  tMatrix setmatrix lrx hradius sub uly vradius add translate
  hradius vradius scale 0 0 1 270 360 arc tMatrix setmatrix
  lrx hradius sub lry vradius sub translate hradius vradius scale
  0 0 1 0 90 arc tMatrix setmatrix ulx hradius add lry vradius sub
  translate hradius vradius scale 0 0 1 90 180 arc tMatrix setmatrix
  closepath} bdef
/FRR {MRR stroke } bdef
/PRR {MRR fill } bdef
/MlrRR {/lry xdef /lrx xdef /uly xdef /ulx xdef /rad lry uly sub 2 div def
  newpath tMatrix currentmatrix pop ulx rad add uly rad add translate
  rad rad scale 0 0 1 90 270 arc tMatrix setmatrix lrx rad sub lry rad
  sub translate rad rad scale 0 0 1 270 90 arc tMatrix setmatrix
  closepath} bdef
/FlrRR {MlrRR stroke } bdef
/PlrRR {MlrRR fill } bdef
/MtbRR {/lry xdef /lrx xdef /uly xdef /ulx xdef /rad lrx ulx sub 2 div def
  newpath tMatrix currentmatrix pop ulx rad add uly rad add translate
  rad rad scale 0 0 1 180 360 arc tMatrix setmatrix lrx rad sub lry rad
  sub translate rad rad scale 0 0 1 0 180 arc tMatrix setmatrix
  closepath} bdef
/FtbRR {MtbRR stroke } bdef
/PtbRR {MtbRR fill } bdef
/stri 6 array def /dtri 6 array def
/smat 6 array def /dmat 6 array def
/tmat1 6 array def /tmat2 6 array def /dif 3 array def
/asub {/ind2 exch def /ind1 exch def dup dup
  ind1 get exch ind2 get sub exch } bdef
/tri_to_matrix {
  2 0 asub 3 1 asub 4 0 asub 5 1 asub
  dup 0 get exch 1 get 7 -1 roll astore } bdef
/compute_transform {
  dmat dtri tri_to_matrix tmat1 invertmatrix 
  smat stri tri_to_matrix tmat2 concatmatrix } bdef
/ds {stri astore pop} bdef
/dt {dtri astore pop} bdef
/db {2 copy /cols xdef /rows xdef mul dup 3 mul string
  currentfile 
  3 index 0 eq {/ASCIIHexDecode filter}
  {/ASCII85Decode filter 3 index 2 eq {/RunLengthDecode filter} if }
  ifelse exch readstring pop
  dup 0 3 index getinterval /rbmap xdef
  dup 2 index dup getinterval /gbmap xdef
  1 index dup 2 mul exch getinterval /bbmap xdef pop pop}bdef
/it {gs np dtri aload pop moveto lineto lineto cp c
  cols rows 8 compute_transform 
  rbmap gbmap bbmap true 3 colorimage gr}bdef
/il {newpath moveto lineto stroke}bdef
currentdict end def
%%EndProlog

%%BeginSetup
MathWorks begin

0 cap

end
%%EndSetup

%%Page: 1 1
%%BeginPageSetup
%%PageBoundingBox:    96   238   515   553
MathWorks begin
bpage
%%EndPageSetup

%%BeginObject: obj1
bplot

/dpi2point 12 def
portraitMode 1152 6636 csm

    0     0  5039  3780 rc
86 dict begin %Colortable dictionary
/c0 { 0.000000 0.000000 0.000000 sr} bdef
/c1 { 1.000000 1.000000 1.000000 sr} bdef
/c2 { 0.900000 0.000000 0.000000 sr} bdef
/c3 { 0.000000 0.820000 0.000000 sr} bdef
/c4 { 0.000000 0.000000 0.800000 sr} bdef
/c5 { 0.910000 0.820000 0.320000 sr} bdef
/c6 { 1.000000 0.260000 0.820000 sr} bdef
/c7 { 0.000000 0.820000 0.820000 sr} bdef
c0
1 j
1 sg
   0    0 5040 3781 rf
6 w
0 3081 3905 0 0 -3081 655 3364 4 MP
PP
-3905 0 0 3081 3905 0 0 -3081 655 3364 5 MP stroke
4 w
DO
SO
6 w
0 sg
 655  283 mt 4560  283 L
 655 3364 mt 4560 3364 L
4560 3364 mt 4560  283 L
 655 3364 mt  655  283 L
 655 3364 mt 4560 3364 L
 655 3364 mt  655  283 L
 655 3364 mt  655 3324 L
 655  283 mt  655  322 L
%%IncludeResource: font Helvetica
/Helvetica /WindowsLatin1Encoding 120 FMSR

 622 3509 mt 
(2) s
1143 3364 mt 1143 3324 L
1143  283 mt 1143  322 L
1110 3509 mt 
(4) s
1631 3364 mt 1631 3324 L
1631  283 mt 1631  322 L
1598 3509 mt 
(6) s
2119 3364 mt 2119 3324 L
2119  283 mt 2119  322 L
2086 3509 mt 
(8) s
2607 3364 mt 2607 3324 L
2607  283 mt 2607  322 L
2541 3509 mt 
(10) s
3095 3364 mt 3095 3324 L
3095  283 mt 3095  322 L
3029 3509 mt 
(12) s
3583 3364 mt 3583 3324 L
3583  283 mt 3583  322 L
3517 3509 mt 
(14) s
4071 3364 mt 4071 3324 L
4071  283 mt 4071  322 L
4005 3509 mt 
(16) s
4560 3364 mt 4560 3324 L
4560  283 mt 4560  322 L
4494 3509 mt 
(18) s
 655 3364 mt  694 3364 L
4560 3364 mt 4520 3364 L
 454 3408 mt 
(0.2) s
 655 2978 mt  694 2978 L
4560 2978 mt 4520 2978 L
 454 3022 mt 
(0.3) s
 655 2593 mt  694 2593 L
4560 2593 mt 4520 2593 L
 454 2637 mt 
(0.4) s
 655 2208 mt  694 2208 L
4560 2208 mt 4520 2208 L
 454 2252 mt 
(0.5) s
 655 1823 mt  694 1823 L
4560 1823 mt 4520 1823 L
 454 1867 mt 
(0.6) s
 655 1438 mt  694 1438 L
4560 1438 mt 4520 1438 L
 454 1482 mt 
(0.7) s
 655 1053 mt  694 1053 L
4560 1053 mt 4520 1053 L
 454 1097 mt 
(0.8) s
 655  668 mt  694  668 L
4560  668 mt 4520  668 L
 454  712 mt 
(0.9) s
 655  283 mt  694  283 L
4560  283 mt 4520  283 L
 554  327 mt 
(1) s
 655  283 mt 4560  283 L
 655 3364 mt 4560 3364 L
4560 3364 mt 4560  283 L
 655 3364 mt  655  283 L
gs 655 282 3906 3082 rc
/c8 { 0.000000 0.000000 1.000000 sr} bdef
c8
732 323 1464 227 732 1086 899 1365 4 MP stroke
/c9 { 0.000000 0.500000 0.000000 sr} bdef
c9
2197 466 732 413 732 801 899 440 4 MP stroke
DA
24 w
/c10 { 1.000000 0.000000 0.000000 sr} bdef
c10
732 323 1464 227 732 1086 899 1365 4 MP stroke
gr

24 w
c10
DA
SO
0 j
0 -94 -94 0 0 94 94 0 852 1318 5 MP
/c11 { 0.000000 1.000000 0.000000 sr} bdef
c11
gs
PP
gr
0 sg
DP
0 -94 -94 0 0 94 94 0 1584 2404 5 MP
c11
gs
PP
gr
0 sg
DP
0 -94 -94 0 0 94 94 0 3048 2631 5 MP
c11
gs
PP
gr
0 sg
DP
0 -94 -94 0 0 94 94 0 3780 2954 5 MP
c11
gs
PP
gr
0 sg
DP
DA
gs 655 282 3906 3082 rc
c10
732 323 1464 227 732 1086 899 1365 4 MP stroke
gr

c10
SO
0 -48 -48 0 0 48 48 0 875 1341 5 MP
c11
gs
PP
gr
0 sg
DP
0 -48 -48 0 0 48 48 0 1607 2427 5 MP
c11
gs
PP
gr
0 sg
DP
0 -48 -48 0 0 48 48 0 3071 2654 5 MP
c11
gs
PP
gr
0 sg
DP
0 -48 -48 0 0 48 48 0 3803 2977 5 MP
c11
gs
PP
gr
0 sg
DP
DA
gs 655 282 3906 3082 rc
c10
732 323 1464 227 732 1086 899 1365 4 MP stroke
gr

c10
SO
0 -94 -94 0 0 94 94 0 852 1318 5 MP
c11
gs
PP
gr
0 sg
DP
0 -94 -94 0 0 94 94 0 1584 2404 5 MP
c11
gs
PP
gr
0 sg
DP
0 -94 -94 0 0 94 94 0 3048 2631 5 MP
c11
gs
PP
gr
0 sg
DP
0 -94 -94 0 0 94 94 0 3780 2954 5 MP
c11
gs
PP
gr
0 sg
DP
DA
gs 655 282 3906 3082 rc
c10
2197 466 732 413 732 801 899 440 4 MP stroke
gr

c10
SO
0 -94 -94 0 0 94 94 0 852 393 5 MP
gs
PP
gr
0 sg
DP
0 -94 -94 0 0 94 94 0 1584 1194 5 MP
c10
gs
PP
gr
0 sg
DP
0 -94 -94 0 0 94 94 0 2316 1607 5 MP
c10
gs
PP
gr
0 sg
DP
0 -94 -94 0 0 94 94 0 4513 2073 5 MP
c10
gs
PP
gr
0 sg
DP
DA
gs 655 282 3906 3082 rc
c10
732 323 1464 227 732 1086 899 1365 4 MP stroke
gr

c10
SO
0 -94 -94 0 0 94 94 0 852 1318 5 MP
c11
gs
PP
gr
0 sg
DP
0 -94 -94 0 0 94 94 0 1584 2404 5 MP
c11
gs
PP
gr
0 sg
DP
0 -94 -94 0 0 94 94 0 3048 2631 5 MP
c11
gs
PP
gr
0 sg
DP
0 -94 -94 0 0 94 94 0 3780 2954 5 MP
c11
gs
PP
gr
0 sg
DP
DA
gs 655 282 3906 3082 rc
c11
2197 466 732 413 732 801 899 440 4 MP stroke
gr

c11
SO
0 -94 -94 0 0 94 94 0 852 393 5 MP
c10
gs
PP
gr
0 sg
DP
0 -94 -94 0 0 94 94 0 1584 1194 5 MP
c10
gs
PP
gr
0 sg
DP
0 -94 -94 0 0 94 94 0 2316 1607 5 MP
c10
gs
PP
gr
0 sg
DP
0 -94 -94 0 0 94 94 0 4513 2073 5 MP
c10
gs
PP
gr
0 sg
DP
DA
gs 655 282 3906 3082 rc
SO
6 w
c10
732 323 1464 227 732 1086 899 1365 4 MP stroke
DA
24 w
c11
2197 466 732 413 732 801 899 440 4 MP stroke
gr

c11
SO
0 -94 -94 0 0 94 94 0 852 393 5 MP
c10
gs
PP
gr
0 sg
DP
0 -94 -94 0 0 94 94 0 1584 1194 5 MP
c10
gs
PP
gr
0 sg
DP
0 -94 -94 0 0 94 94 0 2316 1607 5 MP
c10
gs
PP
gr
0 sg
DP
0 -94 -94 0 0 94 94 0 4513 2073 5 MP
c10
gs
PP
gr
0 sg
DP
DA
gs 655 282 3906 3082 rc
SO
6 w
/c12 { 0.000000 0.750000 0.750000 sr} bdef
c12
732 323 1464 227 732 1086 899 1365 4 MP stroke
DA
24 w
c11
2197 466 732 413 732 801 899 440 4 MP stroke
gr

c11
SO
0 -94 -94 0 0 94 94 0 852 393 5 MP
c10
gs
PP
gr
0 sg
DP
0 -94 -94 0 0 94 94 0 1584 1194 5 MP
c10
gs
PP
gr
0 sg
DP
0 -94 -94 0 0 94 94 0 2316 1607 5 MP
c10
gs
PP
gr
0 sg
DP
0 -94 -94 0 0 94 94 0 4513 2073 5 MP
c10
gs
PP
gr
0 sg
DP
DA
gs 655 282 3906 3082 rc
SO
6 w
/c13 { 0.750000 0.000000 0.750000 sr} bdef
c13
732 323 1464 227 732 1086 899 1365 4 MP stroke
/c14 { 0.750000 0.750000 0.000000 sr} bdef
c14
2197 466 732 413 732 801 899 440 4 MP stroke
gr

6 w
c14
SO
0 sg
2042 3652 mt 
(Subdomain Numbers) s
 372 2325 mt  -90 rotate
(Convergence Time) s
90 rotate

end %%Color Dict

eplot
%%EndObject

epage
end

showpage

%%Trailer
%%EOF
