\addvspace {10\p@ }
\addvspace {10\p@ }
\addvspace {10\p@ }
\contentsline {table}{\numberline {1.1}{\ignorespaces Relative Frequencies of Letters in Esperanto \cite {wikipedia}}}{2}{table.1.1}
\addvspace {10\p@ }
\addvspace {10\p@ }
\addvspace {10\p@ }
