\addvspace {10\p@ }
\addvspace {10\p@ }
\addvspace {10\p@ }
\addvspace {10\p@ }
\addvspace {10\p@ }
\addvspace {10\p@ }
\contentsline {figure}{\numberline {B.1}{\ignorespaces An ASCII art unicorn with wings (or pegasus with a horn) \cite {unicorn}}}{7}{figure.B.1}
